{
    "status": "OK",
    "status_message": "OK",
    "query_meta": {
        "total_results": 8582,
        "linguistics_count": 0,
        "total_universe": 73304,
        "total_spammed": 34,
        "total_from_index": 8548,
        "sources_from_index": 3894,
        "total_sources_est": 3909,
        "sources_universe": 33393,
        "reach": 1019892,
        "index_result_age": 209
    },
    "query_info": {
        "query": "immigration (awards NEAR/3 (oscar | academy)) | (oscars | \"oscar presenters\" | \"oscar performances\" | \"oscar nominations 2017\" | \"oscar night\" | \"oscar news\" | \"oscar live\" | \"oscar latest\" | \"oscar host\" | \"oscar coverage\" | \"oscar awards 2017\" | \"oscar 2017\") | (#oscars | \"annual academy awards\" | \"academy awards live\" | \"academy awards 2017\" | \"academy award\" | \"89th academy awards\" | \"2017 academy awards\")",
        "query_within": "",
        "source_query_exclude": false,
        "source_query": "",
        "start_date": "2016-02-21T00:00:00Z",
        "end_date": "2017-03-21T23:59:59Z",
        "influence": "",
        "watchlist_ids": "",
        "dictionary_ids": "",
        "source_ids": "",
        "languages": "",
        "linguistics_languages": "",
        "categories": "",
        "countries": "",
        "states": "",
        "gender": "",
        "age": "",
        "weekdays": "",
        "hours": "",
        "hour_min": 0,
        "hour_max": 24,
        "found_from": "1970-01-01T00:00:00Z",
        "found_to": "1970-01-01T00:00:00Z",
        "id_min": 0,
        "id_max": 0,
        "firehose_id": 0
    },
    "usage": {
        "monthly_reset": "2017-04-12T00:00:00Z",
        "monthly_used": 303,
        "monthly_limit": 1050,
        "hourly_used": 6
    },
    "output": [
        {
            "id": "lt_highschool",
            "display_name": "Less than highschool",
            "count": 1274,
            "probability": 17.217973709106447,
            "vs_expected": 0.03121585813708973,
            "db_distribution": 16.69676971435547
        },
        {
            "id": "highschool",
            "display_name": "Highschool",
            "count": 2053,
            "probability": 27.74675941467285,
            "vs_expected": -0.11154022305039775,
            "db_distribution": 31.230180740356447
        },
        {
            "id": "some_college",
            "display_name": "Some college",
            "count": 2180,
            "probability": 29.470273971557618,
            "vs_expected": 0.07689796955018777,
            "db_distribution": 27.36589241027832
        },
        {
            "id": "college",
            "display_name": "College",
            "count": 1891,
            "probability": 25.5668888092041,
            "vs_expected": 0.034824747977680158,
            "db_distribution": 24.706491470336915
        }
    ]
}