{
 status : "OK",
 status_message : "OK",
 query_meta : {
  total_results : 10320,
  linguistics_count : 0,
  total_universe : 148684,
  total_spammed : 131,
  total_from_index : 10189,
  sources_from_index : 2378,
  total_sources_est : 2408,
  sources_universe : 34701,
  reach : 1719883,
  index_result_age : 0
 },
 query_info : {
  query : "((awards NEAR/3 (oscar | academy)) | (oscars | "oscar presenters" | "oscar performances" | "oscar nominations 2016" | "oscar night" | "oscar news" | "oscar live" | "oscar latest" | "oscar host" | "oscar coverage" | "oscar awards 2016" | "oscar 2016") | (#oscars | "annual academy awards" | "academy awards live" | "academy awards 2016" | "academy award" | "88th academy awards" | "2016 academy awards")) (issue (social | politics | political | government | global | environment | country))",
  query_within : "",
  source_query_exclude : false,
  source_query : "",
  start_date : "2017-01-19T00:00:00Z",
  end_date : "2017-04-19T23:59:59Z",
  influence : "",
  watchlist_ids : "",
  dictionary_ids : "",
  source_ids : "",
  languages : "",
  linguistics_languages : "",
  categories : "",
  countries : "",
  states : "",
  gender : "",
  age : "",
  weekdays : "",
  hours : "",
  hour_min : 0,
  hour_max : 24,
  found_from : "1970-01-01T00:00:00Z",
  found_to : "1970-01-01T00:00:00Z",
  id_min : 0,
  id_max : 0,
  firehose_id : 0
 },
 output : [{
   date : "2017-01-19T00:00:00Z",
   posts_count : 74,
   posts_universe : 298,
   posts_normalized : 0.0003796468647992351,
   posts_word_normalized : 0.00042281254532738915,
   posts_normalized_div : 19491798,
   posts_word_div : 17501845.869474106
  },{
   date : "2017-01-20T00:00:00Z",
   posts_count : 13,
   posts_universe : 171,
   posts_normalized : 0.00006608354210225676,
   posts_word_normalized : 0.0000767195024916877,
   posts_normalized_div : 19672069,
   posts_word_div : 16944843.9807186
  },{
   date : "2017-01-21T00:00:00Z",
   posts_count : 11,
   posts_universe : 75,
   posts_normalized : 0.00005963669003141823,
   posts_word_normalized : 0.00008316320660020041,
   posts_normalized_div : 18445021,
   posts_word_div : 13227003.202126997
  },{
   date : "2017-01-22T00:00:00Z",
   posts_count : 12,
   posts_universe : 138,
   posts_normalized : 0.00006348349825817151,
   posts_word_normalized : 0.00009063141387198735,
   posts_normalized_div : 18902550,
   posts_word_div : 13240442.23446568
  },{
   date : "2017-01-23T00:00:00Z",
   posts_count : 15,
   posts_universe : 143,
   posts_normalized : 0.00007743205169694149,
   posts_word_normalized : 0.00008709614881238687,
   posts_normalized_div : 19371823,
   posts_word_div : 17222345.88387069
  },{
   date : "2017-01-24T00:00:00Z",
   posts_count : 75,
   posts_universe : 297,
   posts_normalized : 0.0003847014788335194,
   posts_word_normalized : 0.0004117920520333872,
   posts_normalized_div : 19495636,
   posts_word_div : 18213076.14599593
  },{
   date : "2017-01-25T00:00:00Z",
   posts_count : 38,
   posts_universe : 435,
   posts_normalized : 0.00019099095657820604,
   posts_word_normalized : 0.0002143395116456195,
   posts_normalized_div : 19896230,
   posts_word_div : 17728882.420348007
  },{
   date : "2017-01-26T00:00:00Z",
   posts_count : 28,
   posts_universe : 378,
   posts_normalized : 0.0001426858761264413,
   posts_word_normalized : 0.00016181972894145015,
   posts_normalized_div : 19623526,
   posts_word_div : 17303205.352748428
  },{
   date : "2017-01-27T00:00:00Z",
   posts_count : 20,
   posts_universe : 114,
   posts_normalized : 0.00010306258722959728,
   posts_word_normalized : 0.0001048305702905081,
   posts_normalized_div : 19405684,
   posts_word_div : 19078404.271364443
  },{
   date : "2017-01-28T00:00:00Z",
   posts_count : 36,
   posts_universe : 228,
   posts_normalized : 0.00019020698218130425,
   posts_word_normalized : 0.00027266112552091934,
   posts_normalized_div : 18926750,
   posts_word_div : 13203202.301472925
  },{
   date : "2017-01-29T00:00:00Z",
   posts_count : 83,
   posts_universe : 837,
   posts_normalized : 0.000418831153266719,
   posts_word_normalized : 0.0005993397161503918,
   posts_normalized_div : 19817055,
   posts_word_div : 13848573.315500569
  },{
   date : "2017-01-30T00:00:00Z",
   posts_count : 83,
   posts_universe : 974,
   posts_normalized : 0.00039541853789755584,
   posts_word_normalized : 0.0004437515124109094,
   posts_normalized_div : 20990417,
   posts_word_div : 18704161.603655074
  },{
   date : "2017-01-31T00:00:00Z",
   posts_count : 28,
   posts_universe : 252,
   posts_normalized : 0.0001369241629874818,
   posts_word_normalized : 0.00014332247953976915,
   posts_normalized_div : 20449276,
   posts_word_div : 19536363.09524673
  },{
   date : "2017-02-01T00:00:00Z",
   posts_count : 27,
   posts_universe : 315,
   posts_normalized : 0.00013161757314939112,
   posts_word_normalized : 0.00013833901846959306,
   posts_normalized_div : 20513978,
   posts_word_div : 19517270.180671845
  },{
   date : "2017-02-02T00:00:00Z",
   posts_count : 57,
   posts_universe : 648,
   posts_normalized : 0.00028321346116562114,
   posts_word_normalized : 0.00030254304657106196,
   posts_normalized_div : 20126162,
   posts_word_div : 18840294.181612175
  },{
   date : "2017-02-03T00:00:00Z",
   posts_count : 26,
   posts_universe : 442,
   posts_normalized : 0.00013169289904797177,
   posts_word_normalized : 0.00014196942534285367,
   posts_normalized_div : 19742902,
   posts_word_div : 18313802.381893463
  },{
   date : "2017-02-04T00:00:00Z",
   posts_count : 16,
   posts_universe : 238,
   posts_normalized : 0.0000880967716607662,
   posts_word_normalized : 0.00011525309509233123,
   posts_normalized_div : 18161846,
   posts_word_div : 13882490.51982693
  },{
   date : "2017-02-05T00:00:00Z",
   posts_count : 15,
   posts_universe : 269,
   posts_normalized : 0.00007958835628714587,
   posts_word_normalized : 0.0001059406597287235,
   posts_normalized_div : 18846978,
   posts_word_div : 14158869.728024809
  },{
   date : "2017-02-06T00:00:00Z",
   posts_count : 32,
   posts_universe : 319,
   posts_normalized : 0.00015215994368560483,
   posts_word_normalized : 0.0001670758665789582,
   posts_normalized_div : 21030502,
   posts_word_div : 19152975.624326423
  },{
   date : "2017-02-07T00:00:00Z",
   posts_count : 26,
   posts_universe : 218,
   posts_normalized : 0.00012869067533104688,
   posts_word_normalized : 0.00013026442084203486,
   posts_normalized_div : 20203484,
   posts_word_div : 19959402.446143676
  },{
   date : "2017-02-08T00:00:00Z",
   posts_count : 53,
   posts_universe : 341,
   posts_normalized : 0.00026359027964591175,
   posts_word_normalized : 0.00026233409512030207,
   posts_normalized_div : 20106963,
   posts_word_div : 20203245.016891565
  },{
   date : "2017-02-09T00:00:00Z",
   posts_count : 42,
   posts_universe : 375,
   posts_normalized : 0.0002090568504719384,
   posts_word_normalized : 0.00020792072603191636,
   posts_normalized_div : 20090229,
   posts_word_div : 20200006.41665367
  },{
   date : "2017-02-10T00:00:00Z",
   posts_count : 19,
   posts_universe : 307,
   posts_normalized : 0.0000973038585947551,
   posts_word_normalized : 0.00010295695314350475,
   posts_normalized_div : 19526461,
   posts_word_div : 18454314.565347698
  },{
   date : "2017-02-11T00:00:00Z",
   posts_count : 33,
   posts_universe : 415,
   posts_normalized : 0.00018387093107559145,
   posts_word_normalized : 0.00024346731430854185,
   posts_normalized_div : 17947372,
   posts_word_div : 13554180.812205322
  },{
   date : "2017-02-12T00:00:00Z",
   posts_count : 26,
   posts_universe : 186,
   posts_normalized : 0.00014038152242249266,
   posts_word_normalized : 0.00018272369573595537,
   posts_normalized_div : 18520956,
   posts_word_div : 14229134.264869107
  },{
   date : "2017-02-13T00:00:00Z",
   posts_count : 39,
   posts_universe : 292,
   posts_normalized : 0.00018800881693861098,
   posts_word_normalized : 0.00018478231008172137,
   posts_normalized_div : 20743708,
   posts_word_div : 21105916.460700136
  },{
   date : "2017-02-14T00:00:00Z",
   posts_count : 51,
   posts_universe : 433,
   posts_normalized : 0.00024983858467911415,
   posts_word_normalized : 0.00026022461085306104,
   posts_normalized_div : 20413180,
   posts_word_div : 19598453.748403434
  },{
   date : "2017-02-15T00:00:00Z",
   posts_count : 55,
   posts_universe : 548,
   posts_normalized : 0.0002821820987781002,
   posts_word_normalized : 0.00028135572243917614,
   posts_normalized_div : 19490960,
   posts_word_div : 19548207.345201578
  },{
   date : "2017-02-16T00:00:00Z",
   posts_count : 50,
   posts_universe : 191,
   posts_normalized : 0.0002536927259496505,
   posts_word_normalized : 0.0002537023049511266,
   posts_normalized_div : 19708882,
   posts_word_div : 19708137.8545741
  },{
   date : "2017-02-17T00:00:00Z",
   posts_count : 67,
   posts_universe : 302,
   posts_normalized : 0.00034428427974341266,
   posts_word_normalized : 0.00034567715880177155,
   posts_normalized_div : 19460662,
   posts_word_div : 19382246.785481457
  },{
   date : "2017-02-18T00:00:00Z",
   posts_count : 39,
   posts_universe : 276,
   posts_normalized : 0.00021938463509894274,
   posts_word_normalized : 0.00028435149821067016,
   posts_normalized_div : 17776997,
   posts_word_div : 13715419.206655877
  },{
   date : "2017-02-19T00:00:00Z",
   posts_count : 43,
   posts_universe : 299,
   posts_normalized : 0.00023619601808668264,
   posts_word_normalized : 0.0003077988098803062,
   posts_normalized_div : 18205218,
   posts_word_div : 13970164.477478463
  },{
   date : "2017-02-20T00:00:00Z",
   posts_count : 54,
   posts_universe : 338,
   posts_normalized : 0.00027679789330148586,
   posts_word_normalized : 0.0002799204611139891,
   posts_normalized_div : 19508819,
   posts_word_div : 19291194.28608334
  },{
   date : "2017-02-21T00:00:00Z",
   posts_count : 61,
   posts_universe : 253,
   posts_normalized : 0.00030592292357197815,
   posts_word_normalized : 0.00028596812874456297,
   posts_normalized_div : 19939663,
   posts_word_div : 21331048.417107835
  },{
   date : "2017-02-22T00:00:00Z",
   posts_count : 58,
   posts_universe : 566,
   posts_normalized : 0.000285054531914902,
   posts_word_normalized : 0.0002753647218596097,
   posts_normalized_div : 20346984,
   posts_word_div : 21062974.083357845
  },{
   date : "2017-02-23T00:00:00Z",
   posts_count : 243,
   posts_universe : 1039,
   posts_normalized : 0.0012237411832721127,
   posts_word_normalized : 0.001162707396058711,
   posts_normalized_div : 19857140,
   posts_word_div : 20899497.22722239
  },{
   date : "2017-02-24T00:00:00Z",
   posts_count : 144,
   posts_universe : 955,
   posts_normalized : 0.0007383027465785051,
   posts_word_normalized : 0.0007382635933232489,
   posts_normalized_div : 19504194,
   posts_word_div : 19505228.390281674
  },{
   date : "2017-02-25T00:00:00Z",
   posts_count : 74,
   posts_universe : 979,
   posts_normalized : 0.0004202928043656836,
   posts_word_normalized : 0.0005213462863746806,
   posts_normalized_div : 17606773,
   posts_word_div : 14194020.737076426
  },{
   date : "2017-02-26T00:00:00Z",
   posts_count : 157,
   posts_universe : 1455,
   posts_normalized : 0.0008620205916404208,
   posts_word_normalized : 0.0010819017457678302,
   posts_normalized_div : 18213022,
   posts_word_div : 14511484.117125297
  },{
   date : "2017-02-27T00:00:00Z",
   posts_count : 276,
   posts_universe : 1922,
   posts_normalized : 0.001388394441049753,
   posts_word_normalized : 0.0012812753259205316,
   posts_normalized_div : 19879077,
   posts_word_div : 21541037.6221604
  },{
   date : "2017-02-28T00:00:00Z",
   posts_count : 190,
   posts_universe : 1183,
   posts_normalized : 0.00097567463407708,
   posts_word_normalized : 0.000906395633853328,
   posts_normalized_div : 19473705,
   posts_word_div : 20962148.63616009
  },{
   date : "2017-03-01T00:00:00Z",
   posts_count : 138,
   posts_universe : 1164,
   posts_normalized : 0.0006720040998093602,
   posts_word_normalized : 0.0006041804254538048,
   posts_normalized_div : 20535589,
   posts_word_div : 22840859.151692487
  },{
   date : "2017-03-02T00:00:00Z",
   posts_count : 2527,
   posts_universe : 81115,
   posts_normalized : 0.012424365385098541,
   posts_word_normalized : 0.0115684260898524,
   posts_normalized_div : 20339067,
   posts_word_div : 21843939.533111043
  },{
   date : "2017-03-03T00:00:00Z",
   posts_count : 442,
   posts_universe : 1018,
   posts_normalized : 0.001828793030527686,
   posts_word_normalized : 0.0020004643904717413,
   posts_normalized_div : 24168946,
   posts_word_div : 22094869.676523928
  },{
   date : "2017-03-04T00:00:00Z",
   posts_count : 55,
   posts_universe : 437,
   posts_normalized : 0.00024296603392274098,
   posts_word_normalized : 0.0003315052877081331,
   posts_normalized_div : 22636909,
   posts_word_div : 16590987.24495267
  },{
   date : "2017-03-05T00:00:00Z",
   posts_count : 49,
   posts_universe : 429,
   posts_normalized : 0.00020901403303155402,
   posts_word_normalized : 0.00028702980688843634,
   posts_normalized_div : 23443402,
   posts_word_div : 17071397.751748297
  },{
   date : "2017-03-06T00:00:00Z",
   posts_count : 157,
   posts_universe : 667,
   posts_normalized : 0.0006356575117814261,
   posts_word_normalized : 0.0006379427135268409,
   posts_normalized_div : 24698835,
   posts_word_div : 24610360.25194672
  },{
   date : "2017-03-07T00:00:00Z",
   posts_count : 81,
   posts_universe : 401,
   posts_normalized : 0.00032291079605205276,
   posts_word_normalized : 0.0003326788792317248,
   posts_normalized_div : 25084327,
   posts_word_div : 24347803.559714444
  },{
   date : "2017-03-08T00:00:00Z",
   posts_count : 694,
   posts_universe : 20918,
   posts_normalized : 0.0026707085955601662,
   posts_word_normalized : 0.0025969485499884527,
   posts_normalized_div : 25985613,
   posts_word_div : 26723671.518370505
  },{
   date : "2017-03-09T00:00:00Z",
   posts_count : 53,
   posts_universe : 290,
   posts_normalized : 0.00021373056785872941,
   posts_word_normalized : 0.00021338990401234388,
   posts_normalized_div : 24797576,
   posts_word_div : 24837163.803651236
  },{
   date : "2017-03-10T00:00:00Z",
   posts_count : 44,
   posts_universe : 266,
   posts_normalized : 0.0001782368294325393,
   posts_word_normalized : 0.00017949277659551439,
   posts_normalized_div : 24686256,
   posts_word_div : 24513521.28735167
  },{
   date : "2017-03-11T00:00:00Z",
   posts_count : 45,
   posts_universe : 333,
   posts_normalized : 0.00019986349767250072,
   posts_word_normalized : 0.0002719858531304272,
   posts_normalized_div : 22515367,
   posts_word_div : 16544978.160471035
  },{
   date : "2017-03-12T00:00:00Z",
   posts_count : 17,
   posts_universe : 175,
   posts_normalized : 0.00007240960906179849,
   posts_word_normalized : 0.00009615364877301883,
   posts_normalized_div : 23477547,
   posts_word_div : 17680036.292881984
  },{
   date : "2017-03-13T00:00:00Z",
   posts_count : 32,
   posts_universe : 463,
   posts_normalized : 0.00012773529669935586,
   posts_word_normalized : 0.00012173299781326865,
   posts_normalized_div : 25051807,
   posts_word_div : 26287038.49804647
  },{
   date : "2017-03-14T00:00:00Z",
   posts_count : 53,
   posts_universe : 324,
   posts_normalized : 0.00018129532361711262,
   posts_word_normalized : 0.0001437838984305386,
   posts_normalized_div : 29234069,
   posts_word_div : 36860872.86442862
  },{
   date : "2017-03-15T00:00:00Z",
   posts_count : 709,
   posts_universe : 901,
   posts_normalized : 0.0021305507759231536,
   posts_word_normalized : 0.001675107083289664,
   posts_normalized_div : 33277780,
   posts_word_div : 42325652.316365846
  },{
   date : "2017-03-16T00:00:00Z",
   posts_count : 80,
   posts_universe : 159,
   posts_normalized : 0.0002467038591237085,
   posts_word_normalized : 0.0002632792909206839,
   posts_normalized_div : 32427543,
   posts_word_div : 30385982.77906369
  },{
   date : "2017-03-17T00:00:00Z",
   posts_count : 18,
   posts_universe : 242,
   posts_normalized : 0.000055137745882565846,
   posts_word_normalized : 0.000056847142479652865,
   posts_normalized_div : 32645513,
   posts_word_div : 31663860.68823545
  },{
   date : "2017-03-18T00:00:00Z",
   posts_count : 11,
   posts_universe : 231,
   posts_normalized : 0.00003679315786408761,
   posts_word_normalized : 0.000050039095385089956,
   posts_normalized_div : 29896863,
   posts_word_div : 21982811.470404092
  },{
   date : "2017-03-19T00:00:00Z",
   posts_count : 14,
   posts_universe : 110,
   posts_normalized : 0.000045748539232803534,
   posts_word_normalized : 0.000058003959377742566,
   posts_normalized_div : 30602070,
   posts_word_div : 24136283.367876638
  },{
   date : "2017-03-20T00:00:00Z",
   posts_count : 82,
   posts_universe : 338,
   posts_normalized : 0.0002864159749138726,
   posts_word_normalized : 0.00028061368949186316,
   posts_normalized_div : 28629688,
   posts_word_div : 29221667.748457342
  },{
   date : "2017-03-21T00:00:00Z",
   posts_count : 94,
   posts_universe : 638,
   posts_normalized : 0.0003230026435704657,
   posts_word_normalized : 0.0002918461898567437,
   posts_normalized_div : 29101929,
   posts_word_div : 32208746.684731793
  },{
   date : "2017-03-22T00:00:00Z",
   posts_count : 137,
   posts_universe : 995,
   posts_normalized : 0.0003745692931593094,
   posts_word_normalized : 0.00035005454198817865,
   posts_normalized_div : 36575342,
   posts_word_div : 39136758.29540486
  },{
   date : "2017-03-23T00:00:00Z",
   posts_count : 186,
   posts_universe : 1044,
   posts_normalized : 0.00039075980786634366,
   posts_word_normalized : 0.00032820276155185173,
   posts_normalized_div : 47599573,
   posts_word_div : 56672283.6579833
  },{
   date : "2017-03-24T00:00:00Z",
   posts_count : 417,
   posts_universe : 929,
   posts_normalized : 0.0007612781162189444,
   posts_word_normalized : 0.0005887610415095017,
   posts_normalized_div : 54776302,
   posts_word_div : 70826697.18276022
  },{
   date : "2017-03-25T00:00:00Z",
   posts_count : 193,
   posts_universe : 801,
   posts_normalized : 0.00039873246049764745,
   posts_word_normalized : 0.00036812730049199353,
   posts_normalized_div : 48403383,
   posts_word_div : 52427516.17227519
  },{
   date : "2017-03-26T00:00:00Z",
   posts_count : 234,
   posts_universe : 298,
   posts_normalized : 0.00047389739720360435,
   posts_word_normalized : 0.0004495878297270023,
   posts_normalized_div : 49377777,
   posts_word_div : 52047672.22949272
  },{
   date : "2017-03-27T00:00:00Z",
   posts_count : 79,
   posts_universe : 285,
   posts_normalized : 0.0001494763078632958,
   posts_word_normalized : 0.00011679289405189521,
   posts_normalized_div : 52851185,
   posts_word_div : 67641101.49106975
  },{
   date : "2017-03-28T00:00:00Z",
   posts_count : 33,
   posts_universe : 129,
   posts_normalized : 0.00006365220374152283,
   posts_word_normalized : 0.000048483051344490145,
   posts_normalized_div : 51844238,
   posts_word_div : 68065022.89949267
  },{
   date : "2017-03-29T00:00:00Z",
   posts_count : 81,
   posts_universe : 910,
   posts_normalized : 0.0001577608062208241,
   posts_word_normalized : 0.00012050308248091192,
   posts_normalized_div : 51343551,
   posts_word_div : 67218197.52024241
  },{
   date : "2017-03-30T00:00:00Z",
   posts_count : 146,
   posts_universe : 3536,
   posts_normalized : 0.0002925446655091382,
   posts_word_normalized : 0.00022381199365297484,
   posts_normalized_div : 49906909,
   posts_word_div : 65233322.67276794
  },{
   date : "2017-03-31T00:00:00Z",
   posts_count : 23,
   posts_universe : 311,
   posts_normalized : 0.000046666923537645796,
   posts_word_normalized : 0.00003838717941148584,
   posts_normalized_div : 49285443,
   posts_word_div : 59915837.40356334
  },{
   date : "2017-04-01T00:00:00Z",
   posts_count : 56,
   posts_universe : 972,
   posts_normalized : 0.0001287478351109003,
   posts_word_normalized : 0.00012951615727309712,
   posts_normalized_div : 43495877,
   posts_word_div : 43237848.604416735
  },{
   date : "2017-04-02T00:00:00Z",
   posts_count : 42,
   posts_universe : 298,
   posts_normalized : 0.00010792354911627702,
   posts_word_normalized : 0.00012253175699250508,
   posts_normalized_div : 38916437,
   posts_word_div : 34276828.33485284
  },{
   date : "2017-04-03T00:00:00Z",
   posts_count : 47,
   posts_universe : 541,
   posts_normalized : 0.0001034405242735515,
   posts_word_normalized : 0.00008995802515884352,
   posts_normalized_div : 45436738,
   posts_word_div : 52246589.35877002
  },{
   date : "2017-04-04T00:00:00Z",
   posts_count : 108,
   posts_universe : 1470,
   posts_normalized : 0.00022034253266807572,
   posts_word_normalized : 0.00018989900379834764,
   posts_normalized_div : 49014595,
   posts_word_div : 56872336.26285076
  },{
   date : "2017-04-05T00:00:00Z",
   posts_count : 83,
   posts_universe : 1043,
   posts_normalized : 0.00015113149877052704,
   posts_word_normalized : 0.00012280305735382047,
   posts_normalized_div : 54919061,
   posts_word_div : 67587893.81021695
  },{
   date : "2017-04-06T00:00:00Z",
   posts_count : 79,
   posts_universe : 303,
   posts_normalized : 0.00014641613247790976,
   posts_word_normalized : 0.00011983636194226282,
   posts_normalized_div : 53955803,
   posts_word_div : 65923229.57706461
  },{
   date : "2017-04-07T00:00:00Z",
   posts_count : 68,
   posts_universe : 676,
   posts_normalized : 0.00012937822328957567,
   posts_word_normalized : 0.00010651134681291923,
   posts_normalized_div : 52559077,
   posts_word_div : 63842963.24732228
  },{
   date : "2017-04-08T00:00:00Z",
   posts_count : 46,
   posts_universe : 856,
   posts_normalized : 0.00010170034576791035,
   posts_word_normalized : 0.00009899538344900681,
   posts_normalized_div : 45230918,
   posts_word_div : 46466813.29710178
  },{
   date : "2017-04-09T00:00:00Z",
   posts_count : 34,
   posts_universe : 726,
   posts_normalized : 0.00007648515270215746,
   posts_word_normalized : 0.00007520252866913148,
   posts_normalized_div : 44453072,
   posts_word_div : 45211245.687747784
  },{
   date : "2017-04-10T00:00:00Z",
   posts_count : 31,
   posts_universe : 191,
   posts_normalized : 0.0000714560013129464,
   posts_word_normalized : 0.00006253631801656066,
   posts_normalized_div : 43383340,
   posts_word_div : 49571194.76044414
  },{
   date : "2017-04-11T00:00:00Z",
   posts_count : 14,
   posts_universe : 202,
   posts_normalized : 0.00004502693430805068,
   posts_word_normalized : 0.00005521883566466886,
   posts_normalized_div : 31092501,
   posts_word_div : 25353667.514865298
  },{
   date : "2017-04-12T00:00:00Z",
   posts_count : 22,
   posts_universe : 240,
   posts_normalized : 0.0000676934866004128,
   posts_word_normalized : 0.00007698648204752653,
   posts_normalized_div : 32499434,
   posts_word_div : 28576445.39000835
  },{
   date : "2017-04-13T00:00:00Z",
   posts_count : 29,
   posts_universe : 251,
   posts_normalized : 0.00008014091757868643,
   posts_word_normalized : 0.00008205218223460435,
   posts_normalized_div : 36186259,
   posts_word_div : 35343362.24852976
  },{
   date : "2017-04-14T00:00:00Z",
   posts_count : 64,
   posts_universe : 704,
   posts_normalized : 0.00013659460931081787,
   posts_word_normalized : 0.00012080756111921833,
   posts_normalized_div : 46853972,
   posts_word_div : 52976816.5229674
  },{
   date : "2017-04-15T00:00:00Z",
   posts_count : 25,
   posts_universe : 241,
   posts_normalized : 0.00005421889003044955,
   posts_word_normalized : 0.00004773407202488825,
   posts_normalized_div : 46109391,
   posts_word_div : 52373491.176208794
  },{
   date : "2017-04-16T00:00:00Z",
   posts_count : 19,
   posts_universe : 115,
   posts_normalized : 0.00003937416138217067,
   posts_word_normalized : 0.000036620682168409676,
   posts_normalized_div : 48254996,
   posts_word_div : 51883249.778427355
  },{
   date : "2017-04-17T00:00:00Z",
   posts_count : 68,
   posts_universe : 386,
   posts_normalized : 0.0001423862392577958,
   posts_word_normalized : 0.00011445221882632854,
   posts_normalized_div : 47757424,
   posts_word_div : 59413439.68454136
  },{
   date : "2017-04-18T00:00:00Z",
   posts_count : 68,
   posts_universe : 68,
   posts_normalized : 0.00014988797196636443,
   posts_word_normalized : 0.00012089448660952408,
   posts_normalized_div : 45367216,
   posts_word_div : 56247395.48266791
  },{
   date : "2017-04-19T00:00:00Z",
   posts_count : 4,
   posts_universe : 100,
   posts_normalized : 0.00005575274993469959,
   posts_word_normalized : 0.000056248949398205554,
   posts_normalized_div : 7174534,
   posts_word_div : 7111243.930411272
  }]
}