{
    "status": "OK",
    "status_message": "OK",
    "query_meta": {
        "total_results": 8582,
        "linguistics_count": 6120,
        "total_universe": 73304,
        "total_spammed": 34,
        "total_from_index": 8548,
        "sources_from_index": 3894,
        "total_sources_est": 3909,
        "sources_universe": 33393,
        "reach": 1019892,
        "index_result_age": 300
    },
    "query_info": {
        "query": "immigration (awards NEAR/3 (oscar | academy)) | (oscars | \"oscar presenters\" | \"oscar performances\" | \"oscar nominations 2017\" | \"oscar night\" | \"oscar news\" | \"oscar live\" | \"oscar latest\" | \"oscar host\" | \"oscar coverage\" | \"oscar awards 2017\" | \"oscar 2017\") | (#oscars | \"annual academy awards\" | \"academy awards live\" | \"academy awards 2017\" | \"academy award\" | \"89th academy awards\" | \"2017 academy awards\")",
        "query_within": "",
        "source_query_exclude": false,
        "source_query": "",
        "start_date": "2016-02-21T00:00:00Z",
        "end_date": "2017-03-21T23:59:59Z",
        "influence": "",
        "watchlist_ids": "",
        "dictionary_ids": "",
        "source_ids": "",
        "languages": "",
        "linguistics_languages": "",
        "categories": "",
        "countries": "",
        "states": "",
        "gender": "",
        "age": "",
        "weekdays": "",
        "hours": "",
        "hour_min": 0,
        "hour_max": 24,
        "found_from": "1970-01-01T00:00:00Z",
        "found_to": "1970-01-01T00:00:00Z",
        "id_min": 0,
        "id_max": 0,
        "firehose_id": 0
    },
    "usage": {
        "monthly_reset": "2017-04-12T00:00:00Z",
        "monthly_used": 316,
        "monthly_limit": 1050,
        "hourly_used": 19
    },
    "output": [
        {
            "topic": "film",
            "key": "1090604137ll",
            "score": 7993.78515625,
            "appearances": 13618,
            "positive_appearances": 2297,
            "negative_appearances": 734,
            "documents": 3198,
            "positive_documents": 1576,
            "negative_documents": 1148,
            "positive_score": 6273.25,
            "negative_score": -1419.875,
            "positive_intensity": 91.03540802001953,
            "negative_intensity": 64.48115539550781,
            "query": "film OR filmmaking",
            "brand": "",
            "first_seen": "2016-02-22T04:51:04Z",
            "last_seen": "2017-03-21T11:56:00Z",
            "breakout": "2017-02-27T00:01:57Z",
            "timeline": [
                6,
                2,
                3,
                2,
                4,
                2,
                2,
                3,
                69,
                100
            ],
            "sample_sentences": [
                "  JM: We would love politicians from both sides of the aisle to see this film.",
                "   Mel England: When Janice called me with this idea to make a short film I thought \"wow, this is funny,\" because, growing up with hippie parents in Texas, I was a little liberal kid, in a sea of conservatives.",
                "Would you like for Donald Trump and others like him to see this film?"
            ]
        },
        {
            "topic": "Land",
            "key": "128350589ll",
            "score": 7651.79443359375,
            "appearances": 7285,
            "positive_appearances": 2219,
            "negative_appearances": 716,
            "documents": 2346,
            "positive_documents": 1411,
            "negative_documents": 802,
            "positive_score": 6035.0,
            "negative_score": -1448.125,
            "positive_intensity": 90.65645599365235,
            "negative_intensity": 67.41736602783203,
            "query": "nation OR land OR finland",
            "brand": "",
            "first_seen": "2016-02-22T04:51:04Z",
            "last_seen": "2017-03-21T18:12:59Z",
            "breakout": "2017-02-27T00:06:00Z",
            "timeline": [
                5,
                3,
                1,
                1,
                5,
                1,
                2,
                3,
                43,
                100
            ],
            "sample_sentences": [
                "Scenes of confusion and embarrassment followed after the \"La La Land\" crew, already on stage and delivering speeches, suddenly realized the mistake and announced that \"Moonlight\" had actually won, prompting Beatty to mumble apologies.",
                "Leading the race with a record 14 nominations this year is Damien Chazelle’s nostalgic, musical love-letter to Hollywood, La La Land, which won attention early on in awards season.",
                "La La Land, a throwback musical of no particular political import, is tipped to be the night’s biggest winner, but films like Moonlight, Hidden Figures, Loving, Fences, and Lion might not have otherwise received nationwide releases without awards attention."
            ]
        },
        {
            "topic": "work",
            "key": "2036006813ll",
            "score": 6067.00244140625,
            "appearances": 10607,
            "positive_appearances": 1797,
            "negative_appearances": 1181,
            "documents": 2863,
            "positive_documents": 1532,
            "negative_documents": 1083,
            "positive_score": 3492.375,
            "negative_score": -2595.0,
            "positive_intensity": 64.78158569335938,
            "negative_intensity": 73.2430191040039,
            "query": "work OR working OR works OR worked",
            "brand": "",
            "first_seen": "2016-02-22T12:53:52Z",
            "last_seen": "2017-03-21T14:00:36Z",
            "breakout": "2017-02-27T00:01:38Z",
            "timeline": [
                8,
                3,
                4,
                2,
                3,
                3,
                4,
                4,
                41,
                100
            ],
            "sample_sentences": [
                "    Janice Markham: Well, around the time of the big Obamacare debate I was working on my interview show for Free Speech TV during the contentious fight over healthcare policy.",
                "The widely viewed awards ceremony provides a highly visible platform for less commercial work, taking care to highlight each of the year’s Best Picture nominees.",
                "The Complicated Relevance of Dr. Seuss’s Political Cartoons—Sophie Gilbert traces the reemergence of the children’s author’s earlier, more controversial works."
            ]
        },
        {
            "topic": "win",
            "key": "261350326ll",
            "score": 4979.8017578125,
            "appearances": 6743,
            "positive_appearances": 1865,
            "negative_appearances": 449,
            "documents": 2178,
            "positive_documents": 1192,
            "negative_documents": 838,
            "positive_score": 4474.125,
            "negative_score": -733.75,
            "positive_intensity": 79.96649169921875,
            "negative_intensity": 54.472904205322269,
            "query": "win OR winning OR winner",
            "brand": "",
            "first_seen": "2016-02-22T12:53:52Z",
            "last_seen": "2017-03-21T18:12:59Z",
            "breakout": "2017-02-27T00:01:57Z",
            "timeline": [
                8,
                3,
                5,
                2,
                4,
                2,
                2,
                3,
                45,
                100
            ],
            "sample_sentences": [
                "   Mel England: When Janice called me with this idea to make a short film I thought \"wow, this is funny,\" because, growing up with hippie parents in Texas, I was a little liberal kid, in a sea of conservatives.",
                "While many a Hollywood awards ceremony in the past has featured political comment, Sunday night was notable for just how pervasive the sense of dissent toward the Trump administration’s recent actions was on the part of the winners.",
                "Their absence, and Hollywood’s generally outspoken response to President Trump, will make for a charged Oscar ceremony, similar to last weekend’s SAG Awards, where many of the night’s presenters and winners took the opportunity to speak out against the executive order."
            ]
        },
        {
            "topic": "movie",
            "key": "2131688727ll",
            "score": 4721.00390625,
            "appearances": 4610,
            "positive_appearances": 1097,
            "negative_appearances": 485,
            "documents": 1573,
            "positive_documents": 950,
            "negative_documents": 493,
            "positive_score": 3388.75,
            "negative_score": -942.125,
            "positive_intensity": 100.0,
            "negative_intensity": 64.7508544921875,
            "query": "movies OR movie",
            "brand": "",
            "first_seen": "2016-02-22T04:51:04Z",
            "last_seen": "2017-03-21T11:56:00Z",
            "breakout": "2017-02-27T00:01:38Z",
            "timeline": [
                11,
                6,
                4,
                4,
                5,
                4,
                4,
                5,
                64,
                100
            ],
            "sample_sentences": [
                "With all the sequels, remakes, and bad superhero movies that crowded screens in 2016, it’s easy to have missed some of the films in contention for cinema’s most coveted prize.",
                "The Marvel movie Doctor Strange wasn’t just nominated for visual effects, it was also “named secretary of housing and urban development.",
                "The 15 Most Talked-About Films From Sundance—David Sims lists some of the more exciting movies to take note of from this year’s festival."
            ]
        },
        {
            "topic": "help",
            "key": "2770945738ll",
            "score": 4261.5849609375,
            "appearances": 5305,
            "positive_appearances": 3474,
            "negative_appearances": 333,
            "documents": 2033,
            "positive_documents": 1186,
            "negative_documents": 746,
            "positive_score": 5789.75,
            "negative_score": -748.5,
            "positive_intensity": 55.553157806396487,
            "negative_intensity": 74.92491912841797,
            "query": "advantage OR helped OR helping OR help",
            "brand": "",
            "first_seen": "2016-02-22T12:53:52Z",
            "last_seen": "2017-03-21T14:00:36Z",
            "breakout": "2017-02-20T07:46:09Z",
            "timeline": [
                11,
                5,
                6,
                3,
                6,
                3,
                3,
                5,
                48,
                100
            ],
            "sample_sentences": [
                "Super Bowl 2017: It’s Not Too Late to Chose a Side—Robert O’Connell helps the undecided pick a team to root for, ahead of this weekend’s match-up between the Falcons and the Patriots.",
                "New research could help us understand how to build communities that are better places to grow old.",
                "Meanwhile, a new class of autonomous, “curious” robots is helping scientists explore the undersea world—including by finding things humans didn’t even know to search for."
            ]
        },
        {
            "topic": "films",
            "key": "3378257961ll",
            "score": 4029.9931640625,
            "appearances": 3831,
            "positive_appearances": 865,
            "negative_appearances": 413,
            "documents": 1582,
            "positive_documents": 1009,
            "negative_documents": 458,
            "positive_score": 2188.25,
            "negative_score": -758.5,
            "positive_intensity": 84.32562255859375,
            "negative_intensity": 61.218727111816409,
            "query": "filming OR films OR filmant",
            "brand": "",
            "first_seen": "2016-02-22T12:53:52Z",
            "last_seen": "2017-03-21T10:21:00Z",
            "breakout": "2017-02-27T00:03:14Z",
            "timeline": [
                10,
                6,
                7,
                4,
                7,
                4,
                4,
                5,
                54,
                100
            ],
            "sample_sentences": [
                "Those films are valued because they’re so artistic and interesting, but also partly because the view they represent of Iran is almost diametrically opposed to the view the Iranian government presents of itself and that the Western media presents of Iran.",
                "Those are the people who go to see these Iranian films here in America and appreciate them.",
                "These films show Iranian people to be normal like everyone else."
            ]
        },
        {
            "topic": "music",
            "key": "2852840901ll",
            "score": 3913.99169921875,
            "appearances": 5251,
            "positive_appearances": 986,
            "negative_appearances": 276,
            "documents": 1136,
            "positive_documents": 839,
            "negative_documents": 238,
            "positive_score": 2454.625,
            "negative_score": -480.0,
            "positive_intensity": 82.98258972167969,
            "negative_intensity": 57.971012115478519,
            "query": "musical OR musicals OR music",
            "brand": "",
            "first_seen": "2016-02-22T12:53:52Z",
            "last_seen": "2017-03-21T11:56:00Z",
            "breakout": "2017-02-27T00:09:38Z",
            "timeline": [
                10,
                5,
                9,
                6,
                5,
                5,
                3,
                7,
                57,
                100
            ],
            "sample_sentences": [
                "You also have a large diaspora population of Iranians abroad, many of whom are involved in the arts—in cinema, television, and music.",
                "Superstars May Be Rebelling Against the Grammys—Spencer Kornhaber connects the rumored absences of Kanye and Justin Bieber to the lack of inclusivity at the music awards.",
                "Starring Stone and Ryan Gosling as an aspiring actress and a struggling jazz musician who fall in love in Los Angeles, it has charmed critics the world over and returned more than 10 times its $30 million budget."
            ]
        },
        {
            "topic": "love",
            "key": "2642600112ll",
            "score": 3824.970703125,
            "appearances": 4489,
            "positive_appearances": 2430,
            "negative_appearances": 198,
            "documents": 1911,
            "positive_documents": 1336,
            "negative_documents": 479,
            "positive_score": 7854.25,
            "negative_score": -350.0,
            "positive_intensity": 100.0,
            "negative_intensity": 58.92255783081055,
            "query": "love OR sweetheart OR heart",
            "brand": "",
            "first_seen": "2016-02-22T04:51:04Z",
            "last_seen": "2017-03-21T14:00:36Z",
            "breakout": "2017-02-27T00:03:14Z",
            "timeline": [
                10,
                5,
                7,
                4,
                6,
                3,
                4,
                4,
                35,
                100
            ],
            "sample_sentences": [
                "  JM: We would love politicians from both sides of the aisle to see this film.",
                "They love their children, their children fight with each other, they’re jealous, they’re loyal.",
                "The film has won plaudits as a vital portrait of contemporary African-American life and is praised in equal measure as a groundbreaking and personal meditation on identity, family, friendship and love."
            ]
        },
        {
            "topic": "Seattle",
            "key": "3793817758ll",
            "score": 2760.666015625,
            "appearances": 3829,
            "positive_appearances": 268,
            "negative_appearances": 58,
            "documents": 241,
            "positive_documents": 159,
            "negative_documents": 75,
            "positive_score": 500.25,
            "negative_score": -89.5,
            "positive_intensity": 62.220149993896487,
            "negative_intensity": 51.43678283691406,
            "query": "seattle OR seattles",
            "brand": "",
            "first_seen": "2016-02-25T15:35:53Z",
            "last_seen": "2017-03-21T18:12:59Z",
            "breakout": "",
            "timeline": [
                11,
                10,
                10,
                12,
                9,
                7,
                7,
                11,
                80,
                100
            ],
            "sample_sentences": [
                "is hosted by Luke Burbank and features Maria Semple (who Christopher Frizzelle called \"the author of the funniest book ever written about Seattle\") and Misha Collins (best known for his role as Castiel on Supernatural",
                "Youth Speaks Seattle Wild Card Slam",
                "Your Guide To December 2016 In Seattle: 93 Events To Get Tickets For Now."
            ]
        },
        {
            "topic": "making",
            "key": "3577394544ll",
            "score": 2713.455322265625,
            "appearances": 3677,
            "positive_appearances": 672,
            "negative_appearances": 422,
            "documents": 1888,
            "positive_documents": 1172,
            "negative_documents": 645,
            "positive_score": 1484.0,
            "negative_score": -873.75,
            "positive_intensity": 73.6111068725586,
            "negative_intensity": 69.0165786743164,
            "query": "making OR makes OR devising",
            "brand": "",
            "first_seen": "2016-02-22T04:51:04Z",
            "last_seen": "2017-03-21T18:12:59Z",
            "breakout": "2017-02-27T00:03:14Z",
            "timeline": [
                9,
                2,
                5,
                3,
                4,
                2,
                3,
                3,
                34,
                100
            ],
            "sample_sentences": [
                "Though it’s often derided for its stodgy choices, the Best Foreign Language Film category does bring wider attention to international filmmaking.",
                "The Oscars will always be the grandest industry party Hollywood throws for itself every year, making them inherently frivolous in many ways.",
                "The Academy called Trump’s executive order “extremely troubling” in a statement, adding that the group “celebrates achievement in the art of filmmaking, which seeks to transcend borders and speak to audiences around the world, regardless of national, ethnic, or religious differences."
            ]
        },
        {
            "topic": "community",
            "key": "3439340265ll",
            "score": 2646.783447265625,
            "appearances": 4306,
            "positive_appearances": 589,
            "negative_appearances": 230,
            "documents": 1326,
            "positive_documents": 846,
            "negative_documents": 397,
            "positive_score": 1148.625,
            "negative_score": -464.0,
            "positive_intensity": 65.0042495727539,
            "negative_intensity": 67.24636840820313,
            "query": "community OR hamlet OR village",
            "brand": "",
            "first_seen": "2016-02-22T12:53:52Z",
            "last_seen": "2017-03-21T18:12:59Z",
            "breakout": "2017-02-20T07:46:09Z",
            "timeline": [
                7,
                4,
                6,
                4,
                3,
                4,
                3,
                4,
                29,
                100
            ],
            "sample_sentences": [
                "When we look at external factors, language is more of an issue, even more than in the Hispanic community.",
                "On Saturday, Donald Trump visited Great Faith Ministries in Detroit, a black church, in a bid to ease tensions with the African-American community after a series of questionable remarks, as well as to signal to critical white swing voters that he is not, in fact, a racist.",
                "If Gaga performs \"Born This Way,\" a song about diversity that has become an anthem for the LGBTQ community, it may have larger implications especially in Texas, where lawmakers are pushing to restrict public bathroom access for transgender people."
            ]
        },
        {
            "topic": "art",
            "key": "2854518300ll",
            "score": 2619.87353515625,
            "appearances": 3491,
            "positive_appearances": 560,
            "negative_appearances": 171,
            "documents": 866,
            "positive_documents": 574,
            "negative_documents": 243,
            "positive_score": 1270.5,
            "negative_score": -258.75,
            "positive_intensity": 75.625,
            "negative_intensity": 50.438594818115237,
            "query": "art OR artiste",
            "brand": "",
            "first_seen": "2016-02-22T12:53:52Z",
            "last_seen": "2017-03-21T11:56:00Z",
            "breakout": "2017-02-27T00:01:38Z",
            "timeline": [
                13,
                6,
                13,
                5,
                6,
                4,
                5,
                6,
                54,
                100
            ],
            "sample_sentences": [
                "“But as the night progressed, actors, directors and designers quickly started dedicating their Academy Awards to ‘the immigrants,’ spoke out against the Mexican wall and went as far as calling Trump’s immigration policy ‘inhumane.",
                "“‘Our goal in politics is the same in our goal in art, and that’s to get to the truth,’ Beatty said on stage.",
                "“While Alessandro Bertolazzi is not a well known name outside the film industry, the makeup artist was the first Oscar winner to mention politics in his acceptance speech."
            ]
        },
        {
            "topic": "Empowerment Program",
            "key": "3604957289ll",
            "score": 2607.79443359375,
            "appearances": 2694,
            "positive_appearances": 451,
            "negative_appearances": 251,
            "documents": 1319,
            "positive_documents": 879,
            "negative_documents": 371,
            "positive_score": 1219.0,
            "negative_score": -491.0,
            "positive_intensity": 90.09608459472656,
            "negative_intensity": 65.20584106445313,
            "query": "\"fault line\" OR \"small margin\" OR \"videotaped sequence\" OR \"clinton line\"",
            "brand": "",
            "first_seen": "2016-02-22T12:53:52Z",
            "last_seen": "2017-03-21T11:56:00Z",
            "breakout": "2017-02-20T07:46:09Z",
            "timeline": [
                8,
                3,
                4,
                3,
                7,
                3,
                3,
                5,
                52,
                100
            ],
            "sample_sentences": [
                "With a leading 14 nominations, romantic musical \"La La Land\" looks set to dance away with an armful of Academy Awards, including best picture, for its love letter to artistic ambition and Los Angeles itself.",
                "The loudest speech came from David Harbour, who accepted on behalf of the cast of Netflix’s Stranger Things, named Best Ensemble in a Drama Series.",
                "O.J. Simpson: American Crime Story,\" won the producers' award for long-form television and the comedy series award was won by \"Atlanta."
            ]
        },
        {
            "topic": "Arrival",
            "key": "3248047552ll",
            "score": 2397.500244140625,
            "appearances": 2332,
            "positive_appearances": 429,
            "negative_appearances": 219,
            "documents": 1205,
            "positive_documents": 769,
            "negative_documents": 360,
            "positive_score": 1026.25,
            "negative_score": -371.0,
            "positive_intensity": 79.73970794677735,
            "negative_intensity": 56.46879577636719,
            "query": "aspect OR advent OR vision OR debut",
            "brand": "",
            "first_seen": "2016-02-22T04:51:04Z",
            "last_seen": "2017-03-21T15:57:19Z",
            "breakout": "2017-02-27T00:14:08Z",
            "timeline": [
                12,
                7,
                10,
                5,
                5,
                5,
                5,
                6,
                60,
                100
            ],
            "sample_sentences": [
                "It beat seven other films besides \"La La Land\" including alien thriller \"Arrival\" and family dramas \"Manchester by the Sea\" and \"Fences\" for best picture honors.",
                "According to the Migration Policy Institute, Asian applications to the administration’s Deferred Action for Childhood Arrivals (DACA) program were a fraction of those from Latin and Central America.",
                "The Daily Show Lives On (on The Late Show With Stephen Colbert)—Megan Garber recaps Jon Stewart’s surprise appearance on Colbert’s program."
            ]
        },
        {
            "topic": "performance",
            "key": "2456969087ll",
            "score": 2368.8466796875,
            "appearances": 2896,
            "positive_appearances": 771,
            "negative_appearances": 223,
            "documents": 1134,
            "positive_documents": 731,
            "negative_documents": 351,
            "positive_score": 2030.25,
            "negative_score": -423.25,
            "positive_intensity": 87.77561950683594,
            "negative_intensity": 63.26606750488281,
            "query": "performance OR performers OR performed OR perform",
            "brand": "",
            "first_seen": "2016-02-22T04:51:04Z",
            "last_seen": "2017-03-21T11:56:00Z",
            "breakout": "2017-02-27T00:14:08Z",
            "timeline": [
                13,
                9,
                6,
                8,
                3,
                4,
                5,
                7,
                67,
                100
            ],
            "sample_sentences": [
                "Somewhat surprisingly, Annette Bening misses out for a strong performance in 20th Century Women, which earned the writer-director Mike Mills a single nomination for Best Original Screenplay.",
                "Ruth Negga’s emotional performance in Jeff Nichols’s Loving, about the couple behind the Supreme Court case that struck down bans on interracial marriage, earns her a nod.",
                "Over the years, her performances have grown more nuanced, and for her latest album, \"Joanne,\" the singer toned down her physical appearance to showcase her musical prowess."
            ]
        },
        {
            "topic": "game",
            "key": "3000343055ll",
            "score": 2312.51123046875,
            "appearances": 3126,
            "positive_appearances": 907,
            "negative_appearances": 201,
            "documents": 1079,
            "positive_documents": 666,
            "negative_documents": 338,
            "positive_score": 2231.375,
            "negative_score": -360.5,
            "positive_intensity": 82.00569915771485,
            "negative_intensity": 59.7844123840332,
            "query": "fun OR games OR game",
            "brand": "",
            "first_seen": "2016-02-22T13:20:29Z",
            "last_seen": "2017-03-21T11:56:00Z",
            "breakout": "2017-02-27T00:59:00Z",
            "timeline": [
                16,
                7,
                11,
                5,
                9,
                4,
                4,
                7,
                66,
                100
            ],
            "sample_sentences": [
                "Many viewers are well aware of that history and will watch keenly on Sunday, when Gaga headlines a 15-minute set during the NFL championship game between the New England Patriots and the Atlanta Falcons in Houston.",
                "How Culture Became a Powerful Political Weapon—Sophie Gilbert talks to Nato Thompson about his new book, which explores the history of how music, TV, games, and advertising have been used to influence consumers.",
                "   Mel England: When Janice called me with this idea to make a short film I thought \"wow, this is funny,\" because, growing up with hippie parents in Texas, I was a little liberal kid, in a sea of conservatives."
            ]
        },
        {
            "topic": "team",
            "key": "505441728ll",
            "score": 2307.394775390625,
            "appearances": 3994,
            "positive_appearances": 656,
            "negative_appearances": 358,
            "documents": 1474,
            "positive_documents": 996,
            "negative_documents": 420,
            "positive_score": 1778.25,
            "negative_score": -801.25,
            "positive_intensity": 90.35823059082031,
            "negative_intensity": 74.60427856445313,
            "query": "team OR club OR alliance",
            "brand": "",
            "first_seen": "2016-02-22T18:55:05Z",
            "last_seen": "2017-03-21T11:56:00Z",
            "breakout": "2017-02-20T05:47:38Z",
            "timeline": [
                7,
                4,
                6,
                3,
                3,
                2,
                3,
                5,
                27,
                100
            ],
            "sample_sentences": [
                "Super Bowl 2017: It’s Not Too Late to Chose a Side—Robert O’Connell helps the undecided pick a team to root for, ahead of this weekend’s match-up between the Falcons and the Patriots.",
                "Their music’s ambrosial aura isn’t exactly peak-time club fare, but it can certainly stir romantic sensations in those susceptible to its suave, sotto-voce charms.",
                "Gay & Lesbian Alliance Against Defamation, or GLAAD, was behind the campaign and said the pin symbolized that the wearer stands in solidarity with the LGBT community."
            ]
        },
        {
            "topic": "great",
            "key": "3227869240ll",
            "score": 2265.5087890625,
            "appearances": 3485,
            "positive_appearances": 2129,
            "negative_appearances": 117,
            "documents": 1386,
            "positive_documents": 851,
            "negative_documents": 446,
            "positive_score": 7709.625,
            "negative_score": -219.75,
            "positive_intensity": 100.0,
            "negative_intensity": 62.606842041015628,
            "query": "great",
            "brand": "",
            "first_seen": "2016-02-22T12:53:52Z",
            "last_seen": "2017-03-21T11:56:00Z",
            "breakout": "2017-02-27T00:03:14Z",
            "timeline": [
                16,
                4,
                9,
                5,
                7,
                5,
                3,
                7,
                43,
                100
            ],
            "sample_sentences": [
                "You know, there is one place that all the people with the greatest potential are gathered and that’s the graveyard,” she said.",
                "They take great issue with those who are different, so there is this intolerance that they live with that is not a part of my life.",
                "Raoul Peck’s imperfect, but powerful film I Am Not Your Negro adapts an unfinished work by one of America’s great essayists, James Baldwin."
            ]
        },
        {
            "topic": "celebrities",
            "key": "2941505506ll",
            "score": 2256.37890625,
            "appearances": 2552,
            "positive_appearances": 1525,
            "negative_appearances": 154,
            "documents": 1460,
            "positive_documents": 803,
            "negative_documents": 500,
            "positive_score": 2733.375,
            "negative_score": -375.5,
            "positive_intensity": 59.74590301513672,
            "negative_intensity": 81.27705383300781,
            "query": "celebrity OR celebrities OR celebrations",
            "brand": "",
            "first_seen": "2016-02-22T15:52:03Z",
            "last_seen": "2017-03-21T14:00:36Z",
            "breakout": "2017-02-27T00:01:38Z",
            "timeline": [
                8,
                4,
                6,
                3,
                5,
                2,
                6,
                5,
                47,
                100
            ],
            "sample_sentences": [
                "In addition to celebrities condemning the executive order, which also bars refugees, the film industry has expressed its support for Farhadi.",
                "The Oscars are, after all, first and foremost a celebration of art—even if that art is more often than not the middlebrow fare favored by a consensus vote of industry luminaries.",
                "The Academy called Trump’s executive order “extremely troubling” in a statement, adding that the group “celebrates achievement in the art of filmmaking, which seeks to transcend borders and speak to audiences around the world, regardless of national, ethnic, or religious differences."
            ]
        },
        {
            "topic": "power",
            "key": "3710237532ll",
            "score": 2248.650390625,
            "appearances": 3248,
            "positive_appearances": 1012,
            "negative_appearances": 371,
            "documents": 1253,
            "positive_documents": 713,
            "negative_documents": 462,
            "positive_score": 2728.25,
            "negative_score": -788.25,
            "positive_intensity": 89.8633041381836,
            "negative_intensity": 70.82210540771485,
            "query": "powerful OR power",
            "brand": "",
            "first_seen": "2016-02-22T13:20:29Z",
            "last_seen": "2017-03-21T18:12:59Z",
            "breakout": "2017-02-27T00:09:38Z",
            "timeline": [
                10,
                4,
                8,
                4,
                7,
                4,
                3,
                6,
                49,
                100
            ],
            "sample_sentences": [
                "To be sure: some of the perceived Asian invisibility is precisely due to the fact that Asian demographic power is a relatively new thing.",
                "This power of the Asian voting bloc is only lately being realized, unlike America’s Hispanic and African American votes.",
                "The vast majority of what is now known about Norse mythology …  survives thanks to Snorri Sturluson, an ambitious and powerful chieftain, lawyer, politician, poet, and saga writer who lived in Iceland from 1179 to 1241."
            ]
        },
        {
            "topic": "arts",
            "key": "3851308662ll",
            "score": 2238.52685546875,
            "appearances": 2444,
            "positive_appearances": 190,
            "negative_appearances": 111,
            "documents": 1178,
            "positive_documents": 812,
            "negative_documents": 214,
            "positive_score": 433.25,
            "negative_score": -138.25,
            "positive_intensity": 76.00877380371094,
            "negative_intensity": 41.51651382446289,
            "query": "arts",
            "brand": "",
            "first_seen": "2016-02-22T12:53:52Z",
            "last_seen": "2017-03-21T11:56:00Z",
            "breakout": "2017-02-20T07:46:09Z",
            "timeline": [
                4,
                3,
                2,
                3,
                2,
                1,
                3,
                4,
                60,
                100
            ],
            "sample_sentences": [
                "You also have a large diaspora population of Iranians abroad, many of whom are involved in the arts—in cinema, television, and music.",
                "The arts are not the only thing that would suffer if we limited the talent pool.",
                "Pointing out the president’s personal failings will almost certainly lead to viral tweets, but pinpointing how his policies damage the arts and entertainment industries might have a more profound impact in the long run."
            ]
        },
        {
            "topic": "West",
            "key": "2735957917ll",
            "score": 2235.72900390625,
            "appearances": 2301,
            "positive_appearances": 364,
            "negative_appearances": 208,
            "documents": 802,
            "positive_documents": 408,
            "negative_documents": 345,
            "positive_score": 900.75,
            "negative_score": -444.25,
            "positive_intensity": 82.48626708984375,
            "negative_intensity": 71.19390869140625,
            "query": "west OR northwest",
            "brand": "",
            "first_seen": "2016-02-23T05:43:00Z",
            "last_seen": "2017-03-21T15:57:19Z",
            "breakout": "2017-01-29T00:22:21Z",
            "timeline": [
                11,
                5,
                4,
                6,
                8,
                8,
                4,
                7,
                60,
                100
            ],
            "sample_sentences": [
                "and she fought bravely against the virus of the manipulation of consciences that the media system and the globalist power are injecting into the freedom of the West.  Europe also needs some more Tulsi.",
                "Those films are valued because they’re so artistic and interesting, but also partly because the view they represent of Iran is almost diametrically opposed to the view the Iranian government presents of itself and that the Western media presents of Iran.",
                "She would have looked several thousand miles West—and placed her finger on America."
            ]
        },
        {
            "topic": "artists",
            "key": "1961739641ll",
            "score": 2197.1416015625,
            "appearances": 2605,
            "positive_appearances": 617,
            "negative_appearances": 241,
            "documents": 1230,
            "positive_documents": 921,
            "negative_documents": 264,
            "positive_score": 1522.5,
            "negative_score": -453.75,
            "positive_intensity": 82.25283813476563,
            "negative_intensity": 62.759334564208987,
            "query": "artist OR artists",
            "brand": "",
            "first_seen": "2016-02-22T12:53:52Z",
            "last_seen": "2017-03-21T11:56:00Z",
            "breakout": "2017-02-20T07:46:09Z",
            "timeline": [
                5,
                3,
                6,
                3,
                2,
                2,
                6,
                4,
                29,
                100
            ],
            "sample_sentences": [
                "The idea of artists being barred from attending the ceremony because of their country of origin is markedly against the global principles of the Academy of Motion Picture Arts and Sciences.",
                "But he can, for instance, defund the NEA, which has a long history of helping projects (such as the 2012 drama Beasts of the Southern Wild) and artists who later ascend to Academy glory.",
                "\"History tells us artists don't think the Super Bowl is a great place to be particularly provocative,\" Feeney said."
            ]
        },
        {
            "topic": "foreign film",
            "key": "3517274400ll",
            "score": 2177.97021484375,
            "appearances": 2706,
            "positive_appearances": 396,
            "negative_appearances": 210,
            "documents": 1457,
            "positive_documents": 775,
            "negative_documents": 439,
            "positive_score": 1226.25,
            "negative_score": -430.5,
            "positive_intensity": 100.0,
            "negative_intensity": 68.33333587646485,
            "query": "\"foreign film\" OR \"northwest film\" OR \"short film\" OR \"cinema filmmaking\"",
            "brand": "",
            "first_seen": "2016-02-22T12:53:52Z",
            "last_seen": "2017-03-21T11:56:00Z",
            "breakout": "2017-02-25T00:25:12Z",
            "timeline": [
                5,
                3,
                2,
                2,
                2,
                3,
                2,
                2,
                44,
                100
            ],
            "sample_sentences": [
                "   Mel England: When Janice called me with this idea to make a short film I thought \"wow, this is funny,\" because, growing up with hippie parents in Texas, I was a little liberal kid, in a sea of conservatives.",
                "Though it’s often derided for its stodgy choices, the Best Foreign Language Film category does bring wider attention to international filmmaking.",
                "The box-office impact of that attention is undeniable: Oscar-nominated films remain in theaters twice as long and can boost their take by several million dollars."
            ]
        },
        {
            "topic": "business",
            "key": "3532779162ll",
            "score": 2163.718505859375,
            "appearances": 2680,
            "positive_appearances": 419,
            "negative_appearances": 258,
            "documents": 1133,
            "positive_documents": 596,
            "negative_documents": 475,
            "positive_score": 961.0,
            "negative_score": -561.75,
            "positive_intensity": 76.45186614990235,
            "negative_intensity": 72.5775146484375,
            "query": "business OR businesses OR engaged",
            "brand": "",
            "first_seen": "2016-02-22T12:53:52Z",
            "last_seen": "2017-03-21T14:00:36Z",
            "breakout": "2017-02-27T01:06:24Z",
            "timeline": [
                17,
                7,
                7,
                7,
                8,
                6,
                5,
                7,
                68,
                100
            ],
            "sample_sentences": [
                "There’s also a long tradition of mining the mythologies and the oral traditions of the past—and a lot of these were incorporated into the movie business.",
                "If La La Land dominates, as many suspect it will, the Oscars will seem more frivolous than ever, overlooking weightier cinematic efforts for a dreamy musical about show business in the opening months of the Trump presidency.",
                "He's also the CEO of RenderX, a software manufacturing business in California."
            ]
        },
        {
            "topic": "Moonlight",
            "key": "4279919548ll",
            "score": 2147.125244140625,
            "appearances": 2185,
            "positive_appearances": 796,
            "negative_appearances": 238,
            "documents": 828,
            "positive_documents": 609,
            "negative_documents": 162,
            "positive_score": 2381.875,
            "negative_score": -447.5,
            "positive_intensity": 99.7435073852539,
            "negative_intensity": 62.675071716308597,
            "query": "moonlights OR moonlight",
            "brand": "",
            "first_seen": "2016-05-01T01:00:00Z",
            "last_seen": "2017-03-21T18:12:59Z",
            "breakout": "2017-02-27T00:03:14Z",
            "timeline": [
                0,
                0,
                0,
                0,
                0,
                0,
                0,
                0,
                26,
                100
            ],
            "sample_sentences": [
                "What I’ve learned from working on Moonlight is, we see what happens when you persecute people.",
                "Starring Naomie Harris and Mahershala Ali who bagged the first of the movie's three Oscars, \"Moonlight\" tells the life story of a young African-American struggling to find his place as he grows up poor in Miami.",
                "Scenes of confusion and embarrassment followed after the \"La La Land\" crew, already on stage and delivering speeches, suddenly realized the mistake and announced that \"Moonlight\" had actually won, prompting Beatty to mumble apologies."
            ]
        },
        {
            "topic": "stars",
            "key": "3769948799ll",
            "score": 2007.0269775390626,
            "appearances": 1841,
            "positive_appearances": 336,
            "negative_appearances": 186,
            "documents": 1102,
            "positive_documents": 598,
            "negative_documents": 414,
            "positive_score": 889.5,
            "negative_score": -372.75,
            "positive_intensity": 88.24404907226563,
            "negative_intensity": 66.80107879638672,
            "query": "starred OR stars",
            "brand": "",
            "first_seen": "2016-02-25T13:50:45Z",
            "last_seen": "2017-03-20T20:30:00Z",
            "breakout": "2017-02-27T00:04:24Z",
            "timeline": [
                5,
                0,
                2,
                2,
                3,
                1,
                5,
                3,
                63,
                100
            ],
            "sample_sentences": [
                "Superstars May Be Rebelling Against the Grammys—Spencer Kornhaber connects the rumored absences of Kanye and Justin Bieber to the lack of inclusivity at the music awards.",
                "Immediately after the order was announced, one of The Salesman’s stars, Taraneh Alidoosti, said she would be boycotting the ceremony and called Trump’s move “racist.",
                "Hollywood legends Warren Beatty and Faye Dunaway, stars of 1967 crime classic \"Bonnie and Clyde,\" were meant to give the evening's top prize to Jenkins's film, but she mistakenly called it for Damien Chazelle's musical."
            ]
        },
        {
            "topic": "category",
            "key": "3534838706ll",
            "score": 1992.792724609375,
            "appearances": 2020,
            "positive_appearances": 392,
            "negative_appearances": 172,
            "documents": 1203,
            "positive_documents": 688,
            "negative_documents": 440,
            "positive_score": 900.5,
            "negative_score": -385.5,
            "positive_intensity": 76.57312774658203,
            "negative_intensity": 74.70930480957031,
            "query": "tribe OR category OR variety",
            "brand": "",
            "first_seen": "2016-02-22T12:53:52Z",
            "last_seen": "2017-03-21T11:56:00Z",
            "breakout": "2017-02-27T00:03:14Z",
            "timeline": [
                6,
                3,
                2,
                3,
                4,
                1,
                2,
                3,
                58,
                100
            ],
            "sample_sentences": [
                "Though it’s often derided for its stodgy choices, the Best Foreign Language Film category does bring wider attention to international filmmaking.",
                "The Best Actress category sees the return of Natalie Portman as Jackie Kennedy in Pablo Larrain’s vivid, manicured new film.",
                "Stone bagged her first statuette in the best actress category despite a late push from Isabelle Huppert already a Golden Globe winner for edgy rape-revenge thriller \"Elle."
            ]
        },
        {
            "topic": "Action",
            "key": "1556116649ll",
            "score": 1937.3319091796876,
            "appearances": 3426,
            "positive_appearances": 313,
            "negative_appearances": 0,
            "documents": 1752,
            "positive_documents": 981,
            "negative_documents": 685,
            "positive_score": 734.0,
            "negative_score": 0.0,
            "positive_intensity": 78.16826629638672,
            "negative_intensity": 0.0,
            "query": "action OR battle OR conflict",
            "brand": "",
            "first_seen": "2016-02-22T04:51:04Z",
            "last_seen": "2017-03-21T11:56:00Z",
            "breakout": "2017-02-20T07:46:09Z",
            "timeline": [
                7,
                2,
                3,
                3,
                2,
                2,
                2,
                3,
                46,
                100
            ],
            "sample_sentences": [
                "Trump’s warm reception at the Conservative Political Action Conference comes in stark contrast to 2016’s conference, which he skipped due to friction with the GOP establishment.",
                "According to the Migration Policy Institute, Asian applications to the administration’s Deferred Action for Childhood Arrivals (DACA) program were a fraction of those from Latin and Central America.",
                "While the speech was tame, it wasn’t normal: Trump defended some of his most radical actions, including the travel and immigration ban, and cited questionable data to assert that most terrorists are foreign."
            ]
        },
        {
            "topic": "friends",
            "key": "81830467ll",
            "score": 1930.3221435546876,
            "appearances": 2139,
            "positive_appearances": 378,
            "negative_appearances": 236,
            "documents": 1081,
            "positive_documents": 583,
            "negative_documents": 430,
            "positive_score": 959.125,
            "negative_score": -425.5,
            "positive_intensity": 84.57892608642578,
            "negative_intensity": 60.09886932373047,
            "query": "friends OR friend",
            "brand": "",
            "first_seen": "2016-02-22T12:53:52Z",
            "last_seen": "2017-03-21T11:56:00Z",
            "breakout": "2017-02-27T00:22:20Z",
            "timeline": [
                18,
                8,
                12,
                6,
                9,
                6,
                8,
                7,
                50,
                100
            ],
            "sample_sentences": [
                "     XG: Would you be friends with Ron and Laura?",
                "   ME: I'm pretty sure Ron wouldn't want to be friends with me (laughs), but yeah, I actually do know lots of people who are like them.",
                "they are not happy she visited Aleppo and Damascus, spoke with religious leaders (Muslims and Christians), aid workers (the real ones not the friends of the jihadists who gives Hollywood Oscar awards ), members of the opposition, civil society representatives."
            ]
        },
        {
            "topic": "events",
            "key": "2237964990ll",
            "score": 1913.782470703125,
            "appearances": 1964,
            "positive_appearances": 221,
            "negative_appearances": 126,
            "documents": 1047,
            "positive_documents": 755,
            "negative_documents": 242,
            "positive_score": 374.5,
            "negative_score": -226.375,
            "positive_intensity": 56.48567199707031,
            "negative_intensity": 59.88756561279297,
            "query": "events",
            "brand": "",
            "first_seen": "2016-02-23T05:43:00Z",
            "last_seen": "2017-03-21T11:56:00Z",
            "breakout": "2017-02-20T07:46:09Z",
            "timeline": [
                6,
                2,
                3,
                3,
                2,
                4,
                3,
                4,
                22,
                100
            ],
            "sample_sentences": [
                "The last time the Academy Awards abutted a huge moment in current events were in 2003, when the 75th Academy Awards aired just days after the beginning of the Iraq War.",
                "The absence of Farhadi and Alidoosti at this year’s Oscars is the result of a unique dovetailing of events: the timing of Trump’s executive order ahead of the Oscars on February 26, and the fact that both the order and the Academy Awards happened to highlight Iran.",
                "But to pander to the radical, intolerant side of each society I think is wrong, and cultural events, instead of polarizing people, really should bring people together."
            ]
        },
        {
            "topic": "Entertainment",
            "key": "505678181ll",
            "score": 1898.787353515625,
            "appearances": 1551,
            "positive_appearances": 310,
            "negative_appearances": 138,
            "documents": 852,
            "positive_documents": 480,
            "negative_documents": 218,
            "positive_score": 879.0,
            "negative_score": -298.5,
            "positive_intensity": 94.51612854003906,
            "negative_intensity": 72.10144805908203,
            "query": "entertainment OR entertainer OR entertain",
            "brand": "",
            "first_seen": "2016-02-24T13:16:46Z",
            "last_seen": "2017-03-19T22:05:23Z",
            "breakout": "2017-02-10T00:01:13Z",
            "timeline": [
                11,
                8,
                5,
                7,
                7,
                6,
                5,
                10,
                100,
                94
            ],
            "sample_sentences": [
                "\"People will take note of the lyrics and the political climate and come to their own conclusions,\" said Nolan Feeney, staff writer at Entertainment Weekly.",
                "When he saw a whole group of well-known entertainers outside the theater holding protest signs and declaring a boycott, he walked up to one of them and he said, “Mr. So-and-So, why don’t you give me the placard.",
                "The people who were pushing back were entertainers who were being pushed out of Iran and had lost their livelihoods."
            ]
        },
        {
            "topic": "television",
            "key": "1636063053ll",
            "score": 1883.611572265625,
            "appearances": 1786,
            "positive_appearances": 465,
            "negative_appearances": 150,
            "documents": 797,
            "positive_documents": 473,
            "negative_documents": 281,
            "positive_score": 1148.0,
            "negative_score": -312.5,
            "positive_intensity": 82.29390716552735,
            "negative_intensity": 69.44444274902344,
            "query": "television OR televised OR televisions",
            "brand": "",
            "first_seen": "2016-02-22T15:52:03Z",
            "last_seen": "2017-03-21T15:57:19Z",
            "breakout": "2017-02-27T01:19:00Z",
            "timeline": [
                19,
                9,
                7,
                4,
                18,
                7,
                7,
                11,
                86,
                100
            ],
            "sample_sentences": [
                "You also have a large diaspora population of Iranians abroad, many of whom are involved in the arts—in cinema, television, and music.",
                "Outstanding sports program went to \"World of Sports,\" while \"Last Week Tonight with John Oliver\" won the live entertainment and talk television award.",
                "O.J. Simpson: American Crime Story,\" won the producers' award for long-form television and the comedy series award was won by \"Atlanta."
            ]
        },
        {
            "topic": "nominees",
            "key": "1508708150ll",
            "score": 1773.4046630859376,
            "appearances": 2349,
            "positive_appearances": 465,
            "negative_appearances": 192,
            "documents": 1079,
            "positive_documents": 599,
            "negative_documents": 394,
            "positive_score": 1249.75,
            "negative_score": -419.0,
            "positive_intensity": 89.58781433105469,
            "negative_intensity": 72.74305725097656,
            "query": "nominees OR nominee",
            "brand": "",
            "first_seen": "2016-02-22T18:55:05Z",
            "last_seen": "2017-03-20T20:25:00Z",
            "breakout": "2017-02-27T00:03:14Z",
            "timeline": [
                7,
                0,
                2,
                1,
                1,
                1,
                0,
                2,
                71,
                100
            ],
            "sample_sentences": [
                "With a diverse cast of nominees, the Academy Awards brought forth a slew of different topics like immigration, equality and a few more comments regarding President Trump’s policies.",
                "This year's nominees have reflected a push by the Academy to reward diversity after the #OscarsSoWhite controversy of the past two years that prompted calls for a boycott of the annual bash.",
                "The widely viewed awards ceremony provides a highly visible platform for less commercial work, taking care to highlight each of the year’s Best Picture nominees."
            ]
        },
        {
            "topic": "feature",
            "key": "1838883627ll",
            "score": 1677.847900390625,
            "appearances": 2848,
            "positive_appearances": 527,
            "negative_appearances": 187,
            "documents": 1334,
            "positive_documents": 900,
            "negative_documents": 351,
            "positive_score": 1531.25,
            "negative_score": -340.875,
            "positive_intensity": 96.85325622558594,
            "negative_intensity": 60.76203155517578,
            "query": "featuring OR starring OR featured OR features",
            "brand": "",
            "first_seen": "2016-02-22T04:51:04Z",
            "last_seen": "2017-03-21T11:56:00Z",
            "breakout": "2017-02-27T00:03:14Z",
            "timeline": [
                12,
                4,
                5,
                6,
                9,
                5,
                5,
                5,
                53,
                100
            ],
            "sample_sentences": [
                "The actor Gael Garcia Bernal, co-presenting the award for best animated feature, slipped in a quick statement, saying, “As a Mexican, as a Latin-American, as a migrant worker, as a human being, I’m against any form of wall that separates us.",
                "Lucky for me, Mel agreed, the project expanded into a feature film mockumentary, and seven years later, we open in L.A. and N.Y. right in the middle of election season!",
                "The nominees for Best Documentary Feature made powerful arguments about real-life issues, particularly about race in America."
            ]
        },
        {
            "topic": "education",
            "key": "87562916ll",
            "score": 1666.784912109375,
            "appearances": 2625,
            "positive_appearances": 542,
            "negative_appearances": 186,
            "documents": 875,
            "positive_documents": 675,
            "negative_documents": 178,
            "positive_score": 795.75,
            "negative_score": -281.25,
            "positive_intensity": 48.93911361694336,
            "negative_intensity": 50.40322494506836,
            "query": "education OR educational OR educating",
            "brand": "",
            "first_seen": "2016-02-22T13:20:29Z",
            "last_seen": "2017-03-21T11:56:00Z",
            "breakout": "2017-02-20T07:46:09Z",
            "timeline": [
                8,
                4,
                4,
                4,
                7,
                3,
                4,
                3,
                21,
                100
            ],
            "sample_sentences": [
                "The historical works are presented in a display adjacent to the new pieces in an exploration of the Japanese concept of \"utsushi\"—the emulation of masterworks as a form of artistic education.",
                "The Delridge Neighborhood Development Association will host a dinner with music, art, and games to benefit local \"affordable housing, arts and culture, preservation of green space, food justice, and education.",
                "NBJC’s work centers around HIV/AIDS, and makes employment and education opportunities more inclusive for black LGBT citizens."
            ]
        },
        {
            "topic": "development",
            "key": "4058843088ll",
            "score": 1660.010986328125,
            "appearances": 2146,
            "positive_appearances": 441,
            "negative_appearances": 285,
            "documents": 697,
            "positive_documents": 422,
            "negative_documents": 242,
            "positive_score": 755.0,
            "negative_score": -453.5,
            "positive_intensity": 57.06726837158203,
            "negative_intensity": 53.04093933105469,
            "query": "development OR developing OR developed OR develops",
            "brand": "",
            "first_seen": "2016-02-22T12:53:52Z",
            "last_seen": "2017-03-21T11:56:00Z",
            "breakout": "2017-02-27T01:14:01Z",
            "timeline": [
                17,
                8,
                8,
                9,
                7,
                8,
                8,
                6,
                54,
                100
            ],
            "sample_sentences": [
                "The Marvel movie Doctor Strange wasn’t just nominated for visual effects, it was also “named secretary of housing and urban development.",
                "Trump’s creationist cabinet member Dr Ben Carson had one zinger fired at him, when Jimmy Kimmel said that Marvel movie Dr Strange was nominated not only for visual effects, “but was also named secretary for Housing and Urban Development”.",
                "One thing that was very important to us in developing these characters is that even with the fear, conservatism, racism and homophobia, there is a humanity to them."
            ]
        },
        {
            "topic": "voices",
            "key": "851218128ll",
            "score": 1602.3546142578126,
            "appearances": 1558,
            "positive_appearances": 197,
            "negative_appearances": 118,
            "documents": 1113,
            "positive_documents": 776,
            "negative_documents": 255,
            "positive_score": 411.0,
            "negative_score": -206.25,
            "positive_intensity": 69.54314422607422,
            "negative_intensity": 58.26271057128906,
            "query": "voice OR voices",
            "brand": "",
            "first_seen": "2016-02-23T15:00:11Z",
            "last_seen": "2017-03-20T20:01:51Z",
            "breakout": "2017-02-20T07:46:09Z",
            "timeline": [
                10,
                6,
                9,
                4,
                4,
                3,
                3,
                4,
                30,
                100
            ],
            "sample_sentences": [
                "For a long time, minority voices have been the least voluble in the room, (if they were in the room at all), but this election has seen a sharp focus on traditionally marginalized communities, whether Latino, Black, or LGBTQ.",
                "Allen West, Charlie Daniels, Gov. Scott Walker, Dr. Ben Carson, Chuck Woolery, Ben Shapiro, Jon Voight, Deneen Borelli, NRA President Jim Porter, Victoria Jackson, and many more leading conservative voices.",
                "Academy Award winning actor Jon Voight is one of the few outspoken conservative voices in Hollywood."
            ]
        },
        {
            "topic": "experience",
            "key": "3583769064ll",
            "score": 1538.48583984375,
            "appearances": 2158,
            "positive_appearances": 427,
            "negative_appearances": 190,
            "documents": 1091,
            "positive_documents": 859,
            "negative_documents": 207,
            "positive_score": 1018.25,
            "negative_score": -389.75,
            "positive_intensity": 79.48868560791016,
            "negative_intensity": 68.37718963623047,
            "query": "experience OR experiment OR experiences OR experimenting",
            "brand": "",
            "first_seen": "2016-02-22T12:53:52Z",
            "last_seen": "2017-03-21T11:56:00Z",
            "breakout": "2017-02-20T07:46:09Z",
            "timeline": [
                10,
                5,
                9,
                5,
                9,
                5,
                5,
                5,
                29,
                100
            ],
            "sample_sentences": [
                "We need to show up to experiences that burst our filter bubbles.",
                "This was a surprisingly interesting and helpful experience — I highly recommend it.",
                "But he did it anyway because he's a dedicated public servant who knows his experience at the state department would be a critical asset to an administration staffed with policy neophytes with wacky ideas."
            ]
        },
        {
            "topic": "opening",
            "key": "3698428489ll",
            "score": 1536.51318359375,
            "appearances": 1783,
            "positive_appearances": 364,
            "negative_appearances": 234,
            "documents": 941,
            "positive_documents": 581,
            "negative_documents": 312,
            "positive_score": 740.0,
            "negative_score": -563.5,
            "positive_intensity": 67.76557159423828,
            "negative_intensity": 80.2706527709961,
            "query": "opened OR opening OR opener OR openings",
            "brand": "",
            "first_seen": "2016-02-22T18:55:05Z",
            "last_seen": "2017-03-21T04:11:00Z",
            "breakout": "2017-02-27T00:09:38Z",
            "timeline": [
                11,
                4,
                12,
                5,
                5,
                7,
                4,
                5,
                44,
                100
            ],
            "sample_sentences": [
                "Unlike other stars, Jimmy Kimmel, who hosted the 2017 Oscars, pointedly made a reference to the president upon his opening monologue.",
                "If La La Land dominates, as many suspect it will, the Oscars will seem more frivolous than ever, overlooking weightier cinematic efforts for a dreamy musical about show business in the opening months of the Trump presidency.",
                "From Jimmy Kimmel’s opening monologue to acceptance speeches to the ads punctuating the ceremony, it felt at times like the Oscars were more focused on delivering an extremely public rebuke to Trump than they were on celebrating the art of filmmaking."
            ]
        },
        {
            "topic": "designed",
            "key": "91584574ll",
            "score": 1533.2119140625,
            "appearances": 2224,
            "positive_appearances": 380,
            "negative_appearances": 236,
            "documents": 959,
            "positive_documents": 595,
            "negative_documents": 330,
            "positive_score": 881.375,
            "negative_score": -471.125,
            "positive_intensity": 77.3135986328125,
            "negative_intensity": 66.54307556152344,
            "query": "tendency OR design OR designated OR designers",
            "brand": "",
            "first_seen": "2016-02-22T12:53:52Z",
            "last_seen": "2017-03-21T11:56:00Z",
            "breakout": "2017-02-27T00:06:00Z",
            "timeline": [
                12,
                6,
                13,
                5,
                6,
                6,
                5,
                4,
                44,
                100
            ],
            "sample_sentences": [
                "All About Bots: Developers at Google have just released an algorithm that’s designed to automatically weed out toxic comments online.",
                "She came of age as the country was emerging from the shadow of the British Empire to reclaim its national identity, but when she immigrated to the United States in 1965, my grandmother adopted not just American citizenship—she adopted American politics.",
                "Maybe it won’t last long, and sceptics will claim that for all the nice fuzzy feelings she may inspire in the rest of us, what the White House actually decides reflects the views of Bannon – or worse, that the daughter’s appointed role is merely to win over independents to the Trump cause."
            ]
        },
        {
            "topic": "Präsident",
            "key": "1571689179ll",
            "score": 1526.860595703125,
            "appearances": 2454,
            "positive_appearances": 265,
            "negative_appearances": 67,
            "documents": 45,
            "positive_documents": 45,
            "negative_documents": 0,
            "positive_score": 1017.0,
            "negative_score": -112.0,
            "positive_intensity": 100.0,
            "negative_intensity": 55.721397399902347,
            "query": "prasident OR prasidenten",
            "brand": "",
            "first_seen": "2017-02-28T05:48:00Z",
            "last_seen": "2017-03-09T22:26:32Z",
            "breakout": "",
            "timeline": [
                0,
                0,
                0,
                0,
                0,
                0,
                0,
                0,
                0,
                100
            ],
            "sample_sentences": [
                "Üblicherweise ist dort eine launige Rede des Präsidenten die Haupt-Programmpunkt.",
                "Übersetzt heißt das in etwa: \"Man kann sich Amerika nicht ohne mich vorstellen: Die wirklich gigantische Hintergrund-Geschichte über mein fantastisches erstes Jahr als Präsident Donald J. Trump\".",
                " Ohne Beweise oder Belege schrieb Trump in einer Serie von Tweets, Obama habe ihn vor der Präsidentschaftswahl im Trump-Tower abhören lassen."
            ]
        },
        {
            "topic": "producer",
            "key": "3642042063ll",
            "score": 1464.43994140625,
            "appearances": 2565,
            "positive_appearances": 451,
            "negative_appearances": 298,
            "documents": 1184,
            "positive_documents": 753,
            "negative_documents": 354,
            "positive_score": 981.625,
            "negative_score": -518.75,
            "positive_intensity": 72.5517349243164,
            "negative_intensity": 58.02572250366211,
            "query": "producer OR producing OR producers OR produced",
            "brand": "",
            "first_seen": "2016-02-22T18:55:05Z",
            "last_seen": "2017-03-21T11:56:00Z",
            "breakout": "2017-02-27T00:09:38Z",
            "timeline": [
                10,
                4,
                3,
                4,
                8,
                5,
                4,
                6,
                52,
                100
            ],
            "sample_sentences": [
                "The ceremony also displayed the wrong picture during the \"In Memoriam\" tribute, showing an image of Australian producer Jan Chapman when the tribute was meant for Australian costume designer Janet Patterson.",
                "O.J. Simpson: American Crime Story,\" won the producers' award for long-form television and the comedy series award was won by \"Atlanta.",
                "LOS ANGELES: Hollywood producers named the musical \"La La Land\" the best film of 2016 on Saturday at a ceremony marked by criticism of President Donald Trump's immigration policies."
            ]
        },
        {
            "topic": "production",
            "key": "3843215079ll",
            "score": 1459.34033203125,
            "appearances": 1785,
            "positive_appearances": 283,
            "negative_appearances": 141,
            "documents": 830,
            "positive_documents": 527,
            "negative_documents": 268,
            "positive_score": 587.25,
            "negative_score": -347.25,
            "positive_intensity": 69.16960906982422,
            "negative_intensity": 82.09219360351563,
            "query": "production OR output OR goods OR creation",
            "brand": "",
            "first_seen": "2016-02-24T07:05:40Z",
            "last_seen": "2017-03-21T11:56:00Z",
            "breakout": "2017-02-27T00:30:24Z",
            "timeline": [
                14,
                9,
                6,
                7,
                8,
                6,
                6,
                10,
                57,
                100
            ],
            "sample_sentences": [
                "This show is directed by former Washington Ensemble Theatre co-director Ali el-Gasseir, and it will run at the same time as Seattle Rep's production of Nguyen's Vietgone.",
                "This production is based on David Sedaris' autobiographical essays about working as an elf at Macy's during the holiday season, and is described as a \"combination of retail hell and theatrical spectacle.",
                "FRIDAY-SUNDAYHard Bard: The Duchess of MalfiTony Driscoll directs this production of John Webster's The Duchess of Malfi in the style of \"Hard Bard\"—in other words, with so much gore and spurting blood that they issue a splash warning for the first few rows."
            ]
        },
        {
            "topic": "weekend",
            "key": "841895113ll",
            "score": 1441.875732421875,
            "appearances": 993,
            "positive_appearances": 236,
            "negative_appearances": 134,
            "documents": 642,
            "positive_documents": 356,
            "negative_documents": 229,
            "positive_score": 505.5,
            "negative_score": -249.0,
            "positive_intensity": 71.39830780029297,
            "negative_intensity": 61.94029998779297,
            "query": "weekend OR weekends",
            "brand": "",
            "first_seen": "2016-02-22T12:53:52Z",
            "last_seen": "2017-03-21T18:12:59Z",
            "breakout": "2017-02-25T01:32:00Z",
            "timeline": [
                11,
                5,
                14,
                3,
                5,
                3,
                3,
                5,
                54,
                100
            ],
            "sample_sentences": [
                "This is the final weekend to see this solo show of work by Ellen Garvens (Chair of the Division of Art at UW), featuring her recent archival inkjet prints and videos and presented by Norman Lundin.",
                "Their absence, and Hollywood’s generally outspoken response to President Trump, will make for a charged Oscar ceremony, similar to last weekend’s SAG Awards, where many of the night’s presenters and winners took the opportunity to speak out against the executive order.",
                "Super Bowl 2017: It’s Not Too Late to Chose a Side—Robert O’Connell helps the undecided pick a team to root for, ahead of this weekend’s match-up between the Falcons and the Patriots."
            ]
        },
        {
            "topic": "Sciences",
            "key": "2385629019ll",
            "score": 1399.8031005859376,
            "appearances": 1130,
            "positive_appearances": 224,
            "negative_appearances": 99,
            "documents": 745,
            "positive_documents": 433,
            "negative_documents": 252,
            "positive_score": 516.25,
            "negative_score": -201.75,
            "positive_intensity": 76.82292175292969,
            "negative_intensity": 67.92929077148438,
            "query": "science OR sciences",
            "brand": "",
            "first_seen": "2016-02-23T02:39:00Z",
            "last_seen": "2017-03-21T11:56:00Z",
            "breakout": "2017-01-29T00:00:00Z",
            "timeline": [
                13,
                6,
                6,
                6,
                14,
                6,
                6,
                8,
                100,
                90
            ],
            "sample_sentences": [
                "The idea of artists being barred from attending the ceremony because of their country of origin is markedly against the global principles of the Academy of Motion Picture Arts and Sciences.",
                "26 to producers, directors, actors and actresses by the Academy of Motion Picture Arts and Sciences.",
                "and she fought bravely against the virus of the manipulation of consciences that the media system and the globalist power are injecting into the freedom of the West.  Europe also needs some more Tulsi."
            ]
        },
        {
            "topic": "aims",
            "key": "905009274ll",
            "score": 1398.45068359375,
            "appearances": 1652,
            "positive_appearances": 399,
            "negative_appearances": 84,
            "documents": 615,
            "positive_documents": 462,
            "negative_documents": 131,
            "positive_score": 805.25,
            "negative_score": -164.0,
            "positive_intensity": 67.27234649658203,
            "negative_intensity": 65.07936096191406,
            "query": "aiming OR aimed OR aime OR aims",
            "brand": "",
            "first_seen": "2016-02-26T22:06:34Z",
            "last_seen": "2017-03-21T11:56:00Z",
            "breakout": "2017-02-20T07:46:09Z",
            "timeline": [
                3,
                2,
                2,
                0,
                0,
                1,
                2,
                3,
                20,
                100
            ],
            "sample_sentences": [
                "This event is part of CulturalFest, a Foundation for International Understand Through Students initiative, which aims to foster global connections and culture.",
                "This \"comedy improv battle\" aims to make you laugh until you forget your dread of 2017.",
                "The Trayvon Martin Foundation aims to spread awareness of the consequences of gun crime and caters to families affected by gun violence."
            ]
        },
        {
            "topic": "incarceration",
            "key": "3594559218ll",
            "score": 1366.978271484375,
            "appearances": 1700,
            "positive_appearances": 633,
            "negative_appearances": 33,
            "documents": 409,
            "positive_documents": 384,
            "negative_documents": 23,
            "positive_score": 1265.75,
            "negative_score": -55.75,
            "positive_intensity": 66.65350341796875,
            "negative_intensity": 56.313133239746097,
            "query": "incarcerated OR incarceration OR incarcerates",
            "brand": "",
            "first_seen": "2016-03-04T16:18:00Z",
            "last_seen": "2017-03-20T05:25:19Z",
            "breakout": "2017-02-20T07:46:09Z",
            "timeline": [
                0,
                0,
                0,
                0,
                1,
                0,
                1,
                2,
                4,
                100
            ],
            "sample_sentences": [
                "The show tells the stories of inmates and guards at a women’s prison, mixing scenes of their former lives with both humorous and tense moments during their incarceration.",
                "The ever-versatile Ava DuVernay gets a nod for her Netflix-released 13th, which rewrites America’s history of mass incarceration as a new form of slavery.",
                "The death of Trayvon Martin spurred the inspiration for Million Hoodies, a coalition of young people organizing to put an end to mass incarceration and the criminalization of young black men."
            ]
        },
        {
            "topic": "won",
            "key": "3366794174ll",
            "score": 1353.8841552734376,
            "appearances": 3627,
            "positive_appearances": 1092,
            "negative_appearances": 328,
            "documents": 1491,
            "positive_documents": 849,
            "negative_documents": 529,
            "positive_score": 3383.25,
            "negative_score": -623.375,
            "positive_intensity": 100.0,
            "negative_intensity": 63.35111999511719,
            "query": "won OR wons",
            "brand": "",
            "first_seen": "2016-02-23T02:39:00Z",
            "last_seen": "2017-03-21T11:56:00Z",
            "breakout": "2017-02-27T00:10:47Z",
            "timeline": [
                7,
                3,
                6,
                1,
                3,
                2,
                3,
                5,
                59,
                100
            ],
            "sample_sentences": [
                "The film has won plaudits as a vital portrait of contemporary African-American life and is praised in equal measure as a groundbreaking and personal meditation on identity, family, friendship and love.",
                "Scenes of confusion and embarrassment followed after the \"La La Land\" crew, already on stage and delivering speeches, suddenly realized the mistake and announced that \"Moonlight\" had actually won, prompting Beatty to mumble apologies.",
                "Sarah Paulson, who won for playing Marcia Clark in The People v."
            ]
        }
    ]
}