{
    "status": "OK",
    "status_message": "OK",
    "query_meta": {
        "total_results": 8582,
        "linguistics_count": 6120,
        "total_universe": 73304,
        "total_spammed": 34,
        "total_from_index": 8548,
        "sources_from_index": 3894,
        "total_sources_est": 3909,
        "sources_universe": 33393,
        "reach": 1019892,
        "index_result_age": 308
    },
    "query_info": {
        "query": "immigration (awards NEAR/3 (oscar | academy)) | (oscars | \"oscar presenters\" | \"oscar performances\" | \"oscar nominations 2017\" | \"oscar night\" | \"oscar news\" | \"oscar live\" | \"oscar latest\" | \"oscar host\" | \"oscar coverage\" | \"oscar awards 2017\" | \"oscar 2017\") | (#oscars | \"annual academy awards\" | \"academy awards live\" | \"academy awards 2017\" | \"academy award\" | \"89th academy awards\" | \"2017 academy awards\")",
        "query_within": "",
        "source_query_exclude": false,
        "source_query": "",
        "start_date": "2016-02-21T00:00:00Z",
        "end_date": "2017-03-21T23:59:59Z",
        "influence": "",
        "watchlist_ids": "",
        "dictionary_ids": "",
        "source_ids": "",
        "languages": "",
        "linguistics_languages": "",
        "categories": "",
        "countries": "",
        "states": "",
        "gender": "",
        "age": "",
        "weekdays": "",
        "hours": "",
        "hour_min": 0,
        "hour_max": 24,
        "found_from": "1970-01-01T00:00:00Z",
        "found_to": "1970-01-01T00:00:00Z",
        "id_min": 0,
        "id_max": 0,
        "firehose_id": 0
    },
    "usage": {
        "monthly_reset": "2017-04-12T00:00:00Z",
        "monthly_used": 317,
        "monthly_limit": 1050,
        "hourly_used": 20
    },
    "output": [
        {
            "word": "best",
            "appearances": 6722
        },
        {
            "word": "sicherheit",
            "appearances": 5345
        },
        {
            "word": "helpful",
            "appearances": 3623
        },
        {
            "word": "good",
            "appearances": 3024
        },
        {
            "word": "celebrate",
            "appearances": 2734
        },
        {
            "word": "love",
            "appearances": 2672
        },
        {
            "word": "going to",
            "appearances": 2438
        },
        {
            "word": "great",
            "appearances": 2400
        },
        {
            "word": "affection",
            "appearances": 2384
        },
        {
            "word": "humanize",
            "appearances": 2309
        },
        {
            "word": "winner",
            "appearances": 1713
        },
        {
            "word": "better",
            "appearances": 1529
        },
        {
            "word": "hope",
            "appearances": 1517
        },
        {
            "word": "erste",
            "appearances": 1437
        },
        {
            "word": "achieve",
            "appearances": 1409
        },
        {
            "word": "inspire",
            "appearances": 1230
        },
        {
            "word": "honor",
            "appearances": 1072
        },
        {
            "word": "popular",
            "appearances": 1024
        },
        {
            "word": "safe",
            "appearances": 917
        },
        {
            "word": "unique",
            "appearances": 801
        },
        {
            "word": "enjoy",
            "appearances": 800
        },
        {
            "word": "strong",
            "appearances": 778
        },
        {
            "word": "powerful",
            "appearances": 774
        },
        {
            "word": "truthful",
            "appearances": 771
        },
        {
            "word": "fun",
            "appearances": 768
        },
        {
            "word": "benefit",
            "appearances": 763
        },
        {
            "word": "happy",
            "appearances": 721
        },
        {
            "word": "pretty",
            "appearances": 664
        },
        {
            "word": "i want",
            "appearances": 600
        },
        {
            "word": "favorite",
            "appearances": 545
        },
        {
            "word": "interesting",
            "appearances": 544
        },
        {
            "word": "creative",
            "appearances": 535
        },
        {
            "word": "greatest",
            "appearances": 530
        },
        {
            "word": "encourage",
            "appearances": 525
        },
        {
            "word": "success",
            "appearances": 519
        },
        {
            "word": "organized",
            "appearances": 514
        },
        {
            "word": "easy",
            "appearances": 502
        },
        {
            "word": "quickly",
            "appearances": 485
        },
        {
            "word": "beautiful",
            "appearances": 483
        },
        {
            "word": "welcome",
            "appearances": 438
        },
        {
            "word": "perfect",
            "appearances": 426
        },
        {
            "word": "proud",
            "appearances": 419
        },
        {
            "word": "schon",
            "appearances": 400
        },
        {
            "word": "tough",
            "appearances": 388
        },
        {
            "word": "bien",
            "appearances": 365
        },
        {
            "word": "meaningful",
            "appearances": 359
        },
        {
            "word": "friendly",
            "appearances": 358
        },
        {
            "word": "fair",
            "appearances": 356
        },
        {
            "word": "relief",
            "appearances": 351
        },
        {
            "word": "recommend",
            "appearances": 346
        }
    ]
}