{
    "status": "OK",
    "status_message": "OK",
    "query_meta": {
        "total_results": 8582,
        "linguistics_count": 0,
        "total_universe": 73304,
        "total_spammed": 34,
        "total_from_index": 8548,
        "sources_from_index": 3894,
        "total_sources_est": 3909,
        "sources_universe": 33393,
        "reach": 1019892,
        "index_result_age": 361
    },
    "query_info": {
        "query": "immigration (awards NEAR/3 (oscar | academy)) | (oscars | \"oscar presenters\" | \"oscar performances\" | \"oscar nominations 2017\" | \"oscar night\" | \"oscar news\" | \"oscar live\" | \"oscar latest\" | \"oscar host\" | \"oscar coverage\" | \"oscar awards 2017\" | \"oscar 2017\") | (#oscars | \"annual academy awards\" | \"academy awards live\" | \"academy awards 2017\" | \"academy award\" | \"89th academy awards\" | \"2017 academy awards\")",
        "query_within": "",
        "source_query_exclude": false,
        "source_query": "",
        "start_date": "2016-02-21T00:00:00Z",
        "end_date": "2017-03-21T23:59:59Z",
        "influence": "",
        "watchlist_ids": "",
        "dictionary_ids": "",
        "source_ids": "",
        "languages": "",
        "linguistics_languages": "",
        "categories": "",
        "countries": "",
        "states": "",
        "gender": "",
        "age": "",
        "weekdays": "",
        "hours": "",
        "hour_min": 0,
        "hour_max": 24,
        "found_from": "1970-01-01T00:00:00Z",
        "found_to": "1970-01-01T00:00:00Z",
        "id_min": 0,
        "id_max": 0,
        "firehose_id": 0
    },
    "usage": {
        "monthly_reset": "2017-04-12T00:00:00Z",
        "monthly_used": 323,
        "monthly_limit": 1050,
        "hourly_used": 26
    },
    "output": [
        {
            "code": "AK",
            "name": "Alaska",
            "broadband_users": 397800,
            "population": 722718,
            "total_sources": 27535,
            "matches": 3,
            "sources": 3,
            "score": 43.839806840267318
        },
        {
            "code": "AL",
            "name": "Alabama",
            "broadband_users": 1814800,
            "population": 4802740,
            "total_sources": 42127,
            "matches": 2,
            "sources": 2,
            "score": 25.736096979594238
        },
        {
            "code": "AR",
            "name": "Arkansas",
            "broadband_users": 1136200,
            "population": 2937979,
            "total_sources": 18449,
            "matches": 1,
            "sources": 1,
            "score": 15.802729781694503
        },
        {
            "code": "AS",
            "name": "American Samoa",
            "broadband_users": 33800,
            "population": 69543,
            "total_sources": 1,
            "matches": 0,
            "sources": 0,
            "score": 0.0
        },
        {
            "code": "AZ",
            "name": "Arizona",
            "broadband_users": 3450200,
            "population": 6482505,
            "total_sources": 40450,
            "matches": 1,
            "sources": 1,
            "score": 9.983703325138098
        },
        {
            "code": "CA",
            "name": "California",
            "broadband_users": 19133400,
            "population": 37691912,
            "total_sources": 292874,
            "matches": 15,
            "sources": 15,
            "score": 28.643186540606249
        },
        {
            "code": "CO",
            "name": "Colorado",
            "broadband_users": 2956200,
            "population": 5116769,
            "total_sources": 39612,
            "matches": 8,
            "sources": 8,
            "score": 100.0
        },
        {
            "code": "CT",
            "name": "Connecticut",
            "broadband_users": 2178800,
            "population": 3580709,
            "total_sources": 21070,
            "matches": 0,
            "sources": 0,
            "score": 0.0
        },
        {
            "code": "DC",
            "name": "District of Columbia",
            "broadband_users": 374400,
            "population": 617996,
            "total_sources": 36502,
            "matches": 0,
            "sources": 0,
            "score": 0.0
        },
        {
            "code": "DE",
            "name": "Delaware",
            "broadband_users": 423800,
            "population": 907135,
            "total_sources": 4196,
            "matches": 0,
            "sources": 0,
            "score": 0.0
        },
        {
            "code": "FL",
            "name": "Florida",
            "broadband_users": 10506600,
            "population": 19057542,
            "total_sources": 123762,
            "matches": 5,
            "sources": 5,
            "score": 18.231437623015908
        },
        {
            "code": "GA",
            "name": "Georgia",
            "broadband_users": 5135000,
            "population": 9815210,
            "total_sources": 90045,
            "matches": 3,
            "sources": 3,
            "score": 20.24485034003193
        },
        {
            "code": "HI",
            "name": "Hawaii",
            "broadband_users": 634400,
            "population": 1374810,
            "total_sources": 19371,
            "matches": 2,
            "sources": 2,
            "score": 30.284489140895699
        },
        {
            "code": "IA",
            "name": "Iowa",
            "broadband_users": 1495000,
            "population": 3062309,
            "total_sources": 21495,
            "matches": 1,
            "sources": 1,
            "score": 16.113766799016696
        },
        {
            "code": "ID",
            "name": "Idaho",
            "broadband_users": 673400,
            "population": 1584985,
            "total_sources": 6604,
            "matches": 1,
            "sources": 1,
            "score": 15.209860919565643
        },
        {
            "code": "IL",
            "name": "Illinois",
            "broadband_users": 6684600,
            "population": 12869257,
            "total_sources": 84667,
            "matches": 4,
            "sources": 4,
            "score": 20.992665207296584
        },
        {
            "code": "IN",
            "name": "Indiana",
            "broadband_users": 2836600,
            "population": 6516922,
            "total_sources": 58700,
            "matches": 10,
            "sources": 10,
            "score": 97.7490881522127
        },
        {
            "code": "KS",
            "name": "Kansas",
            "broadband_users": 1601600,
            "population": 2871238,
            "total_sources": 18955,
            "matches": 0,
            "sources": 0,
            "score": 0.0
        },
        {
            "code": "KY",
            "name": "Kentucky",
            "broadband_users": 1820000,
            "population": 4369356,
            "total_sources": 26261,
            "matches": 1,
            "sources": 1,
            "score": 14.186031483811523
        },
        {
            "code": "LA",
            "name": "Louisiana",
            "broadband_users": 1809600,
            "population": 4574836,
            "total_sources": 40591,
            "matches": 0,
            "sources": 0,
            "score": 0.0
        },
        {
            "code": "MA",
            "name": "Massachusetts",
            "broadband_users": 4092400,
            "population": 6587536,
            "total_sources": 52728,
            "matches": 0,
            "sources": 0,
            "score": 0.0
        },
        {
            "code": "MD",
            "name": "Maryland",
            "broadband_users": 3172000,
            "population": 5828289,
            "total_sources": 43274,
            "matches": 0,
            "sources": 0,
            "score": 0.0
        },
        {
            "code": "ME",
            "name": "Maine",
            "broadband_users": 681200,
            "population": 1328188,
            "total_sources": 11517,
            "matches": 0,
            "sources": 0,
            "score": 0.0
        },
        {
            "code": "MI",
            "name": "Michigan",
            "broadband_users": 4755400,
            "population": 9876187,
            "total_sources": 58932,
            "matches": 1,
            "sources": 1,
            "score": 6.6945585964002138
        },
        {
            "code": "MN",
            "name": "Minnesota",
            "broadband_users": 2914600,
            "population": 5344861,
            "total_sources": 68695,
            "matches": 7,
            "sources": 7,
            "score": 83.26397280697339
        },
        {
            "code": "MO",
            "name": "Missouri",
            "broadband_users": 2821000,
            "population": 6010688,
            "total_sources": 31962,
            "matches": 1,
            "sources": 1,
            "score": 10.633124343645563
        },
        {
            "code": "MS",
            "name": "Mississippi",
            "broadband_users": 982800,
            "population": 2978512,
            "total_sources": 14542,
            "matches": 0,
            "sources": 0,
            "score": 0.0
        },
        {
            "code": "MT",
            "name": "Montana",
            "broadband_users": 442000,
            "population": 998199,
            "total_sources": 16189,
            "matches": 2,
            "sources": 2,
            "score": 29.465361659685799
        },
        {
            "code": "NC",
            "name": "North Carolina",
            "broadband_users": 4344600,
            "population": 9656401,
            "total_sources": 59841,
            "matches": 0,
            "sources": 0,
            "score": 0.0
        },
        {
            "code": "ND",
            "name": "North Dakota",
            "broadband_users": 345800,
            "population": 683932,
            "total_sources": 6879,
            "matches": 0,
            "sources": 0,
            "score": 0.0
        },
        {
            "code": "NE",
            "name": "Nebraska",
            "broadband_users": 1003600,
            "population": 1842641,
            "total_sources": 11898,
            "matches": 0,
            "sources": 0,
            "score": 0.0
        },
        {
            "code": "NH",
            "name": "New Hampshire",
            "broadband_users": 899600,
            "population": 1318194,
            "total_sources": 8224,
            "matches": 0,
            "sources": 0,
            "score": 0.0
        },
        {
            "code": "NJ",
            "name": "New Jersey",
            "broadband_users": 4888000,
            "population": 8821155,
            "total_sources": 55256,
            "matches": 0,
            "sources": 0,
            "score": 0.0
        },
        {
            "code": "NM",
            "name": "New Mexico",
            "broadband_users": 904800,
            "population": 2082224,
            "total_sources": 13042,
            "matches": 0,
            "sources": 0,
            "score": 0.0
        },
        {
            "code": "NV",
            "name": "Nevada",
            "broadband_users": 1414400,
            "population": 2723322,
            "total_sources": 32427,
            "matches": 0,
            "sources": 0,
            "score": 0.0
        },
        {
            "code": "NY",
            "name": "New York",
            "broadband_users": 10511800,
            "population": 19465197,
            "total_sources": 228155,
            "matches": 7,
            "sources": 7,
            "score": 24.861122170185099
        },
        {
            "code": "OH",
            "name": "Ohio",
            "broadband_users": 5844800,
            "population": 11544951,
            "total_sources": 71890,
            "matches": 4,
            "sources": 4,
            "score": 23.208913884985905
        },
        {
            "code": "OK",
            "name": "Oklahoma",
            "broadband_users": 1445600,
            "population": 3791508,
            "total_sources": 25439,
            "matches": 2,
            "sources": 2,
            "score": 32.15136753515653
        },
        {
            "code": "OR",
            "name": "Oregon",
            "broadband_users": 2262000,
            "population": 3871859,
            "total_sources": 31094,
            "matches": 1,
            "sources": 1,
            "score": 16.21769149793532
        },
        {
            "code": "PA",
            "name": "Pennsylvania",
            "broadband_users": 6266000,
            "population": 12742886,
            "total_sources": 68510,
            "matches": 3,
            "sources": 3,
            "score": 15.854148914932317
        },
        {
            "code": "PR",
            "name": "Puerto Rico",
            "broadband_users": 1827800,
            "population": 3706690,
            "total_sources": 13483,
            "matches": 0,
            "sources": 0,
            "score": 0.0
        },
        {
            "code": "RI",
            "name": "Rhode Island",
            "broadband_users": 647400,
            "population": 1051302,
            "total_sources": 7760,
            "matches": 0,
            "sources": 0,
            "score": 0.0
        },
        {
            "code": "SC",
            "name": "South Carolina",
            "broadband_users": 1814800,
            "population": 4679230,
            "total_sources": 26202,
            "matches": 1,
            "sources": 1,
            "score": 13.249364454234572
        },
        {
            "code": "SD",
            "name": "South Dakota",
            "broadband_users": 400400,
            "population": 824082,
            "total_sources": 4780,
            "matches": 0,
            "sources": 0,
            "score": 0.0
        },
        {
            "code": "TN",
            "name": "Tennessee",
            "broadband_users": 2693600,
            "population": 6403353,
            "total_sources": 42661,
            "matches": 0,
            "sources": 0,
            "score": 0.0
        },
        {
            "code": "TX",
            "name": "Texas",
            "broadband_users": 10894000,
            "population": 25674681,
            "total_sources": 179582,
            "matches": 7,
            "sources": 7,
            "score": 18.978700409239953
        },
        {
            "code": "UT",
            "name": "Utah",
            "broadband_users": 1383200,
            "population": 2817222,
            "total_sources": 20807,
            "matches": 1,
            "sources": 1,
            "score": 16.025674273868689
        },
        {
            "code": "VA",
            "name": "Virginia",
            "broadband_users": 4175600,
            "population": 8096604,
            "total_sources": 39355,
            "matches": 0,
            "sources": 0,
            "score": 0.0
        },
        {
            "code": "VI",
            "name": "Virgin Islands",
            "broadband_users": 54600,
            "population": 109666,
            "total_sources": 905,
            "matches": 0,
            "sources": 0,
            "score": 0.0
        },
        {
            "code": "VT",
            "name": "Vermont",
            "broadband_users": 314600,
            "population": 626431,
            "total_sources": 5159,
            "matches": 1,
            "sources": 1,
            "score": 14.3473279077406
        },
        {
            "code": "WA",
            "name": "Washington",
            "broadband_users": 4035200,
            "population": 6830038,
            "total_sources": 73193,
            "matches": 3,
            "sources": 2,
            "score": 28.595653414307106
        },
        {
            "code": "WI",
            "name": "Wisconsin",
            "broadband_users": 3270800,
            "population": 5711767,
            "total_sources": 25108,
            "matches": 1,
            "sources": 1,
            "score": 11.311428243493414
        },
        {
            "code": "WV",
            "name": "West Virginia",
            "broadband_users": 639600,
            "population": 1855364,
            "total_sources": 19770,
            "matches": 1,
            "sources": 1,
            "score": 15.151496578086207
        },
        {
            "code": "WY",
            "name": "Wyoming",
            "broadband_users": 280800,
            "population": 568158,
            "total_sources": 5509,
            "matches": 2,
            "sources": 2,
            "score": 28.437020909948257
        },
        {
            "code": "00",
            "name": "",
            "broadband_users": 1,
            "population": 1,
            "total_sources": 1,
            "matches": 0,
            "sources": 0,
            "score": 0.0
        }
    ]
}