{
    "status": "OK",
    "status_message": "OK",
    "query_meta": {
        "total_results": 8582,
        "linguistics_count": 0,
        "total_universe": 73304,
        "total_spammed": 34,
        "total_from_index": 8548,
        "sources_from_index": 3894,
        "total_sources_est": 3909,
        "sources_universe": 33393,
        "reach": 1019892,
        "index_result_age": 388
    },
    "query_info": {
        "query": "immigration (awards NEAR/3 (oscar | academy)) | (oscars | \"oscar presenters\" | \"oscar performances\" | \"oscar nominations 2017\" | \"oscar night\" | \"oscar news\" | \"oscar live\" | \"oscar latest\" | \"oscar host\" | \"oscar coverage\" | \"oscar awards 2017\" | \"oscar 2017\") | (#oscars | \"annual academy awards\" | \"academy awards live\" | \"academy awards 2017\" | \"academy award\" | \"89th academy awards\" | \"2017 academy awards\")",
        "query_within": "",
        "source_query_exclude": false,
        "source_query": "",
        "start_date": "2016-02-21T00:00:00Z",
        "end_date": "2017-03-21T23:59:59Z",
        "influence": "",
        "watchlist_ids": "",
        "dictionary_ids": "",
        "source_ids": "",
        "languages": "",
        "linguistics_languages": "",
        "categories": "",
        "countries": "",
        "states": "",
        "gender": "",
        "age": "",
        "weekdays": "",
        "hours": "",
        "hour_min": 0,
        "hour_max": 24,
        "found_from": "1970-01-01T00:00:00Z",
        "found_to": "1970-01-01T00:00:00Z",
        "id_min": 0,
        "id_max": 0,
        "firehose_id": 0
    },
    "usage": {
        "monthly_reset": "2017-04-12T00:00:00Z",
        "monthly_used": 325,
        "monthly_limit": 1050,
        "hourly_used": 28
    },
    "output": [
        {
            "hour": 0,
            "count": 358
        },
        {
            "hour": 1,
            "count": 276
        },
        {
            "hour": 2,
            "count": 423
        },
        {
            "hour": 3,
            "count": 559
        },
        {
            "hour": 4,
            "count": 331
        },
        {
            "hour": 5,
            "count": 397
        },
        {
            "hour": 6,
            "count": 320
        },
        {
            "hour": 7,
            "count": 258
        },
        {
            "hour": 8,
            "count": 210
        },
        {
            "hour": 9,
            "count": 283
        },
        {
            "hour": 10,
            "count": 204
        },
        {
            "hour": 11,
            "count": 218
        },
        {
            "hour": 12,
            "count": 283
        },
        {
            "hour": 13,
            "count": 244
        },
        {
            "hour": 14,
            "count": 475
        },
        {
            "hour": 15,
            "count": 466
        },
        {
            "hour": 16,
            "count": 330
        },
        {
            "hour": 17,
            "count": 368
        },
        {
            "hour": 18,
            "count": 447
        },
        {
            "hour": 19,
            "count": 535
        },
        {
            "hour": 20,
            "count": 443
        },
        {
            "hour": 21,
            "count": 364
        },
        {
            "hour": 22,
            "count": 389
        },
        {
            "hour": 23,
            "count": 367
        }
    ]
}