{
    "status": "OK",
    "status_message": "OK",
    "query_meta": {
        "total_results": 70132,
        "linguistics_count": 20300,
        "total_universe": 979783,
        "total_spammed": 908,
        "total_from_index": 69224,
        "sources_from_index": 29827,
        "total_sources_est": 30218,
        "sources_universe": 422165,
        "reach": 12054286,
        "index_result_age": 30
    },
    "query_info": {
        "query": "(awards NEAR/3 (oscar | academy)) | (oscars | \"oscar presenters\" | \"oscar performances\" | \"oscar nominations 2016\" | \"oscar night\" | \"oscar news\" | \"oscar live\" | \"oscar latest\" | \"oscar host\" | \"oscar coverage\" | \"oscar awards 2016\" | \"oscar 2016\") | (#oscars | \"annual academy awards\" | \"academy awards live\" | \"academy awards 2016\" | \"academy award\" | \"88th academy awards\" | \"2016 academy awards\") (predictions | prediction | picks | nominees | nominee | nominations | music | movies | films | contenders | contender | category | categories | ballot | \"movie nomination\" | \"film nomination\") NEAR/5 (want | prefers | prefer | loving | love | likings | liking | like | hating | hate | fancy | enjoy | disliking | dislike | desiring | desire)",
        "query_within": "",
        "source_query_exclude": false,
        "source_query": "",
        "start_date": "2016-02-21T00:00:00Z",
        "end_date": "2017-03-21T23:59:59Z",
        "influence": "",
        "watchlist_ids": "",
        "dictionary_ids": "",
        "source_ids": "",
        "languages": "",
        "linguistics_languages": "",
        "categories": "e,facebook,",
        "countries": "",
        "states": "",
        "gender": "",
        "age": "",
        "weekdays": "",
        "hours": "",
        "hour_min": 0,
        "hour_max": 24,
        "found_from": "1970-01-01T00:00:00Z",
        "found_to": "1970-01-01T00:00:00Z",
        "id_min": 0,
        "id_max": 0,
        "firehose_id": 0
    },
    "usage": {
        "monthly_reset": "2017-05-12T00:00:00Z",
        "monthly_used": 166,
        "monthly_limit": 1050,
        "hourly_used": 1
    },
    "output": [
        {
            "topic": "years",
            "key": "465622452ll",
            "score": 30085.08984375,
            "appearances": 39845,
            "positive_appearances": 6922,
            "negative_appearances": 2496,
            "documents": 13511,
            "positive_documents": 9105,
            "negative_documents": 848,
            "positive_score": 18151.5,
            "negative_score": -4828.6875,
            "positive_intensity": 87.40971374511719,
            "negative_intensity": 64.48567199707031,
            "query": "years OR year",
            "brand": "",
            "first_seen": "2016-02-21T01:57:00Z",
            "last_seen": "2017-03-21T17:10:30Z",
            "breakout": "2017-02-27T00:30:05Z",
            "timeline": [
                27,
                16,
                14,
                9,
                6,
                10,
                29,
                27,
                17,
                100
            ],
            "sample_sentences": [
                "the average member of the Academy of Motion Pictures Arts and Sciences is 63 years old.",
                "Though the movie wasn’t released until 2011 because of conflicts between Lonergan and his producers over a final cut, it was first scheduled to appear in 2007, just a couple of years after a big, inconvenient, and successful MTA strike.",
                "This Brooklyn belle appeared in film, television, and on Broadway for 70 years."
            ]
        },
        {
            "topic": "people",
            "key": "4220827084ll",
            "score": 18459.72265625,
            "appearances": 27161,
            "positive_appearances": 4397,
            "negative_appearances": 2939,
            "documents": 11345,
            "positive_documents": 7036,
            "negative_documents": 1185,
            "positive_score": 10970.4375,
            "negative_score": -6048.46875,
            "positive_intensity": 83.16608428955078,
            "negative_intensity": 68.6000747680664,
            "query": "people OR peoples",
            "brand": "",
            "first_seen": "2016-02-21T01:57:00Z",
            "last_seen": "2017-03-21T23:16:00Z",
            "breakout": "2017-02-27T00:44:11Z",
            "timeline": [
                24,
                12,
                15,
                10,
                5,
                10,
                32,
                30,
                18,
                100
            ],
            "sample_sentences": [
                " Unlike some people,  the dubbing is something that I'm more than willing to overlook, due to my intense love for this film.",
                "there are plenty of queer people in the film industry, after all.",
                "Viewers see troubled people at work, but not how these characters’ conditions of work shape their problems, or how they might make work better with collective action."
            ]
        },
        {
            "topic": "name",
            "key": "4139765090ll",
            "score": 16159.9931640625,
            "appearances": 19906,
            "positive_appearances": 1707,
            "negative_appearances": 620,
            "documents": 10883,
            "positive_documents": 7297,
            "negative_documents": 514,
            "positive_score": 4238.125,
            "negative_score": -1251.125,
            "positive_intensity": 82.75971221923828,
            "negative_intensity": 67.26478576660156,
            "query": "name OR named OR names",
            "brand": "",
            "first_seen": "2016-02-21T03:58:18Z",
            "last_seen": "2017-03-21T14:01:42Z",
            "breakout": "2017-03-14T04:58:26Z",
            "timeline": [
                25,
                16,
                13,
                12,
                4,
                12,
                26,
                23,
                10,
                100
            ],
            "sample_sentences": [
                "You’re not the only one who has never heard of the actress’s name before.",
                "The 1957 classic 3:10 to Yuma on public land in Arizona and the 2007 remake by the same name was filmed in Santa Fe Natinal Forest, the great Shane was filmed in Grand Teton National Park, and the 1936 John Wayne classic, Stagecoach, was shot in Monument Valley.",
                "She’s not one of the nominated or even among Hollywood’s A-listers, but she achieved her goal for the night to make a name for her own."
            ]
        },
        {
            "topic": "character",
            "key": "3432381617ll",
            "score": 15804.53125,
            "appearances": 24397,
            "positive_appearances": 3110,
            "negative_appearances": 1512,
            "documents": 10568,
            "positive_documents": 6924,
            "negative_documents": 563,
            "positive_score": 8813.75,
            "negative_score": -2910.0,
            "positive_intensity": 94.4667739868164,
            "negative_intensity": 64.1534423828125,
            "query": "character OR characters",
            "brand": "",
            "first_seen": "2016-02-21T03:38:04Z",
            "last_seen": "2017-03-21T17:10:30Z",
            "breakout": "2017-03-14T04:58:26Z",
            "timeline": [
                26,
                10,
                12,
                4,
                7,
                9,
                32,
                28,
                12,
                100
            ],
            "sample_sentences": [
                "Yet in the 89-year history of the Oscars, nearly all black actors who have won Academy Awards have done so for playing black characters.",
                "When movies with LGBT characters are spotlighted, it’s too rarely in a way that celebrates or affirms the community.",
                "Viewers see troubled people at work, but not how these characters’ conditions of work shape their problems, or how they might make work better with collective action."
            ]
        },
        {
            "topic": "work",
            "key": "2036006813ll",
            "score": 15525.0654296875,
            "appearances": 22462,
            "positive_appearances": 5687,
            "negative_appearances": 1940,
            "documents": 5958,
            "positive_documents": 5078,
            "negative_documents": 658,
            "positive_score": 13698.625,
            "negative_score": -3868.5,
            "positive_intensity": 80.29203796386719,
            "negative_intensity": 66.46907043457031,
            "query": "work OR working OR works OR worked",
            "brand": "",
            "first_seen": "2016-02-21T01:57:00Z",
            "last_seen": "2017-03-21T17:10:30Z",
            "breakout": "2017-03-14T04:00:37Z",
            "timeline": [
                20,
                17,
                17,
                11,
                7,
                10,
                43,
                32,
                19,
                100
            ],
            "sample_sentences": [
                " That, imo, is the best way to really appreciate what a hauntingly beautiful work of art that the film West Side Story  really is.",
                "   In addition to being rather relevant even today despite its being fiction, West Side Story  is a true-blue work of art that, while it's enjoyable on TV, cries to be seen in a real movie theatre with the lights down low, on a great big, wide screen, as it's truly meant to be viewed.",
                "You've worked with the Coen Brothers all the way back to Blood Simple and through the current Hail, Caesar."
            ]
        },
        {
            "topic": "director",
            "key": "1691892811ll",
            "score": 15171.283203125,
            "appearances": 20598,
            "positive_appearances": 2583,
            "negative_appearances": 910,
            "documents": 9627,
            "positive_documents": 6001,
            "negative_documents": 536,
            "positive_score": 6810.8125,
            "negative_score": -1727.5625,
            "positive_intensity": 87.89279174804688,
            "negative_intensity": 63.280677795410159,
            "query": "director OR directors",
            "brand": "",
            "first_seen": "2016-02-21T01:57:00Z",
            "last_seen": "2017-03-21T17:10:30Z",
            "breakout": "",
            "timeline": [
                31,
                22,
                23,
                9,
                5,
                17,
                35,
                41,
                23,
                100
            ],
            "sample_sentences": [
                "Its director, Barry Jenkins, adapted an unproduced stage play by Tarell Alvin McCraney because its world, one of boys struggling to find their place on the streets, was one he knew intimately.",
                "It doesn't really matter about the director.",
                "In Manchester by the Sea, nominated for six awards at the Oscars on February 26, as in many of his past projects, the playwright and director goes out of his way to avoid the economic roots of problems his service-sector protagonists face."
            ]
        },
        {
            "topic": "career forever",
            "key": "436611985ll",
            "score": 14543.421875,
            "appearances": 6722,
            "positive_appearances": 0,
            "negative_appearances": 0,
            "documents": 6722,
            "positive_documents": 3663,
            "negative_documents": 117,
            "positive_score": 0.0,
            "negative_score": 0.0,
            "positive_intensity": 0.0,
            "negative_intensity": 0.0,
            "query": "\"career forever\"",
            "brand": "",
            "first_seen": "2016-02-21T03:58:18Z",
            "last_seen": "2017-03-20T23:00:49Z",
            "breakout": "",
            "timeline": [
                31,
                0,
                0,
                0,
                0,
                0,
                0,
                0,
                0,
                100
            ],
            "sample_sentences": [
                "did you want these beautiful, terrible movies to be a blemish on your career forever?"
            ]
        },
        {
            "topic": "won multiple emmys",
            "key": "3143571321ll",
            "score": 14460.0947265625,
            "appearances": 6723,
            "positive_appearances": 0,
            "negative_appearances": 0,
            "documents": 6723,
            "positive_documents": 3664,
            "negative_documents": 117,
            "positive_score": 0.0,
            "negative_score": 0.0,
            "positive_intensity": 0.0,
            "negative_intensity": 0.0,
            "query": "\"won multiple emmys\"",
            "brand": "",
            "first_seen": "2016-02-21T03:58:18Z",
            "last_seen": "2017-03-20T23:00:49Z",
            "breakout": "",
            "timeline": [
                31,
                0,
                0,
                0,
                0,
                0,
                0,
                0,
                0,
                100
            ],
            "sample_sentences": [
                "tony shalhoub has won multiple emmys but he did spy kids and"
            ]
        },
        {
            "topic": "FOUR",
            "key": "1119288934ll",
            "score": 13758.2197265625,
            "appearances": 10595,
            "positive_appearances": 629,
            "negative_appearances": 0,
            "documents": 9273,
            "positive_documents": 5941,
            "negative_documents": 321,
            "positive_score": 1595.75,
            "negative_score": -221.25,
            "positive_intensity": 84.56544494628906,
            "negative_intensity": 100.0,
            "query": "four OR fours",
            "brand": "",
            "first_seen": "2016-02-21T03:58:18Z",
            "last_seen": "2017-03-20T23:00:49Z",
            "breakout": "",
            "timeline": [
                27,
                8,
                11,
                6,
                2,
                7,
                12,
                17,
                7,
                100
            ],
            "sample_sentences": [
                "four days later, Ashman died at age 40 due to complications from AIDS.",
                "With four outings as Bond to his name already, Daniel Craig knows the 007 gig inside out and is a guaranteed hit at the box office: Spectre and Skyfall are among the highest-grossing films in the franchise.",
                "The Academy Awards are almost upon us, which means that it's time for the entire movie industry to rent out a very large room and say, \"Good job, Movie Industry\" to itself for about four hours."
            ]
        },
        {
            "topic": "played",
            "key": "3026919544ll",
            "score": 13754.1376953125,
            "appearances": 36225,
            "positive_appearances": 3667,
            "negative_appearances": 1764,
            "documents": 11507,
            "positive_documents": 7724,
            "negative_documents": 641,
            "positive_score": 9304.5625,
            "negative_score": -3378.25,
            "positive_intensity": 84.5792465209961,
            "negative_intensity": 63.8369255065918,
            "query": "played OR play OR playing",
            "brand": "",
            "first_seen": "2016-02-21T03:38:04Z",
            "last_seen": "2017-03-21T17:10:30Z",
            "breakout": "",
            "timeline": [
                28,
                17,
                15,
                10,
                7,
                10,
                38,
                28,
                14,
                100
            ],
            "sample_sentences": [
                " That being said, Beymer would’ve played a stronger role as Tony if the above-mentioned things hadn’t been going on.",
                " So was Susan Oakes, who played the tomboy/Jets wannabe, Anybodys, who, through her persistence, gained acceptance as an equal by the Jets, at least in part for her proof that she, too, could take care of herself.",
                "What also made the film West Side Story  so hauntingly beautiful is the fact that the cast members, on the whole, were incredibly  believable in the roles that they played."
            ]
        },
        {
            "topic": "pay really",
            "key": "3545812597ll",
            "score": 13401.267578125,
            "appearances": 6732,
            "positive_appearances": 3,
            "negative_appearances": 0,
            "documents": 6732,
            "positive_documents": 3669,
            "negative_documents": 121,
            "positive_score": 7.0,
            "negative_score": 0.0,
            "positive_intensity": 77.77777099609375,
            "negative_intensity": 0.0,
            "query": "\"pay really\" OR \"really pay\"",
            "brand": "",
            "first_seen": "2016-02-21T03:58:18Z",
            "last_seen": "2017-03-20T23:00:49Z",
            "breakout": "",
            "timeline": [
                31,
                0,
                0,
                0,
                0,
                0,
                0,
                0,
                0,
                100
            ],
            "sample_sentences": [
                "did they pay really well?"
            ]
        },
        {
            "topic": "making",
            "key": "3577394544ll",
            "score": 13078.9677734375,
            "appearances": 16263,
            "positive_appearances": 2769,
            "negative_appearances": 1134,
            "documents": 9945,
            "positive_documents": 6123,
            "negative_documents": 779,
            "positive_score": 7558.1875,
            "negative_score": -2456.875,
            "positive_intensity": 90.98577117919922,
            "negative_intensity": 72.21854400634766,
            "query": "making OR makes OR makings",
            "brand": "",
            "first_seen": "2016-02-21T01:57:00Z",
            "last_seen": "2017-03-21T23:16:00Z",
            "breakout": "2017-03-14T04:00:37Z",
            "timeline": [
                26,
                19,
                19,
                10,
                8,
                13,
                50,
                40,
                17,
                100
            ],
            "sample_sentences": [
                "the Disney renaissance might not have existed, and movies like The Princess and the Frog and Frozen would not exist, as Disney would not have continued making animated musical films without Ashman’s contributions.",
                "he had been diagnosed in 1988 halfway through making TLM.",
                "Sometimes this is explicit, as when Jeff tries to flirt with a female cop, making conversation about the inconvenience an upcoming sanitation strike will cause."
            ]
        },
        {
            "topic": "performance",
            "key": "2456969087ll",
            "score": 12946.919921875,
            "appearances": 15293,
            "positive_appearances": 3062,
            "negative_appearances": 819,
            "documents": 8715,
            "positive_documents": 5323,
            "negative_documents": 387,
            "positive_score": 8571.25,
            "negative_score": -1520.875,
            "positive_intensity": 93.30775451660156,
            "negative_intensity": 61.89967346191406,
            "query": "performance OR performed OR performing OR perform",
            "brand": "",
            "first_seen": "2016-02-21T01:57:00Z",
            "last_seen": "2017-03-21T17:10:30Z",
            "breakout": "",
            "timeline": [
                31,
                27,
                19,
                15,
                4,
                15,
                42,
                38,
                16,
                100
            ],
            "sample_sentences": [
                "Ledger's performance went on to garner a posthumous Academy Award in addition to many more honors.",
                "Executive producer Barbara Broccoli was reportedly impressed by Bell’s performance in the upcoming Film Stars Don’t Die In Liverpool, with one source telling The Sun: ‘Barbara has been a fan of Jamie for a long time and has even thought about him playing another role in the franchise before.",
                "And so for me, like in editing that, my main goal was to preserve the long takes as much as I could, based on performances and the camera movements, and making sure that they were all in sync."
            ]
        },
        {
            "topic": "tony shalhoub",
            "key": "4160988536ll",
            "score": 12203.6748046875,
            "appearances": 6725,
            "positive_appearances": 1,
            "negative_appearances": 0,
            "documents": 6725,
            "positive_documents": 3664,
            "negative_documents": 119,
            "positive_score": 1.5,
            "negative_score": 0.0,
            "positive_intensity": 50.0,
            "negative_intensity": 0.0,
            "query": "\"tony shalhoub\"",
            "brand": "",
            "first_seen": "2016-02-21T03:58:18Z",
            "last_seen": "2017-03-20T23:00:49Z",
            "breakout": "",
            "timeline": [
                31,
                0,
                0,
                0,
                0,
                0,
                0,
                4,
                0,
                100
            ],
            "sample_sentences": [
                "tony shalhoub has won multiple emmys but he did spy kids and"
            ]
        },
        {
            "topic": "good",
            "key": "2775147838ll",
            "score": 12164.416015625,
            "appearances": 17836,
            "positive_appearances": 6622,
            "negative_appearances": 824,
            "documents": 9741,
            "positive_documents": 6193,
            "negative_documents": 541,
            "positive_score": 18945.0,
            "negative_score": -1472.75,
            "positive_intensity": 95.36392974853516,
            "negative_intensity": 59.577266693115237,
            "query": "good OR gooding OR goods",
            "brand": "",
            "first_seen": "2016-02-21T05:00:00Z",
            "last_seen": "2017-03-21T23:16:00Z",
            "breakout": "",
            "timeline": [
                29,
                22,
                20,
                18,
                6,
                13,
                44,
                48,
                22,
                100
            ],
            "sample_sentences": [
                "Essentially, then, he’s in contention because he looks good in a tux – and we can’t argue that Gosling would be able to pull off Bond’s on-screen charm offensive with aplomb.",
                "As a member of the academy, I think the move for dynamic changes in gender and race is good.",
                "‘I keep saying if it were to happen it would be the will of a nation because there haven’t been any talks between me and the studio about any of that,’ he told Good Morning America last year."
            ]
        },
        {
            "topic": "lead",
            "key": "3635391965ll",
            "score": 12147.8154296875,
            "appearances": 12716,
            "positive_appearances": 1078,
            "negative_appearances": 455,
            "documents": 9872,
            "positive_documents": 6373,
            "negative_documents": 445,
            "positive_score": 2775.75,
            "negative_score": -916.8125,
            "positive_intensity": 85.83023834228516,
            "negative_intensity": 67.1657485961914,
            "query": "lead OR leading OR leads",
            "brand": "",
            "first_seen": "2016-02-21T01:57:00Z",
            "last_seen": "2017-03-21T17:10:30Z",
            "breakout": "",
            "timeline": [
                26,
                6,
                10,
                7,
                3,
                5,
                16,
                14,
                10,
                100
            ],
            "sample_sentences": [
                "Why would movies like these redact their leads’ queerness?",
                "Though Gosling has done the steely-eyed killer thing in Drive, we still see him more as romantic leading man than gun-toting action hero.",
                "The actor broke out as the lead of 2008's Oscar-winning \"Slumdog Millionaire\" and played a tech-savvy reporter in HBO's \"The Newsroom."
            ]
        },
        {
            "topic": "think",
            "key": "2672003672ll",
            "score": 11956.115234375,
            "appearances": 15161,
            "positive_appearances": 4142,
            "negative_appearances": 1577,
            "documents": 4694,
            "positive_documents": 3964,
            "negative_documents": 547,
            "positive_score": 10798.25,
            "negative_score": -3011.0,
            "positive_intensity": 86.90045166015625,
            "negative_intensity": 63.64405059814453,
            "query": "think OR thinking OR thinks",
            "brand": "",
            "first_seen": "2016-02-21T01:57:00Z",
            "last_seen": "2017-03-21T23:16:00Z",
            "breakout": "2017-03-14T04:00:37Z",
            "timeline": [
                21,
                11,
                20,
                7,
                8,
                11,
                41,
                41,
                20,
                100
            ],
            "sample_sentences": [
                "’ It’s hard to think of a better fit for the role – and that’s regardless of the fact that, as the first black Bond, his casting would be an important milestone for the franchise.",
                "‘As an acting role, I think Daniel [Craig] has done such a cracking job in this age group,’ he told GQ, before revealing he ‘think[s] the franchise needs something new.",
                "it makes you think it must be worth a lot to be alive."
            ]
        },
        {
            "topic": "dressed weirdos",
            "key": "2549679363ll",
            "score": 11907.990234375,
            "appearances": 6722,
            "positive_appearances": 0,
            "negative_appearances": 0,
            "documents": 6722,
            "positive_documents": 3663,
            "negative_documents": 117,
            "positive_score": 0.0,
            "negative_score": 0.0,
            "positive_intensity": 0.0,
            "negative_intensity": 0.0,
            "query": "\"dressed weirdos\"",
            "brand": "",
            "first_seen": "2016-02-21T03:58:18Z",
            "last_seen": "2017-03-20T23:00:49Z",
            "breakout": "",
            "timeline": [
                31,
                0,
                0,
                0,
                0,
                0,
                0,
                0,
                0,
                100
            ],
            "sample_sentences": [
                "sylvester stallone is like a cultural icon and he played not one but FOUR ridiculously dressed weirdos"
            ]
        },
        {
            "topic": "salma hayek’s pigtails",
            "key": "4071091410ll",
            "score": 11729.0458984375,
            "appearances": 6722,
            "positive_appearances": 0,
            "negative_appearances": 0,
            "documents": 6722,
            "positive_documents": 3663,
            "negative_documents": 117,
            "positive_score": 0.0,
            "negative_score": 0.0,
            "positive_intensity": 0.0,
            "negative_intensity": 0.0,
            "query": "\"salma hayeks pigtails\"",
            "brand": "",
            "first_seen": "2016-02-21T03:58:18Z",
            "last_seen": "2017-03-20T23:00:49Z",
            "breakout": "",
            "timeline": [
                31,
                0,
                0,
                0,
                0,
                0,
                0,
                0,
                0,
                100
            ],
            "sample_sentences": [
                "salma hayek’s pigtails in this wow "
            ]
        },
        {
            "topic": "actors",
            "key": "981846953ll",
            "score": 11660.0712890625,
            "appearances": 45223,
            "positive_appearances": 3760,
            "negative_appearances": 879,
            "documents": 12557,
            "positive_documents": 8785,
            "negative_documents": 613,
            "positive_score": 8094.875,
            "negative_score": -1746.875,
            "positive_intensity": 71.76307678222656,
            "negative_intensity": 66.24478912353516,
            "query": "actors OR actor",
            "brand": "",
            "first_seen": "2016-02-21T01:57:00Z",
            "last_seen": "2017-03-21T14:25:58Z",
            "breakout": "2017-02-27T00:30:05Z",
            "timeline": [
                24,
                12,
                10,
                5,
                4,
                6,
                21,
                24,
                9,
                100
            ],
            "sample_sentences": [
                " All of the above-mentioned factors in the filming of West Side Story  were combined to tell a hauntingly beautiful story, in a hauntingly beautiful way.",
                "To date, 11 straight actors have won an Oscar for playing an LGBT character.",
                "The fact that West Side Story, as a movie-musical, tells the story and the various emotions in it through dance, and many other factors is what makes it stand out from other musicals."
            ]
        },
        {
            "topic": "GUY”",
            "key": "3522601681ll",
            "score": 11607.6259765625,
            "appearances": 9821,
            "positive_appearances": 649,
            "negative_appearances": 295,
            "documents": 8225,
            "positive_documents": 4953,
            "negative_documents": 288,
            "positive_score": 1798.1875,
            "negative_score": -629.5,
            "positive_intensity": 92.3568344116211,
            "negative_intensity": 71.12994384765625,
            "query": "guy",
            "brand": "",
            "first_seen": "2016-02-21T03:58:18Z",
            "last_seen": "2017-03-20T23:00:49Z",
            "breakout": "",
            "timeline": [
                27,
                8,
                14,
                10,
                3,
                6,
                22,
                17,
                10,
                100
            ],
            "sample_sentences": [
                "“Roger always was a guy who had this ability to cherish both the tradition of film and film watching,” James, the documentary filmmaker, told me.",
                "“He wasn’t just a guy who wanted his opinion to be heard and that’s that.",
                "“Epic Film Guys Theme” courtesy of Eric Askew."
            ]
        },
        {
            "topic": "spy kids",
            "key": "3002217945ll",
            "score": 11246.3369140625,
            "appearances": 39280,
            "positive_appearances": 2226,
            "negative_appearances": 5181,
            "documents": 6730,
            "positive_documents": 3669,
            "negative_documents": 119,
            "positive_score": 12937.875,
            "negative_score": -7788.75,
            "positive_intensity": 100.0,
            "negative_intensity": 50.110984802246097,
            "query": "\"spy kids\"",
            "brand": "",
            "first_seen": "2016-02-21T03:58:18Z",
            "last_seen": "2017-03-20T23:00:49Z",
            "breakout": "",
            "timeline": [
                31,
                0,
                0,
                0,
                0,
                0,
                0,
                0,
                0,
                100
            ],
            "sample_sentences": [
                " antonio banderas did so many high-profile movies then in spy kids he looked like this",
                "tony shalhoub has won multiple emmys but he did spy kids and",
                "i still do not understand what possessed so many well-respected actors to do the spy kids movies like"
            ]
        },
        {
            "topic": "antonio banderas",
            "key": "751893305ll",
            "score": 11156.646484375,
            "appearances": 6781,
            "positive_appearances": 18,
            "negative_appearances": 4,
            "documents": 6756,
            "positive_documents": 3693,
            "negative_documents": 121,
            "positive_score": 91.0,
            "negative_score": -6.0,
            "positive_intensity": 100.0,
            "negative_intensity": 50.0,
            "query": "\"antonio banderas\"",
            "brand": "",
            "first_seen": "2016-02-21T03:58:18Z",
            "last_seen": "2017-03-20T23:00:49Z",
            "breakout": "",
            "timeline": [
                30,
                0,
                0,
                0,
                0,
                0,
                0,
                0,
                0,
                100
            ],
            "sample_sentences": [
                " antonio banderas did so many high-profile movies then in spy kids he looked like this",
                "1987 Law of Desireor La ley del Deseo by Pedro Almodóvar, starring Antonio Banderas, is a complex love triangle between three men."
            ]
        },
        {
            "topic": "elijah wood",
            "key": "4270674324ll",
            "score": 11092.208984375,
            "appearances": 6775,
            "positive_appearances": 4,
            "negative_appearances": 7,
            "documents": 6764,
            "positive_documents": 3701,
            "negative_documents": 120,
            "positive_score": 9.0,
            "negative_score": -25.0,
            "positive_intensity": 75.0,
            "negative_intensity": 100.0,
            "query": "\"elijah wood\" OR \"elijah woods\"",
            "brand": "",
            "first_seen": "2016-02-21T03:58:18Z",
            "last_seen": "2017-03-20T23:00:49Z",
            "breakout": "",
            "timeline": [
                31,
                0,
                0,
                0,
                0,
                0,
                0,
                4,
                0,
                100
            ],
            "sample_sentences": [
                "elijah wood was the lead in a movie that’s tied for the largest number of oscars of all time and he played a character creatively named “THE GUY”"
            ]
        },
        {
            "topic": "idea",
            "key": "2247175642ll",
            "score": 10955.2216796875,
            "appearances": 9766,
            "positive_appearances": 1055,
            "negative_appearances": 457,
            "documents": 7377,
            "positive_documents": 4098,
            "negative_documents": 327,
            "positive_score": 2475.0,
            "negative_score": -902.75,
            "positive_intensity": 78.19905090332031,
            "negative_intensity": 65.84609985351563,
            "query": "idea OR ideas",
            "brand": "",
            "first_seen": "2016-02-21T05:00:00Z",
            "last_seen": "2017-03-20T02:45:12Z",
            "breakout": "",
            "timeline": [
                16,
                21,
                16,
                11,
                5,
                10,
                22,
                44,
                19,
                100
            ],
            "sample_sentences": [
                "pasts, presents and futures would not be the same without his ideas, because so many childhoods would not have been influenced by his works!",
                "after finishing up on TLM, Ashman pitched the idea of Aladdin to Disney.",
                "With Gene Siskel, he helped bring film reviewing to television and shaped not only the next generation of critics, but also the popular idea of what a film critic could be."
            ]
        },
        {
            "topic": "blemish",
            "key": "3388940886ll",
            "score": 10922.1279296875,
            "appearances": 6742,
            "positive_appearances": 0,
            "negative_appearances": 11,
            "documents": 6729,
            "positive_documents": 3669,
            "negative_documents": 118,
            "positive_score": 0.0,
            "negative_score": -21.0,
            "positive_intensity": 0.0,
            "negative_intensity": 63.6363639831543,
            "query": "blemish OR blemishes",
            "brand": "",
            "first_seen": "2016-02-21T03:58:18Z",
            "last_seen": "2017-03-20T23:00:49Z",
            "breakout": "",
            "timeline": [
                31,
                0,
                0,
                0,
                0,
                0,
                0,
                0,
                0,
                100
            ],
            "sample_sentences": [
                "did you want these beautiful, terrible movies to be a blemish on your career forever?"
            ]
        },
        {
            "topic": "well-respected actors",
            "key": "3741306899ll",
            "score": 10646.6142578125,
            "appearances": 6727,
            "positive_appearances": 1,
            "negative_appearances": 0,
            "documents": 6726,
            "positive_documents": 3667,
            "negative_documents": 117,
            "positive_score": 2.0,
            "negative_score": 0.0,
            "positive_intensity": 66.66667175292969,
            "negative_intensity": 0.0,
            "query": "\"wellrespected actors\" OR \"wellrespected actor\"",
            "brand": "",
            "first_seen": "2016-02-21T03:58:18Z",
            "last_seen": "2017-03-20T23:00:49Z",
            "breakout": "",
            "timeline": [
                31,
                0,
                0,
                0,
                0,
                0,
                0,
                0,
                0,
                100
            ],
            "sample_sentences": [
                "i still do not understand what possessed so many well-respected actors to do the spy kids movies like"
            ]
        },
        {
            "topic": "family",
            "key": "3731715047ll",
            "score": 10234.7236328125,
            "appearances": 13420,
            "positive_appearances": 1370,
            "negative_appearances": 795,
            "documents": 7675,
            "positive_documents": 4314,
            "negative_documents": 389,
            "positive_score": 3642.5,
            "negative_score": -1641.1875,
            "positive_intensity": 88.62530517578125,
            "negative_intensity": 68.81289672851563,
            "query": "family OR families OR familys",
            "brand": "",
            "first_seen": "2016-02-21T05:00:00Z",
            "last_seen": "2017-03-21T10:30:00Z",
            "breakout": "",
            "timeline": [
                28,
                20,
                40,
                18,
                7,
                11,
                29,
                63,
                24,
                100
            ],
            "sample_sentences": [
                "Robert was a beloved member of the Turner family for more than 23 years.",
                "Our thoughts and prayers are with his family and friends at this time.",
                "Kicked out of the Navy for smoking pot and living with his brother’s family, Jeff works the nightshift to get his own place, pay off his debts, and emerge to do something else."
            ]
        },
        {
            "topic": "tied",
            "key": "3201638058ll",
            "score": 10192.2666015625,
            "appearances": 7874,
            "positive_appearances": 115,
            "negative_appearances": 83,
            "documents": 7530,
            "positive_documents": 4408,
            "negative_documents": 171,
            "positive_score": 261.75,
            "negative_score": -143.5,
            "positive_intensity": 75.86956787109375,
            "negative_intensity": 57.63051986694336,
            "query": "tied OR ties",
            "brand": "",
            "first_seen": "2016-02-21T03:58:18Z",
            "last_seen": "2017-03-20T23:00:49Z",
            "breakout": "",
            "timeline": [
                36,
                6,
                6,
                2,
                7,
                2,
                21,
                6,
                3,
                100
            ],
            "sample_sentences": [
                "This year, the tug of war that's emerged is between the movie musical \"La La Land,\" which ties the record for the most Oscar nominations ever, and \"Moonlight,\" a critically beloved and smaller indie drama about a black man in three parts of his life.",
                "Paul Andrew knows the power of forging strong ties with budding celebs early on.",
                "On the books there have been two acting ties in Oscar history."
            ]
        },
        {
            "topic": "show",
            "key": "1863981264ll",
            "score": 9957.912109375,
            "appearances": 17605,
            "positive_appearances": 3514,
            "negative_appearances": 1430,
            "documents": 5579,
            "positive_documents": 4407,
            "negative_documents": 943,
            "positive_score": 9586.5,
            "negative_score": -2806.625,
            "positive_intensity": 90.9362564086914,
            "negative_intensity": 65.42249298095703,
            "query": "show OR shows OR showed",
            "brand": "",
            "first_seen": "2016-02-21T01:57:00Z",
            "last_seen": "2017-03-21T17:10:30Z",
            "breakout": "2017-02-27T00:02:17Z",
            "timeline": [
                14,
                10,
                16,
                11,
                5,
                9,
                25,
                28,
                18,
                100
            ],
            "sample_sentences": [
                "There are great books, movies, and television shows about consumer services, but Grand Hotel, Mildred Pierce, Alice, Cheers, and Waitress never advocated for immediate socioeconomic reform, let alone revolution.",
                "The well-deserved win for “Moonlight” is a necessary step toward inclusion for an awards show that has struggled to treat queer art as having the same importance and relevance as its competition.",
                "The three-hour Oscars ceremony will air live on ABC at 8:30 p.m., immediately after the red carpet pre-show."
            ]
        },
        {
            "topic": "writer",
            "key": "532075188ll",
            "score": 9929.79296875,
            "appearances": 8705,
            "positive_appearances": 878,
            "negative_appearances": 313,
            "documents": 6968,
            "positive_documents": 3761,
            "negative_documents": 250,
            "positive_score": 2293.6875,
            "negative_score": -600.9375,
            "positive_intensity": 87.08000946044922,
            "negative_intensity": 63.99760437011719,
            "query": "writer OR writers",
            "brand": "",
            "first_seen": "2016-02-22T02:44:00Z",
            "last_seen": "2017-03-20T11:30:02Z",
            "breakout": "",
            "timeline": [
                34,
                38,
                33,
                35,
                5,
                12,
                74,
                78,
                33,
                100
            ],
            "sample_sentences": [
                "With the DVD release of Souls for Sale, in 2009, reviews by credentialed writers began to appear.",
                "The actor, writer, and director Mark Duplass even wrote an open letter to the Academy urging its voters to choose \"Moonlight\" and \"think about what it would mean\" if the film took home the big prize, clearly aware of its dark-horse status.",
                "Scholars and experts who were little known outside their fields, I’d come across many of those—but no one knew of a famous writer with a Wikipedia habit aimed at adding to general knowledge."
            ]
        },
        {
            "topic": "wow ",
            "key": "1432888997ll",
            "score": 9904.2587890625,
            "appearances": 7214,
            "positive_appearances": 157,
            "negative_appearances": 20,
            "documents": 7095,
            "positive_documents": 3988,
            "negative_documents": 155,
            "positive_score": 427.125,
            "negative_score": -36.625,
            "positive_intensity": 90.6847152709961,
            "negative_intensity": 61.041664123535159,
            "query": "wow OR wowed",
            "brand": "",
            "first_seen": "2016-02-21T01:57:00Z",
            "last_seen": "2017-03-20T23:00:49Z",
            "breakout": "",
            "timeline": [
                28,
                3,
                4,
                5,
                1,
                1,
                4,
                10,
                2,
                100
            ],
            "sample_sentences": [
                "salma hayek’s pigtails in this wow ",
                "Wow, what a list of films."
            ]
        },
        {
            "topic": "sylvester stallone",
            "key": "1357154241ll",
            "score": 9867.1533203125,
            "appearances": 7035,
            "positive_appearances": 100,
            "negative_appearances": 20,
            "documents": 6950,
            "positive_documents": 3869,
            "negative_documents": 137,
            "positive_score": 289.25,
            "negative_score": -33.5,
            "positive_intensity": 96.41666412353516,
            "negative_intensity": 55.83333206176758,
            "query": "\"sylvester stallone\" OR \"sylvester stallones\"",
            "brand": "",
            "first_seen": "2016-02-21T01:57:00Z",
            "last_seen": "2017-03-20T23:00:49Z",
            "breakout": "",
            "timeline": [
                32,
                3,
                2,
                0,
                0,
                0,
                5,
                0,
                1,
                100
            ],
            "sample_sentences": [
                "sylvester stallone is like a cultural icon and he played not one but FOUR ridiculously dressed weirdos",
                "Sylvester Stallone had Grand Teton National Park stand in for Siberia in Rocky IV and Big Bend National Park was the setting for the dark and moody No Country for Old Men.",
                "First up in the episode is a heated debate between Justin & James of the Classy Little Podcast, after James dismissed Justin’s notion that Sylvester Stallone was one of the “great creative minds” in the film industry."
            ]
        },
        {
            "topic": "win",
            "key": "261350326ll",
            "score": 9812.83984375,
            "appearances": 14501,
            "positive_appearances": 2823,
            "negative_appearances": 1250,
            "documents": 4791,
            "positive_documents": 3481,
            "negative_documents": 1015,
            "positive_score": 7241.9375,
            "negative_score": -2129.96875,
            "positive_intensity": 85.5111312866211,
            "negative_intensity": 56.79916763305664,
            "query": "win OR winning OR wins",
            "brand": "",
            "first_seen": "2016-02-21T01:57:00Z",
            "last_seen": "2017-03-21T14:00:58Z",
            "breakout": "2017-02-27T00:02:17Z",
            "timeline": [
                14,
                12,
                8,
                9,
                5,
                7,
                31,
                30,
                20,
                100
            ],
            "sample_sentences": [
                "I only watch culturally important films, like the Academy Award winning classic Suicide Squad.",
                "“Moonlight” is the first LGBT movie to win best picture.",
                "The well-deserved win for “Moonlight” is a necessary step toward inclusion for an awards show that has struggled to treat queer art as having the same importance and relevance as its competition."
            ]
        },
        {
            "topic": "world",
            "key": "4056524904ll",
            "score": 9618.5703125,
            "appearances": 13768,
            "positive_appearances": 3719,
            "negative_appearances": 1232,
            "documents": 4823,
            "positive_documents": 4092,
            "negative_documents": 523,
            "positive_score": 10007.375,
            "negative_score": -2507.125,
            "positive_intensity": 89.69593048095703,
            "negative_intensity": 67.8334732055664,
            "query": "world OR worlds",
            "brand": "",
            "first_seen": "2016-02-21T03:38:04Z",
            "last_seen": "2017-03-21T17:10:30Z",
            "breakout": "2017-03-14T04:00:37Z",
            "timeline": [
                21,
                26,
                19,
                12,
                8,
                14,
                48,
                46,
                19,
                100
            ],
            "sample_sentences": [
                "‘As far as I’m concerned, I’ve got the best job in the world.",
                "That list includes setting like the one in The Revenant, which were chosen as part of the story, but many other location shoots often stood in for other parts of the nation, the world, and even galaxies from a long time ago, and far, far, away.",
                "Over two centuries, many a novel or film has investigated the various corners of oppression in a capitalist world, issuing powerful protest on behalf of slaves, farmers, and factory workers."
            ]
        },
        {
            "topic": "Land",
            "key": "77896214ll",
            "score": 9530.849609375,
            "appearances": 11646,
            "positive_appearances": 2881,
            "negative_appearances": 784,
            "documents": 3341,
            "positive_documents": 2527,
            "negative_documents": 594,
            "positive_score": 7190.375,
            "negative_score": -1442.0,
            "positive_intensity": 83.19304656982422,
            "negative_intensity": 61.30952072143555,
            "query": "land OR landed",
            "brand": "",
            "first_seen": "2016-02-21T05:00:00Z",
            "last_seen": "2017-03-21T17:10:30Z",
            "breakout": "2017-02-27T00:02:17Z",
            "timeline": [
                4,
                2,
                4,
                2,
                0,
                5,
                10,
                28,
                22,
                100
            ],
            "sample_sentences": [
                "“La La Land” matched “Titanic” and “All About Eve” for most nominations ever, earning nods for best picture, stars Emma Stone and Ryan Gosling, its jazz-infused songs and its 32-year-old writer-director, Damien Chazelle.",
                "Though “La La Land” and other best-picture nominees such as “Arrival” and “Hidden Figures” are knocking on the door of $100 million at the North American box office, none of the best picture nominees has yet grossed more than $100 million.",
                "The other nominees for the coveted Best Picture Oscar were La La Land, Manchester by the Sea, Arrival, Hacksaw Ridge, Hell or High Water, and Lion."
            ]
        },
        {
            "topic": "based",
            "key": "2733990547ll",
            "score": 9406.7275390625,
            "appearances": 14211,
            "positive_appearances": 860,
            "negative_appearances": 356,
            "documents": 7440,
            "positive_documents": 4157,
            "negative_documents": 315,
            "positive_score": 1818.0,
            "negative_score": -788.46875,
            "positive_intensity": 70.46511840820313,
            "negative_intensity": 73.82666778564453,
            "query": "based OR bases OR basing",
            "brand": "",
            "first_seen": "2016-02-21T05:00:00Z",
            "last_seen": "2017-03-21T17:10:30Z",
            "breakout": "",
            "timeline": [
                36,
                38,
                40,
                30,
                18,
                18,
                54,
                58,
                24,
                100
            ],
            "sample_sentences": [
                " Sure, West Side Story is based on certain realities that existed on Manhattan's West Side back in the 1950's and 1960's;",
                "The surprise hit status this week goes to The Shack, which looks to land in third place with around $15 million, a strong showing for a faith-based film that has attracted little interest in secular circles.",
                "The success also ensures that Peele can continue to direct issue-based horror movies well into the future, as he plans to do."
            ]
        },
        {
            "topic": "possessed",
            "key": "2744100357ll",
            "score": 9399.2099609375,
            "appearances": 7071,
            "positive_appearances": 71,
            "negative_appearances": 61,
            "documents": 6996,
            "positive_documents": 3886,
            "negative_documents": 162,
            "positive_score": 168.25,
            "negative_score": -119.0,
            "positive_intensity": 78.99060821533203,
            "negative_intensity": 65.02732849121094,
            "query": "possessed OR possess OR possession OR possesses",
            "brand": "",
            "first_seen": "2016-02-21T03:58:18Z",
            "last_seen": "2017-03-20T23:00:49Z",
            "breakout": "",
            "timeline": [
                28,
                3,
                0,
                3,
                1,
                0,
                4,
                0,
                2,
                100
            ],
            "sample_sentences": [
                "i still do not understand what possessed so many well-respected actors to do the spy kids movies like",
                "Some days I became possessed.",
                "Asylum may be the most prominent example of this: it handled demonic possession, aliens, serial killers (yes, more than one!"
            ]
        },
        {
            "topic": "feel",
            "key": "3854153113ll",
            "score": 9116.025390625,
            "appearances": 10340,
            "positive_appearances": 2546,
            "negative_appearances": 1402,
            "documents": 4248,
            "positive_documents": 3318,
            "negative_documents": 824,
            "positive_score": 6547.9375,
            "negative_score": -3004.125,
            "positive_intensity": 85.72843170166016,
            "negative_intensity": 71.42474365234375,
            "query": "feel OR feels OR feeling OR feelings",
            "brand": "",
            "first_seen": "2016-02-21T01:57:00Z",
            "last_seen": "2017-03-21T23:16:00Z",
            "breakout": "",
            "timeline": [
                16,
                16,
                21,
                11,
                8,
                12,
                52,
                56,
                31,
                100
            ],
            "sample_sentences": [
                "What better world for emotion and feeling than R&B and pop?",
                "That so much of the film feels like a documentary — particularly the scenes in which Lewis eats by himself in his antiseptic apartment lined with televisions on mute — makes the film’s critique of celebrity culture all the more penetrating and prescient.",
                "Like you're saying, that song definitely has a nostalgic feeling."
            ]
        },
        {
            "topic": "fellow blogger",
            "key": "1012806585ll",
            "score": 9058.859375,
            "appearances": 4598,
            "positive_appearances": 2,
            "negative_appearances": 1,
            "documents": 4597,
            "positive_documents": 2181,
            "negative_documents": 49,
            "positive_score": 6.0,
            "negative_score": -1.0,
            "positive_intensity": 100.0,
            "negative_intensity": 33.333335876464847,
            "query": "\"fellow blogger\" OR \"fellow bloggers\"",
            "brand": "",
            "first_seen": "2016-10-31T18:12:00Z",
            "last_seen": "2017-03-02T13:03:26Z",
            "breakout": "",
            "timeline": [
                0,
                0,
                0,
                0,
                0,
                0,
                100,
                0,
                0,
                28
            ],
            "sample_sentences": [
                "As explained earlier, this list was compiled by reaching out to fellow bloggers, critics, filmmakers, writers, podcasters, proprietors and Redditors.",
                "Are you saying spy kids wasn’t a masterpiece my  fellow blogger?"
            ]
        },
        {
            "topic": "sense",
            "key": "1267301405ll",
            "score": 8750.70703125,
            "appearances": 8077,
            "positive_appearances": 820,
            "negative_appearances": 320,
            "documents": 6790,
            "positive_documents": 3600,
            "negative_documents": 255,
            "positive_score": 2081.375,
            "negative_score": -708.375,
            "positive_intensity": 84.6087417602539,
            "negative_intensity": 73.7890625,
            "query": "sense OR senses",
            "brand": "",
            "first_seen": "2016-02-21T03:38:04Z",
            "last_seen": "2017-03-20T18:09:55Z",
            "breakout": "",
            "timeline": [
                29,
                20,
                41,
                13,
                24,
                24,
                97,
                69,
                24,
                100
            ],
            "sample_sentences": [
                "‘Ryan Gosling showed an admirable sense of humour and his composure was worthy of Mr Bond – the coolest cucumber of the lot,’ a spokesperson for William Hill said.",
                "it would make sense that Ebert would, but no one could tell me that he did.",
                "Wesley Morris, a critic at the New York Times, spoke of the Internet as a “convergence of users and so-called experts, democratizing in the sense that it’s provided access to people who haven’t had a voice,” but at the expense of traditional ideas of expertise and authority."
            ]
        },
        {
            "topic": "story",
            "key": "2411800865ll",
            "score": 8730.068359375,
            "appearances": 18070,
            "positive_appearances": 3417,
            "negative_appearances": 1992,
            "documents": 5353,
            "positive_documents": 4262,
            "negative_documents": 905,
            "positive_score": 9004.0625,
            "negative_score": -3857.375,
            "positive_intensity": 87.8359375,
            "negative_intensity": 64.54776763916016,
            "query": "story OR stories",
            "brand": "",
            "first_seen": "2016-02-21T06:40:25Z",
            "last_seen": "2017-03-21T17:10:30Z",
            "breakout": "2017-03-14T04:58:26Z",
            "timeline": [
                15,
                17,
                12,
                8,
                4,
                8,
                28,
                39,
                22,
                100
            ],
            "sample_sentences": [
                " Although the romance between Tony and Maria was an integral part of the story, it was the warring Jets and Sharks who walked off with both the film and the stage play of West Side Story.",
                " All of the above-mentioned factors in the filming of West Side Story  were combined to tell a hauntingly beautiful story, in a hauntingly beautiful way.",
                "Todd Haynes' film Carol, an evocative love story set in the 1950's, adapted from an edgy Patricia Highsmith novel, The Price of Salt, is nominated for five Academy Awards including Best Original Score, composed by Carter Burwell."
            ]
        },
        {
            "topic": "understand",
            "key": "2867619920ll",
            "score": 8695.1259765625,
            "appearances": 23279,
            "positive_appearances": 7929,
            "negative_appearances": 373,
            "documents": 8199,
            "positive_documents": 4900,
            "negative_documents": 307,
            "positive_score": 24439.125,
            "negative_score": -754.625,
            "positive_intensity": 100.0,
            "negative_intensity": 67.43743896484375,
            "query": "understand OR understanding OR understands",
            "brand": "",
            "first_seen": "2016-02-21T03:38:04Z",
            "last_seen": "2017-03-21T10:30:00Z",
            "breakout": "",
            "timeline": [
                27,
                8,
                9,
                3,
                4,
                5,
                20,
                23,
                8,
                100
            ],
            "sample_sentences": [
                "We understand that it’s not just about the tools;",
                "Keep pretending to laugh at memes you don’t really understand?",
                "It shows no understanding of the fact that nowadays, many ‘wars’ are actually fought in people’s own homes."
            ]
        },
        {
            "topic": "masterpiece",
            "key": "2226095321ll",
            "score": 8553.119140625,
            "appearances": 5521,
            "positive_appearances": 255,
            "negative_appearances": 102,
            "documents": 5193,
            "positive_documents": 2709,
            "negative_documents": 102,
            "positive_score": 750.125,
            "negative_score": -220.0,
            "positive_intensity": 98.05555725097656,
            "negative_intensity": 71.89542388916016,
            "query": "masterpiece OR masterpieces",
            "brand": "",
            "first_seen": "2016-02-21T05:00:00Z",
            "last_seen": "2017-03-17T13:44:48Z",
            "breakout": "",
            "timeline": [
                31,
                27,
                18,
                37,
                0,
                0,
                19,
                45,
                11,
                100
            ],
            "sample_sentences": [
                "Under the Skin was hailed as a masterpiece by many critics, and voted the best film of 2014 in several year-end rankings including the website.",
                "There was an incredible amount of care and detail that went into the costumes and sets of Beauty and the Beast. I got lost in the ornate details and would love to watch the movie again just to appreciate the visual masterpiece that it is.",
                "The dialogue and acting make this film the masterpiece it is, and I believe it is one of Tom Hank’s greatest performances."
            ]
        },
        {
            "topic": "cultural icon",
            "key": "3384817450ll",
            "score": 8379.1591796875,
            "appearances": 6777,
            "positive_appearances": 20,
            "negative_appearances": 2,
            "documents": 6757,
            "positive_documents": 3697,
            "negative_documents": 118,
            "positive_score": 38.0,
            "negative_score": -2.5,
            "positive_intensity": 63.33333206176758,
            "negative_intensity": 41.666664123535159,
            "query": "\"cultural icon\" OR \"cultural icons\" OR \"culture icon\"",
            "brand": "",
            "first_seen": "2016-02-21T03:58:18Z",
            "last_seen": "2017-03-20T23:00:49Z",
            "breakout": "",
            "timeline": [
                31,
                0,
                2,
                0,
                0,
                0,
                0,
                4,
                0,
                100
            ],
            "sample_sentences": [
                "sylvester stallone is like a cultural icon and he played not one but FOUR ridiculously dressed weirdos"
            ]
        },
        {
            "topic": "great",
            "key": "3227869240ll",
            "score": 8028.05126953125,
            "appearances": 11690,
            "positive_appearances": 7687,
            "negative_appearances": 178,
            "documents": 4763,
            "positive_documents": 4268,
            "negative_documents": 403,
            "positive_score": 29280.5,
            "negative_score": -359.625,
            "positive_intensity": 100.0,
            "negative_intensity": 67.34550476074219,
            "query": "great OR greatness OR greats",
            "brand": "",
            "first_seen": "2016-02-21T05:00:00Z",
            "last_seen": "2017-03-21T17:10:30Z",
            "breakout": "2017-03-14T04:00:37Z",
            "timeline": [
                20,
                15,
                22,
                12,
                5,
                14,
                32,
                40,
                22,
                100
            ],
            "sample_sentences": [
                "   In addition to being rather relevant even today despite its being fiction, West Side Story  is a true-blue work of art that, while it's enjoyable on TV, cries to be seen in a real movie theatre with the lights down low, on a great big, wide screen, as it's truly meant to be viewed.",
                "Today, Americans live in an economy dominated by business and commercial services, but they still doesn’t have a great protest novel or movie (or any other cultural work) about service workers.",
                "There has been a great deal of debate on the subject, but friends of Ron Woodroof, the fun-loving rodeo cowboy played by Matthew McConaughey in “Dallas Buyers Club,” claim he wasn’t the gay basher the movie makes him out to be."
            ]
        },
        {
            "topic": "steve buscemi",
            "key": "2255184507ll",
            "score": 7769.66015625,
            "appearances": 6762,
            "positive_appearances": 6739,
            "negative_appearances": 8,
            "documents": 6756,
            "positive_documents": 3697,
            "negative_documents": 117,
            "positive_score": 3409.0,
            "negative_score": -19.0,
            "positive_intensity": 16.86204719543457,
            "negative_intensity": 79.16667175292969,
            "query": "\"steve buscemi\" OR \"steve buscemis\"",
            "brand": "",
            "first_seen": "2016-02-21T03:58:18Z",
            "last_seen": "2017-03-20T23:00:49Z",
            "breakout": "",
            "timeline": [
                31,
                0,
                2,
                0,
                0,
                0,
                0,
                0,
                1,
                100
            ],
            "sample_sentences": [
                "steve buscemi is pretty goofy but still",
                "Did you pick Steve Buscemi for this part before you had settled on Peter Stormare to play the other bad guy?",
                "Besides McDormand, Fargo showcased serious acting talents in several career-defining roles, such as Steve Buscemi, William H. Macy, Peter Stormare and Harve Presnell."
            ]
        },
        {
            "topic": "pretty goofy",
            "key": "1501010199ll",
            "score": 7739.8330078125,
            "appearances": 6724,
            "positive_appearances": 6724,
            "negative_appearances": 0,
            "documents": 6724,
            "positive_documents": 3663,
            "negative_documents": 117,
            "positive_score": 3363.0,
            "negative_score": 0.0,
            "positive_intensity": 16.67162322998047,
            "negative_intensity": 0.0,
            "query": "\"pretty goofy\"",
            "brand": "",
            "first_seen": "2016-02-21T03:58:18Z",
            "last_seen": "2017-03-20T23:00:49Z",
            "breakout": "",
            "timeline": [
                31,
                0,
                0,
                0,
                0,
                0,
                0,
                0,
                0,
                100
            ],
            "sample_sentences": [
                "steve buscemi is pretty goofy but still"
            ]
        },
        {
            "topic": "roles",
            "key": "3190236901ll",
            "score": 7688.25341796875,
            "appearances": 21530,
            "positive_appearances": 2281,
            "negative_appearances": 762,
            "documents": 9824,
            "positive_documents": 6361,
            "negative_documents": 427,
            "positive_score": 5922.4375,
            "negative_score": -1397.125,
            "positive_intensity": 86.54737854003906,
            "negative_intensity": 61.116580963134769,
            "query": "roles OR role",
            "brand": "",
            "first_seen": "2016-02-21T05:00:00Z",
            "last_seen": "2017-03-21T17:10:30Z",
            "breakout": "2017-02-27T00:44:11Z",
            "timeline": [
                21,
                15,
                11,
                8,
                8,
                10,
                29,
                34,
                12,
                100
            ],
            "sample_sentences": [
                "Yet critics say the real test will be when the movie industry, like television, casts more actors of color in roles that are not defined by their race.",
                "What also made the film West Side Story  so hauntingly beautiful is the fact that the cast members, on the whole, were incredibly  believable in the roles that they played.",
                "To be sure, some of this year's crop of Oscar hopefuls have found success in color-blind roles."
            ]
        },
        {
            "topic": "changed",
            "key": "1281144427ll",
            "score": 7661.2314453125,
            "appearances": 16770,
            "positive_appearances": 1428,
            "negative_appearances": 506,
            "documents": 8105,
            "positive_documents": 4750,
            "negative_documents": 376,
            "positive_score": 3511.25,
            "negative_score": -875.0,
            "positive_intensity": 81.96194458007813,
            "negative_intensity": 57.641632080078128,
            "query": "changed OR change OR changes OR changing",
            "brand": "",
            "first_seen": "2016-02-21T03:38:04Z",
            "last_seen": "2017-03-21T17:10:30Z",
            "breakout": "2017-03-14T04:58:26Z",
            "timeline": [
                25,
                20,
                20,
                10,
                9,
                12,
                49,
                41,
                14,
                100
            ],
            "sample_sentences": [
                "he changed the world of animation with his lyrics, and that is an amazing thing to think about!",
                "In the past decade, the academy has done little to indicate that it has changed its stripes after the “Brokeback Mountain” fiasco.",
                "His diagnosis changed him,” Borten told Slate."
            ]
        }
    ]
}