{
    "status": "OK",
    "status_message": "OK",
    "query_meta": {
        "total_results": 3829,
        "linguistics_count": 0,
        "total_universe": 49857,
        "total_spammed": 412,
        "total_from_index": 3417,
        "sources_from_index": 1067,
        "total_sources_est": 1195,
        "sources_universe": 15568,
        "reach": 556568,
        "index_result_age": 0
    },
    "query_info": {
        "query": "bp | #bp",
        "query_within": "autos | #vehicles | #carsofinstagram | #cars | #car | #autoparts | #automotive | #automobile | #auto | ((warranty | transmission | synthetic | performance | oil | milleage | gear | gasoline | gas | fluid | filter | axle) (vehicle | truck | suv | motor | minivan | horsepower | engine | convertible | car | automotives | automobile | auto))",
        "source_query_exclude": false,
        "source_query": "",
        "start_date": "2017-04-09T00:00:00Z",
        "end_date": "2017-05-09T23:59:59Z",
        "influence": "",
        "watchlist_ids": "",
        "dictionary_ids": "",
        "source_ids": "",
        "languages": "",
        "linguistics_languages": "",
        "categories": "",
        "countries": "",
        "states": "",
        "gender": "",
        "age": "",
        "weekdays": "",
        "hours": "",
        "hour_min": 0,
        "hour_max": 24,
        "found_from": "1970-01-01T00:00:00Z",
        "found_to": "1970-01-01T00:00:00Z",
        "id_min": 0,
        "id_max": 0,
        "firehose_id": 0
    },
    "usage": {
        "monthly_reset": "2017-05-12T00:00:00Z",
        "monthly_used": 901,
        "monthly_limit": 1050,
        "hourly_used": 18
    },
    "output": [
        {
            "date": "2017-04-09T00:00:00Z",
            "posts_count": 46.0,
            "posts_universe": 736.0,
            "posts_normalized": 0.08820709491850432,
            "posts_word_normalized": 0.08820709491850432,
            "posts_normalized_div": 52150.0,
            "posts_word_div": 52150.0
        },
        {
            "date": "2017-04-10T00:00:00Z",
            "posts_count": 57.0,
            "posts_universe": 505.0,
            "posts_normalized": 0.08093716719914802,
            "posts_word_normalized": 0.08093716719914802,
            "posts_normalized_div": 70425.0,
            "posts_word_div": 70425.0
        },
        {
            "date": "2017-04-11T00:00:00Z",
            "posts_count": 52.0,
            "posts_universe": 417.0,
            "posts_normalized": 0.1299090636554412,
            "posts_word_normalized": 0.1299090636554412,
            "posts_normalized_div": 40028.0,
            "posts_word_div": 40028.0
        },
        {
            "date": "2017-04-12T00:00:00Z",
            "posts_count": 23.0,
            "posts_universe": 162.0,
            "posts_normalized": 0.05496606442978683,
            "posts_word_normalized": 0.05496606442978683,
            "posts_normalized_div": 41844.0,
            "posts_word_div": 41844.0
        },
        {
            "date": "2017-04-13T00:00:00Z",
            "posts_count": 183.0,
            "posts_universe": 3882.0,
            "posts_normalized": 0.32806869722665429,
            "posts_word_normalized": 0.32806869722665429,
            "posts_normalized_div": 55781.0,
            "posts_word_div": 55781.0
        },
        {
            "date": "2017-04-14T00:00:00Z",
            "posts_count": 104.0,
            "posts_universe": 802.0,
            "posts_normalized": 0.15552797260314944,
            "posts_word_normalized": 0.15552797260314944,
            "posts_normalized_div": 66869.0,
            "posts_word_div": 66869.0
        },
        {
            "date": "2017-04-15T00:00:00Z",
            "posts_count": 258.0,
            "posts_universe": 1695.0,
            "posts_normalized": 0.4338686622382914,
            "posts_word_normalized": 0.4338686622382914,
            "posts_normalized_div": 59465.0,
            "posts_word_div": 59465.0
        },
        {
            "date": "2017-04-16T00:00:00Z",
            "posts_count": 137.0,
            "posts_universe": 1531.0,
            "posts_normalized": 0.23082625690793907,
            "posts_word_normalized": 0.23082625690793907,
            "posts_normalized_div": 59352.0,
            "posts_word_div": 59352.0
        },
        {
            "date": "2017-04-17T00:00:00Z",
            "posts_count": 82.0,
            "posts_universe": 1296.0,
            "posts_normalized": 0.08762368831612917,
            "posts_word_normalized": 0.08762368831612917,
            "posts_normalized_div": 93582.0,
            "posts_word_div": 93582.0
        },
        {
            "date": "2017-04-18T00:00:00Z",
            "posts_count": 333.0,
            "posts_universe": 2157.0,
            "posts_normalized": 0.3786801915007335,
            "posts_word_normalized": 0.3786801915007335,
            "posts_normalized_div": 87937.0,
            "posts_word_div": 87937.0
        },
        {
            "date": "2017-04-19T00:00:00Z",
            "posts_count": 189.0,
            "posts_universe": 3584.0,
            "posts_normalized": 0.2012951050142717,
            "posts_word_normalized": 0.2012951050142717,
            "posts_normalized_div": 93892.0,
            "posts_word_div": 93892.0
        },
        {
            "date": "2017-04-20T00:00:00Z",
            "posts_count": 103.0,
            "posts_universe": 1635.0,
            "posts_normalized": 0.1086761556073731,
            "posts_word_normalized": 0.1086761556073731,
            "posts_normalized_div": 94777.0,
            "posts_word_div": 94777.0
        },
        {
            "date": "2017-04-21T00:00:00Z",
            "posts_count": 97.0,
            "posts_universe": 1053.0,
            "posts_normalized": 0.12204942372540138,
            "posts_word_normalized": 0.12204942372540138,
            "posts_normalized_div": 79476.0,
            "posts_word_div": 79476.0
        },
        {
            "date": "2017-04-22T00:00:00Z",
            "posts_count": 43.0,
            "posts_universe": 555.0,
            "posts_normalized": 0.06243284838981328,
            "posts_word_normalized": 0.06243284838981328,
            "posts_normalized_div": 68874.0,
            "posts_word_div": 68874.0
        },
        {
            "date": "2017-04-23T00:00:00Z",
            "posts_count": 60.0,
            "posts_universe": 756.0,
            "posts_normalized": 0.09980537950995559,
            "posts_word_normalized": 0.09980537950995559,
            "posts_normalized_div": 60117.0,
            "posts_word_div": 60117.0
        },
        {
            "date": "2017-04-24T00:00:00Z",
            "posts_count": 91.0,
            "posts_universe": 1078.0,
            "posts_normalized": 0.12912380276693864,
            "posts_word_normalized": 0.12912380276693864,
            "posts_normalized_div": 70475.0,
            "posts_word_div": 70475.0
        },
        {
            "date": "2017-04-25T00:00:00Z",
            "posts_count": 139.0,
            "posts_universe": 564.0,
            "posts_normalized": 0.1728124922296541,
            "posts_word_normalized": 0.1728124922296541,
            "posts_normalized_div": 80434.0,
            "posts_word_div": 80434.0
        },
        {
            "date": "2017-04-26T00:00:00Z",
            "posts_count": 333.0,
            "posts_universe": 7740.0,
            "posts_normalized": 0.46305953026573778,
            "posts_word_normalized": 0.46305953026573778,
            "posts_normalized_div": 71913.0,
            "posts_word_div": 71913.0
        },
        {
            "date": "2017-04-27T00:00:00Z",
            "posts_count": 114.0,
            "posts_universe": 2036.0,
            "posts_normalized": 0.11719834277431095,
            "posts_word_normalized": 0.11719834277431095,
            "posts_normalized_div": 97271.0,
            "posts_word_div": 97271.0
        },
        {
            "date": "2017-04-28T00:00:00Z",
            "posts_count": 120.0,
            "posts_universe": 1520.0,
            "posts_normalized": 0.11962914963612802,
            "posts_word_normalized": 0.11962914963612802,
            "posts_normalized_div": 100310.0,
            "posts_word_div": 100310.0
        },
        {
            "date": "2017-04-29T00:00:00Z",
            "posts_count": 104.0,
            "posts_universe": 1862.0,
            "posts_normalized": 0.14835525377307352,
            "posts_word_normalized": 0.14835525377307352,
            "posts_normalized_div": 70102.0,
            "posts_word_div": 70102.0
        },
        {
            "date": "2017-04-30T00:00:00Z",
            "posts_count": 113.0,
            "posts_universe": 1500.0,
            "posts_normalized": 0.21062441752096926,
            "posts_word_normalized": 0.21062441752096926,
            "posts_normalized_div": 53650.0,
            "posts_word_div": 53650.0
        },
        {
            "date": "2017-05-01T00:00:00Z",
            "posts_count": 158.0,
            "posts_universe": 1386.0,
            "posts_normalized": 0.24873272252133123,
            "posts_word_normalized": 0.24873272252133123,
            "posts_normalized_div": 63522.0,
            "posts_word_div": 63522.0
        },
        {
            "date": "2017-05-02T00:00:00Z",
            "posts_count": 186.0,
            "posts_universe": 2073.0,
            "posts_normalized": 0.26444494995450409,
            "posts_word_normalized": 0.26444494995450409,
            "posts_normalized_div": 70336.0,
            "posts_word_div": 70336.0
        },
        {
            "date": "2017-05-03T00:00:00Z",
            "posts_count": 138.0,
            "posts_universe": 930.0,
            "posts_normalized": 0.1943114615601239,
            "posts_word_normalized": 0.1943114615601239,
            "posts_normalized_div": 71020.0,
            "posts_word_div": 71020.0
        },
        {
            "date": "2017-05-04T00:00:00Z",
            "posts_count": 87.0,
            "posts_universe": 1258.0,
            "posts_normalized": 0.12052365449885712,
            "posts_word_normalized": 0.12052365449885712,
            "posts_normalized_div": 72185.0,
            "posts_word_div": 72185.0
        },
        {
            "date": "2017-05-05T00:00:00Z",
            "posts_count": 112.0,
            "posts_universe": 1406.0,
            "posts_normalized": 0.127138365136844,
            "posts_word_normalized": 0.127138365136844,
            "posts_normalized_div": 88093.0,
            "posts_word_div": 88093.0
        },
        {
            "date": "2017-05-06T00:00:00Z",
            "posts_count": 113.0,
            "posts_universe": 2599.0,
            "posts_normalized": 0.20440649759415364,
            "posts_word_normalized": 0.20440649759415364,
            "posts_normalized_div": 55282.0,
            "posts_word_div": 55282.0
        },
        {
            "date": "2017-05-07T00:00:00Z",
            "posts_count": 80.0,
            "posts_universe": 835.0,
            "posts_normalized": 0.14486455164421267,
            "posts_word_normalized": 0.14486455164421267,
            "posts_normalized_div": 55224.0,
            "posts_word_div": 55224.0
        },
        {
            "date": "2017-05-08T00:00:00Z",
            "posts_count": 74.0,
            "posts_universe": 992.0,
            "posts_normalized": 0.11140383891607075,
            "posts_word_normalized": 0.11140383891607075,
            "posts_normalized_div": 66425.0,
            "posts_word_div": 66425.0
        },
        {
            "date": "2017-05-09T00:00:00Z",
            "posts_count": 100.0,
            "posts_universe": 1312.0,
            "posts_normalized": 0.30895665338153058,
            "posts_word_normalized": 0.30895665338153058,
            "posts_normalized_div": 32367.0,
            "posts_word_div": 32367.0
        }
    ]
}
