{
  "IcoMoonType": "selection",
  "icons": [
    {
      "icon": {
        "paths": [
          "M558.080 512l440.32-440.32c10.24-10.24 10.24-25.6 0-46.080-10.24-10.24-25.6-10.24-46.080 0l-440.32 440.32-440.32-440.32c-10.24-10.24-25.6-10.24-46.080 0-10.24 10.24-10.24 25.6 0 46.080l440.32 440.32-440.32 440.32c-10.24 10.24-10.24 35.84 0 46.080s25.6 10.24 46.080 0l440.32-440.32 440.32 440.32c10.24 10.24 25.6 10.24 46.080 0 10.24-10.24 10.24-25.6 0-46.080l-440.32-440.32z"
        ],
        "attrs": [
          {}
        ],
        "isMulticolor": false,
        "isMulticolor2": false,
        "grid": 0,
        "tags": [
          "cancel"
        ],
        "colorPermutations": {
          "2371181571881622171": [
            {}
          ]
        }
      },
      "attrs": [
        {}
      ],
      "properties": {
        "order": 104,
        "id": 47,
        "name": "jwt-cancel",
        "prevSize": 32,
        "code": 59695
      },
      "setIdx": 0,
      "setId": 2,
      "iconIdx": 0
    },
    {
      "icon": {
        "paths": [
          "M901.12 46.080c-5.12-5.12-10.24-5.12-15.36-5.12s-10.24 0-15.36 5.12l-204.8 204.8-87.040-92.16c-10.24-10.24-15.36-10.24-25.6-10.24s-20.48 5.12-25.6 10.24c-10.24 10.24-10.24 15.36-10.24 25.6v276.48c0 10.24 5.12 20.48 10.24 25.6 10.24 10.24 15.36 10.24 25.6 10.24h276.48c10.24 0 20.48-5.12 25.6-10.24 10.24-10.24 10.24-15.36 10.24-25.6s-5.12-20.48-10.24-25.6l-87.040-87.040 204.8-204.8c5.12-5.12 5.12-10.24 5.12-15.36s0-10.24-5.12-15.36l-71.68-66.56z",
          "M496.64 532.48c-10.24-10.24-15.36-10.24-25.6-10.24h-276.48c-10.24 0-20.48 5.12-25.6 10.24-10.24 10.24-10.24 15.36-10.24 25.6s5.12 20.48 10.24 25.6l87.040 87.040-204.8 204.8c-5.12 5.12-5.12 10.24-5.12 15.36s0 10.24 5.12 15.36l71.68 71.68c5.12 5.12 10.24 5.12 15.36 5.12s10.24 0 15.36-5.12l204.8-204.8 81.92 92.16c10.24 10.24 15.36 10.24 25.6 10.24s20.48-5.12 25.6-10.24c10.24-10.24 10.24-15.36 10.24-25.6v-276.48c5.12-10.24 0-20.48-5.12-30.72z"
        ],
        "attrs": [
          {},
          {}
        ],
        "isMulticolor": false,
        "isMulticolor2": false,
        "colorPermutations": {
          "2371181571881622171": [
            {},
            {}
          ]
        },
        "tags": [
          "Contract-01"
        ],
        "grid": 0
      },
      "attrs": [
        {},
        {}
      ],
      "properties": {
        "order": 103,
        "id": 0,
        "name": "jwt-contract",
        "prevSize": 32,
        "code": 59694
      },
      "setIdx": 0,
      "setId": 2,
      "iconIdx": 1
    },
    {
      "icon": {
        "paths": [
          "M810.243 535.381c-33.492-104.011-74.991-155.976-103.895-181.234-13.353-11.715-35.191-10.513-47.288 2.342-6.472 6.895-9.714 15.927-9.127 25.45 2.656 42.926-2.758 66.847-7.188 77.831-1.693-2.915-3.639-6.902-5.625-12.213-8.547-22.822-13.462-64.3-13.462-113.794 0-99.335-30.952-194.519-87.163-268.015-16.766-21.92-35.601-41.076-55.985-56.907-13.585-10.554-34.195-8.745-45.848 3.761-6.479 6.97-9.673 16.063-8.984 25.62 4.424 61.037-0.942 224.338-146.125 422.025-143.64 200.124-87.702 357.123-67.133 400.452 33.608 70.984 82.514 123.918 145.381 157.355 4.963 2.621 10.493 4.021 16.002 4.021 12.411 0 23.866-6.861 29.894-17.906 6.021-11.032 5.53-23.982-1.304-34.611-29.273-45.568-55.146-120.040-12.165-216.112 44.558-99.622 79.49-172.571 101.383-217.068 15.305 41.39 41.288 99.574 81.394 154.501 34.98 47.903 109.247 170.817 43.581 277.572-6.56 10.677-6.847 23.538-0.758 34.4 8.738 15.619 29.191 21.989 45.268 13.783 75.441-38.584 167.492-118.832 177.582-281.648 3.031-40.646 0.58-108.223-28.433-199.605zM791.654 731.744c-6.048 97.423-44.79 171.547-115.343 220.897 31.143-85.545 8.486-188.621-65.249-289.587-65.932-90.296-91.334-193.468-91.58-194.492l-14.677-60.826-29.095 55.364c-0.492 0.935-49.63 94.72-128.505 271.080-39.281 87.805-30.351 161.034-8.158 215.409-34.557-27.539-62.723-64.068-84.050-109.083-17.77-37.465-65.761-173.623 62.689-352.584 134.56-183.214 155.962-341.081 156.058-422.407 8.902 8.806 17.367 18.452 25.32 28.856 49.958 65.324 77.462 150.337 77.462 239.384 0 55.733 5.844 102.018 16.459 130.335 15.012 40.093 35.929 48.503 50.838 48.503 0.007 0 0.007 0 0.014 0 7.598 0 18.842-2.342 29.293-13.449 14.923-15.879 23.34-45.766 24.494-85.798 20.111 25.17 45.52 67.447 67.721 136.397 26.692 84.105 29.054 145.231 26.31 181.999z"
        ],
        "attrs": [
          {}
        ],
        "isMulticolor": false,
        "isMulticolor2": false,
        "colorPermutations": {
          "2371181571881622171": [
            {}
          ]
        },
        "tags": [
          "google_hot_trend"
        ],
        "grid": 0
      },
      "attrs": [
        {}
      ],
      "properties": {
        "order": 102,
        "id": 1,
        "name": "jwt-google-hot-trend",
        "prevSize": 32,
        "code": 59693
      },
      "setIdx": 0,
      "setId": 2,
      "iconIdx": 2
    },
    {
      "icon": {
        "paths": [
          "M1013.76 10.24l-1003.52 1003.52h1003.52v-1003.52z"
        ],
        "attrs": [
          {}
        ],
        "isMulticolor": false,
        "isMulticolor2": false,
        "colorPermutations": {
          "2371181571881622171": [
            {}
          ]
        },
        "tags": [
          "img_111929"
        ],
        "grid": 0
      },
      "attrs": [
        {}
      ],
      "properties": {
        "order": 2,
        "id": 2,
        "name": "jwt-leftbottom-arrow",
        "prevSize": 32,
        "code": 59692
      },
      "setIdx": 0,
      "setId": 2,
      "iconIdx": 3
    },
    {
      "icon": {
        "paths": [
          "M925.696 106.496l-626.688 692.224-196.608-217.088c-20.48-24.576-57.344-24.576-81.92-4.096s-24.576 57.344-4.096 81.92l229.376 253.952c12.288 16.384 28.672 24.576 45.056 24.576 4.096 0 4.096 0 8.192 0 0 0 4.096 0 4.096 0 16.384 0 32.768-8.192 45.056-20.48l659.456-733.184c20.48-24.576 20.48-61.44-4.096-81.92-20.48-20.48-57.344-20.48-77.824 4.096v0zM925.696 106.496z"
        ],
        "attrs": [
          {}
        ],
        "isMulticolor": false,
        "isMulticolor2": false,
        "colorPermutations": {
          "2371181571881622171": [
            {}
          ]
        },
        "tags": [
          "Untitled-1"
        ],
        "grid": 0
      },
      "attrs": [
        {}
      ],
      "properties": {
        "order": 101,
        "id": 3,
        "name": "jwt-checkarrow",
        "prevSize": 32,
        "code": 59691
      },
      "setIdx": 0,
      "setId": 2,
      "iconIdx": 4
    },
    {
      "icon": {
        "paths": [
          "M957.44 112.64c-20.48-15.36-46.080-15.36-66.56 5.12l-163.84 179.2c-25.6-51.2-76.8-87.040-138.24-87.040h-409.6c-81.92 0-153.6 66.56-153.6 153.6v404.48c0 81.92 66.56 153.6 153.6 153.6h414.72c81.92 0 153.6-66.56 153.6-153.6v-353.28l215.040-240.64c15.36-15.36 15.36-46.080-5.12-61.44zM716.8 768c0 66.56-56.32 122.88-122.88 122.88h-414.72c-66.56 0-122.88-56.32-122.88-122.88v-409.6c0-66.56 56.32-122.88 122.88-122.88h414.72c56.32 0 97.28 35.84 117.76 81.92l-317.44 353.28-163.84-174.080c-15.36-20.48-46.080-20.48-66.56-5.12s-20.48 46.080-5.12 66.56l184.32 204.8c10.24 10.24 20.48 20.48 35.84 20.48 0 0 5.12 0 5.12 0s0 0 5.12 0c15.36 0 25.6-5.12 35.84-15.36l291.84-322.56v322.56z"
        ],
        "attrs": [
          {}
        ],
        "isMulticolor": false,
        "isMulticolor2": false,
        "colorPermutations": {
          "2371181571881622171": [
            {}
          ]
        },
        "tags": [
          "checkbox-01"
        ],
        "grid": 0
      },
      "attrs": [
        {}
      ],
      "properties": {
        "order": 99,
        "id": 4,
        "name": "jwt-checkedbox",
        "prevSize": 32,
        "code": 59689
      },
      "setIdx": 0,
      "setId": 2,
      "iconIdx": 5
    },
    {
      "icon": {
        "paths": [
          "M686.080 860.16h-399.36c-81.92 0-148.48-66.56-148.48-148.48v-399.36c0-81.92 66.56-148.48 148.48-148.48h399.36c81.92 0 143.36 66.56 143.36 148.48v399.36c0 81.92-61.44 148.48-143.36 148.48zM286.72 194.56c-66.56 0-122.88 56.32-122.88 122.88v399.36c0 66.56 56.32 122.88 122.88 122.88h399.36c66.56 0 117.76-56.32 117.76-122.88v-404.48c0-66.56-56.32-122.88-117.76-122.88h-399.36z"
        ],
        "attrs": [
          {}
        ],
        "isMulticolor": false,
        "isMulticolor2": false,
        "colorPermutations": {
          "2371181571881622171": [
            {}
          ]
        },
        "tags": [
          "checkbox-02"
        ],
        "grid": 0
      },
      "attrs": [
        {}
      ],
      "properties": {
        "order": 98,
        "id": 5,
        "name": "jwt-checkbox",
        "prevSize": 32,
        "code": 59690
      },
      "setIdx": 0,
      "setId": 2,
      "iconIdx": 6
    },
    {
      "icon": {
        "paths": [
          "M92.16 174.080c-6.144 0-12.288-2.048-18.432-4.096-18.432-12.288-26.624-34.816-14.336-55.296 26.624-47.104 69.632-100.352 174.080-108.544 22.528-2.048 40.96 14.336 43.008 36.864s-14.336 40.96-36.864 43.008c-61.44 4.096-88.064 28.672-110.592 67.584-8.192 12.288-22.528 20.48-36.864 20.48z",
          "M188.416 321.536c0-53.248 45.056-96.256 96.256-96.256 53.248 0 96.256 45.056 96.256 96.256 0 53.248-45.056 96.256-96.256 96.256-53.248 0-96.256-43.008-96.256-96.256v0z",
          "M833.536 321.536c0 53.248-45.056 96.256-96.256 96.256-53.248 0-96.256-45.056-96.256-96.256 0-53.248 45.056-96.256 96.256-96.256 51.2-2.048 96.256 43.008 96.256 96.256v0z",
          "M516.096 1001.472c-77.824 0-141.312-63.488-141.312-141.312s63.488-141.312 141.312-141.312c77.824 0 141.312 63.488 141.312 141.312s-63.488 141.312-141.312 141.312zM516.096 782.336c-43.008 0-77.824 34.816-77.824 77.824s34.816 77.824 77.824 77.824 77.824-34.816 77.824-77.824c0-43.008-34.816-77.824-77.824-77.824z",
          "M944.128 180.224c-14.336 0-26.624-8.192-34.816-20.48-20.48-38.912-47.104-63.488-110.592-67.584-22.528-2.048-38.912-20.48-36.864-43.008s20.48-38.912 43.008-36.864c104.448 6.144 147.456 61.44 174.080 108.544 10.24 18.432 4.096 43.008-16.384 53.248-6.144 6.144-12.288 6.144-18.432 6.144z"
        ],
        "attrs": [
          {},
          {},
          {},
          {},
          {}
        ],
        "isMulticolor": false,
        "isMulticolor2": false,
        "colorPermutations": {
          "2371181571881622171": [
            {},
            {},
            {},
            {},
            {}
          ]
        },
        "tags": [
          "Emoticons-02"
        ],
        "grid": 0
      },
      "attrs": [
        {},
        {},
        {},
        {},
        {}
      ],
      "properties": {
        "order": 97,
        "id": 6,
        "name": "jwt-emo-anticipation",
        "prevSize": 32,
        "code": 59681
      },
      "setIdx": 0,
      "setId": 2,
      "iconIdx": 7
    },
    {
      "icon": {
        "paths": [
          "M372.736 256c-22.528 0-40.96-14.336-47.104-36.864-14.336-57.344-53.248-92.16-102.4-92.16 0 0 0 0 0 0-43.008 0-92.16 28.672-106.496 92.16-6.144 26.624-32.768 40.96-57.344 34.816-26.624-6.144-40.96-32.768-34.816-57.344 24.576-98.304 104.448-163.84 200.704-165.888 0 0 0 0 0 0 94.208 0 169.984 65.536 194.56 163.84 6.144 26.624-10.24 51.2-34.816 59.392-6.144 0-10.24 2.048-12.288 2.048z",
          "M954.368 256c-22.528 0-40.96-14.336-47.104-36.864-14.336-57.344-53.248-92.16-102.4-92.16 0 0 0 0 0 0-43.008 0-92.16 28.672-106.496 92.16-6.144 26.624-32.768 40.96-57.344 34.816-26.624-6.144-40.96-32.768-34.816-57.344 24.576-98.304 104.448-163.84 200.704-165.888 0 0 0 0 0 0 94.208 0 169.984 65.536 194.56 163.84 6.144 26.624-10.24 51.2-34.816 59.392-4.096 0-8.192 2.048-12.288 2.048z",
          "M516.096 989.184c-215.040 0-432.128-143.36-432.128-417.792 0-26.624 22.528-49.152 49.152-49.152h759.808c26.624 0 49.152 22.528 49.152 49.152-2.048 286.72-221.184 417.792-425.984 417.792zM182.272 620.544c24.576 186.368 184.32 272.384 333.824 272.384 151.552 0 303.104-83.968 325.632-272.384h-659.456z"
        ],
        "attrs": [
          {},
          {},
          {}
        ],
        "isMulticolor": false,
        "isMulticolor2": false,
        "colorPermutations": {
          "2371181571881622171": [
            {},
            {},
            {}
          ]
        },
        "tags": [
          "Emoticons-03"
        ],
        "grid": 0
      },
      "attrs": [
        {},
        {},
        {}
      ],
      "properties": {
        "order": 96,
        "id": 7,
        "name": "jwt-emo-joy",
        "prevSize": 32,
        "code": 59682
      },
      "setIdx": 0,
      "setId": 2,
      "iconIdx": 8
    },
    {
      "icon": {
        "paths": [
          "M106.496 182.272c-4.096 0-10.24 0-14.336-2.048-18.432-8.192-28.672-28.672-20.48-49.152 30.72-75.776 102.4-116.736 192.512-110.592 20.48 2.048 36.864 20.48 34.816 40.96s-20.48 36.864-40.96 34.816c-57.344-4.096-98.304 18.432-118.784 63.488-4.096 14.336-18.432 22.528-32.768 22.528z",
          "M911.36 184.32c-12.288 0-26.624-6.144-32.768-20.48-26.624-47.104-71.68-73.728-116.736-67.584-20.48 2.048-38.912-12.288-43.008-32.768-2.048-20.48 12.288-38.912 32.768-43.008 77.824-10.24 151.552 30.72 192.512 106.496 10.24 18.432 4.096 40.96-14.336 51.2-6.144 4.096-12.288 6.144-18.432 6.144z",
          "M192.512 313.344c0-51.2 40.96-92.16 92.16-92.16s92.16 40.96 92.16 92.16c0 51.2-40.96 92.16-92.16 92.16s-92.16-43.008-92.16-92.16v0z",
          "M804.864 313.344c0 51.2-40.96 92.16-92.16 92.16s-92.16-40.96-92.16-92.16c0-51.2 40.96-92.16 92.16-92.16s92.16 40.96 92.16 92.16v0z",
          "M497.664 1003.52c-120.832 0-219.136-98.304-219.136-219.136s98.304-219.136 219.136-219.136 219.136 100.352 219.136 219.136-98.304 219.136-219.136 219.136zM497.664 641.024c-79.872 0-143.36 63.488-143.36 143.36s63.488 143.36 143.36 143.36c79.872 0 143.36-63.488 143.36-143.36 0-77.824-63.488-143.36-143.36-143.36z"
        ],
        "attrs": [
          {},
          {},
          {},
          {},
          {}
        ],
        "isMulticolor": false,
        "isMulticolor2": false,
        "colorPermutations": {
          "2371181571881622171": [
            {},
            {},
            {},
            {},
            {}
          ]
        },
        "tags": [
          "Emoticons-04"
        ],
        "grid": 0
      },
      "attrs": [
        {},
        {},
        {},
        {},
        {}
      ],
      "properties": {
        "order": 95,
        "id": 8,
        "name": "jwt-emo-surprise",
        "prevSize": 32,
        "code": 59683
      },
      "setIdx": 0,
      "setId": 2,
      "iconIdx": 9
    },
    {
      "icon": {
        "paths": [
          "M161.792 352.256c0-57.344 47.104-104.448 104.448-104.448s104.448 47.104 104.448 104.448c0 57.344-47.104 104.448-104.448 104.448-57.344 2.048-104.448-47.104-104.448-104.448v0z",
          "M651.264 352.256c0-57.344 47.104-104.448 104.448-104.448s104.448 47.104 104.448 104.448c0 57.344-47.104 104.448-104.448 104.448-47.104 2.048-104.448-47.104-104.448-104.448v0z",
          "M61.44 221.184c-16.384 0-30.72-8.192-38.912-24.576-10.24-20.48-2.048-47.104 20.48-57.344l149.504-73.728c20.48-10.24 47.104-2.048 57.344 20.48 10.24 20.48 2.048 47.104-20.48 57.344l-149.504 73.728c-4.096 4.096-12.288 4.096-18.432 4.096z",
          "M960.512 221.184c-6.144 0-12.288-2.048-18.432-4.096l-149.504-73.728c-20.48-10.24-30.72-36.864-20.48-57.344s36.864-30.72 57.344-20.48l149.504 73.728c20.48 10.24 30.72 36.864 20.48 57.344-8.192 16.384-22.528 24.576-38.912 24.576z",
          "M966.656 874.496c-133.12-120.832-217.088-100.352-329.728-22.528-40.96 28.672-75.776 43.008-110.592 40.96-34.816 0-69.632-12.288-110.592-40.96-112.64-79.872-196.608-98.304-329.728 22.528-18.432 16.384-18.432 43.008-2.048 61.44s43.008 18.432 61.44 2.048c96.256-90.112 137.216-75.776 223.232-16.384 55.296 38.912 106.496 57.344 157.696 57.344 0 0 2.048 0 2.048 0s2.048 0 2.048 0c51.2 0 104.448-18.432 157.696-57.344 83.968-59.392 124.928-73.728 223.232 16.384 18.432 16.384 45.056 14.336 61.44-2.048 12.288-18.432 12.288-45.056-6.144-61.44z"
        ],
        "attrs": [
          {},
          {},
          {},
          {},
          {}
        ],
        "isMulticolor": false,
        "isMulticolor2": false,
        "colorPermutations": {
          "2371181571881622171": [
            {},
            {},
            {},
            {},
            {}
          ]
        },
        "tags": [
          "Emoticons-05"
        ],
        "grid": 0
      },
      "attrs": [
        {},
        {},
        {},
        {},
        {}
      ],
      "properties": {
        "order": 94,
        "id": 9,
        "name": "jwt-emo-fear",
        "prevSize": 32,
        "code": 59684
      },
      "setIdx": 0,
      "setId": 2,
      "iconIdx": 10
    },
    {
      "icon": {
        "paths": [
          "M155.648 188.416c0-65.536 53.248-118.784 118.784-118.784s118.784 53.248 118.784 118.784c0 65.536-53.248 118.784-118.784 118.784-63.488 0-118.784-55.296-118.784-118.784v0z",
          "M706.56 188.416c0-65.536 53.248-118.784 118.784-118.784s118.784 53.248 118.784 118.784c0 65.536-53.248 118.784-118.784 118.784-53.248 0-118.784-55.296-118.784-118.784v0z",
          "M247.808 462.848l-12.288-14.336-6.144 10.24c2.048 0 2.048 0 4.096 0 6.144-2.048 10.24-0 14.336 4.096z",
          "M980.992 815.104c-65.536-157.696-212.992-249.856-389.12-249.856-71.68 0-137.216 16.384-194.56 45.056-47.104-83.968-108.544-165.888-126.976-188.416-16.384-20.48-47.104-18.432-63.488 0-30.72 38.912-184.32 239.616-184.32 346.112-2.048 118.784 94.208 215.040 215.040 215.040 57.344 0 112.64-22.528 153.6-63.488s63.488-96.256 63.488-153.6c0-18.432-6.144-40.96-14.336-65.536 45.056-22.528 98.304-34.816 151.552-34.816 129.024 0 249.856 73.728 296.96 186.368 10.24 28.672 36.864 36.864 65.536 28.672 26.624-10.24 36.864-38.912 26.624-65.536zM372.736 765.952c0 75.776-61.44 135.168-135.168 135.168-75.776 0-135.168-61.44-135.168-135.168 0-47.104 65.536-157.696 135.168-253.952 32.768 45.056 65.536 96.256 90.112 139.264 20.48 36.864 36.864 69.632 43.008 94.208 0 8.192 2.048 16.384 2.048 20.48zM233.472 456.704c-2.048 0-2.048 0-4.096 0l6.144-10.24 12.288 14.336c-4.096-2.048-8.192-4.096-14.336-4.096z"
        ],
        "attrs": [
          {},
          {},
          {},
          {}
        ],
        "isMulticolor": false,
        "isMulticolor2": false,
        "colorPermutations": {
          "2371181571881622171": [
            {},
            {},
            {},
            {}
          ]
        },
        "tags": [
          "Emoticons-06"
        ],
        "grid": 0
      },
      "attrs": [
        {},
        {},
        {},
        {}
      ],
      "properties": {
        "order": 93,
        "id": 10,
        "name": "jwt-emo-sadness",
        "prevSize": 32,
        "code": 59685
      },
      "setIdx": 0,
      "setId": 2,
      "iconIdx": 11
    },
    {
      "icon": {
        "paths": [
          "M917.504 933.888c10.24 28.672 0 55.296-28.672 65.536s-55.296 0-65.536-28.672c-45.056-110.592-167.936-186.368-299.008-186.368s-253.952 75.776-301.056 188.416c-10.24 18.432-28.672 28.672-47.104 28.672-10.24 0-10.24 0-18.432 0-28.672-10.24-36.864-36.864-28.672-65.536 65.536-149.504 215.040-253.952 393.216-253.952 180.224 0 329.728 92.16 395.264 251.904v0z",
          "M163.84 354.304c0-55.296 47.104-102.4 102.4-102.4s102.4 47.104 102.4 102.4c0 55.296-47.104 102.4-102.4 102.4-57.344 2.048-102.4-45.056-102.4-102.4v0z",
          "M641.024 354.304c0-55.296 47.104-102.4 102.4-102.4s102.4 47.104 102.4 102.4c0 55.296-47.104 102.4-102.4 102.4-45.056 2.048-102.4-45.056-102.4-102.4v0z",
          "M362.496 186.368c-8.192 0-16.384-2.048-22.528-6.144l-137.216-88.064c-20.48-12.288-26.624-38.912-12.288-57.344 12.288-18.432 38.912-24.576 57.344-12.288l137.216 88.064c18.432 12.288 24.576 36.864 12.288 57.344-8.192 12.288-20.48 18.432-34.816 18.432z",
          "M641.024 186.368c-14.336 0-26.624-6.144-34.816-18.432-12.288-20.48-6.144-45.056 12.288-57.344l137.216-88.064c18.432-12.288 45.056-6.144 57.344 12.288s6.144 45.056-12.288 57.344l-137.216 88.064c-6.144 4.096-14.336 6.144-22.528 6.144z"
        ],
        "attrs": [
          {},
          {},
          {},
          {},
          {}
        ],
        "isMulticolor": false,
        "isMulticolor2": false,
        "colorPermutations": {
          "2371181571881622171": [
            {},
            {},
            {},
            {},
            {}
          ]
        },
        "tags": [
          "Emoticons-07"
        ],
        "grid": 0
      },
      "attrs": [
        {},
        {},
        {},
        {},
        {}
      ],
      "properties": {
        "order": 92,
        "id": 11,
        "name": "jwt-emo-anger",
        "prevSize": 32,
        "code": 59686
      },
      "setIdx": 0,
      "setId": 2,
      "iconIdx": 12
    },
    {
      "icon": {
        "paths": [
          "M75.776 194.56c-14.336 0-28.672-8.192-36.864-22.528-10.24-20.48-2.048-45.056 18.432-55.296l147.456-71.68c20.48-10.24 45.056-2.048 55.296 18.432s2.048 45.056-18.432 55.296l-147.456 71.68c-4.096 4.096-12.288 4.096-18.432 4.096z",
          "M950.272 194.56c-6.144 0-12.288-2.048-18.432-4.096l-145.408-71.68c-20.48-10.24-28.672-34.816-18.432-55.296s34.816-28.672 55.296-18.432l145.408 71.68c20.48 10.24 28.672 34.816 18.432 55.296-6.144 14.336-22.528 22.528-36.864 22.528z",
          "M956.416 864.256c-129.024-118.784-210.944-98.304-321.536-22.528-38.912 28.672-73.728 40.96-108.544 40.96-32.768 0-67.584-12.288-108.544-40.96-108.544-75.776-192.512-96.256-321.536 22.528-14.336 14.336-14.336 40.96-0 57.344 16.384 16.384 40.96 18.432 59.392 2.048 94.208-86.016 135.168-73.728 217.088-14.336 53.248 36.864 104.448 55.296 153.6 55.296 0 0 2.048 0 2.048 0s2.048 0 2.048 0c49.152 0 100.352-18.432 153.6-55.296 81.92-57.344 120.832-71.68 217.088 14.336 16.384 16.384 43.008 14.336 59.392-2.048 14.336-16.384 12.288-43.008-4.096-57.344z",
          "M202.752 575.488c-12.288 0-22.528-6.144-28.672-16.384-8.192-16.384-4.096-36.864 12.288-45.056l161.792-92.16-153.6-114.688c-14.336-10.24-18.432-32.768-6.144-47.104 10.24-14.336 32.768-18.432 47.104-6.144l194.56 145.408c8.192 6.144 14.336 18.432 12.288 28.672 0 10.24-6.144 20.48-16.384 26.624l-206.848 118.784c-6.144 2.048-10.24 2.048-16.384 2.048z",
          "M841.728 567.296c-6.144 0-12.288-2.048-16.384-4.096l-204.8-118.784c-10.24-6.144-16.384-16.384-16.384-26.624s4.096-22.528 12.288-28.672l192.512-145.408c14.336-10.24 34.816-8.192 47.104 6.144 10.24 14.336 8.192 34.816-6.144 47.104l-153.6 114.688 161.792 92.16c16.384 8.192 20.48 28.672 12.288 45.056-6.144 12.288-16.384 18.432-28.672 18.432z"
        ],
        "attrs": [
          {},
          {},
          {},
          {},
          {}
        ],
        "isMulticolor": false,
        "isMulticolor2": false,
        "colorPermutations": {
          "2371181571881622171": [
            {},
            {},
            {},
            {},
            {}
          ]
        },
        "tags": [
          "Emoticons-08"
        ],
        "grid": 0
      },
      "attrs": [
        {},
        {},
        {},
        {},
        {}
      ],
      "properties": {
        "order": 91,
        "id": 12,
        "name": "jwt-emo-disgust",
        "prevSize": 32,
        "code": 59687
      },
      "setIdx": 0,
      "setId": 2,
      "iconIdx": 13
    },
    {
      "icon": {
        "paths": [
          "M963.55 675.151c-75.264 172.012-258.034 290.277-451.55 290.277-204.281 0-376.272-118.265-451.543-290.277-10.759-32.263 0-64.505 32.256-75.257 10.752 0 10.752 0 21.511 0 21.504 0 42.988 10.752 53.746 32.263 53.767 128.997 193.522 215.013 344.037 215.013 150.508 0 290.277-86.016 344.037-215.013 10.738-32.263 43.001-43.008 75.257-32.263 32.249 10.752 42.994 43.001 32.249 75.257v0z",
          "M347.785 274.903c-20.828 0-39.793-14.111-45.083-35.239-13.797-55.214-50.224-88.091-97.519-88.091-0.143 0-0.307 0-0.451 0-40.892 0.184-88.61 27.354-103.103 87.661-6.007 24.992-31.102 40.4-56.074 34.365-24.958-5.994-40.346-31.102-34.345-56.054 22.719-94.672 100.318-158.563 193.085-158.973 0.294 0 0.601 0 0.887 0 90.030 0 163.683 62.123 187.767 158.543 6.205 24.917-8.95 50.169-33.847 56.375-3.796 0.942-7.591 1.413-11.319 1.413z",
          "M967.537 302.653c-20.842 0-39.806-14.090-45.090-35.239-13.783-55.18-50.217-88.098-97.512-88.098-0.143 0-0.314 0-0.457 0-40.885 0.184-88.603 27.395-103.103 87.695-5.994 24.958-31.13 40.366-56.074 34.352-24.958-5.994-40.339-31.102-34.352-56.081 22.733-94.645 100.325-158.529 193.099-158.966 0.28 0 0.594 0 0.887 0 90.030 0 163.676 62.157 187.754 158.57 6.212 24.904-8.936 50.156-33.833 56.381-3.796 0.956-7.598 1.386-11.319 1.386z"
        ],
        "attrs": [
          {},
          {},
          {}
        ],
        "isMulticolor": false,
        "isMulticolor2": false,
        "colorPermutations": {
          "2371181571881622171": [
            {},
            {},
            {}
          ]
        },
        "tags": [
          "emotions_trust"
        ],
        "grid": 0
      },
      "attrs": [
        {},
        {},
        {}
      ],
      "properties": {
        "order": 90,
        "id": 13,
        "name": "jwt-emo-trust",
        "prevSize": 32,
        "code": 59688
      },
      "setIdx": 0,
      "setId": 2,
      "iconIdx": 14
    },
    {
      "icon": {
        "paths": [
          "M221.184 983.040l-98.304-98.304 425.984-421.888 425.984 421.888-102.4 98.304-323.584-323.584-327.68 323.584zM221.184 561.152l-98.304-98.304 425.984-421.888 425.984 421.888-98.304 98.304-323.584-323.584-331.776 323.584z"
        ],
        "attrs": [
          {}
        ],
        "isMulticolor": false,
        "isMulticolor2": false,
        "colorPermutations": {
          "2371181571881622171": [
            {}
          ]
        },
        "tags": [
          "arrow_up-01"
        ],
        "grid": 0
      },
      "attrs": [
        {}
      ],
      "properties": {
        "order": 35,
        "id": 14,
        "name": "jwt-uparrow-bdl",
        "prevSize": 32,
        "code": 59677
      },
      "setIdx": 0,
      "setId": 2,
      "iconIdx": 15
    },
    {
      "icon": {
        "paths": [
          "M831.488 40.96l98.304 98.304-421.888 421.888-425.984-421.888 98.304-98.304 323.584 323.584 327.68-323.584zM831.488 462.848l98.304 98.304-421.888 421.888-425.984-421.888 98.304-98.304 323.584 323.584 327.68-323.584z"
        ],
        "attrs": [
          {}
        ],
        "isMulticolor": false,
        "isMulticolor2": false,
        "colorPermutations": {
          "2371181571881622171": [
            {}
          ]
        },
        "tags": [
          "arrow-dbl-down"
        ],
        "grid": 0
      },
      "attrs": [
        {}
      ],
      "properties": {
        "order": 34,
        "id": 15,
        "name": "jwt-downarrow-dbl",
        "prevSize": 32,
        "code": 59678
      },
      "setIdx": 0,
      "setId": 2,
      "iconIdx": 16
    },
    {
      "icon": {
        "paths": [
          "M496.64 609.28c46.080 0 46.080-30.72 46.080-71.68v-240.64c0-40.96 0-71.68-46.080-71.68s-46.080 30.72-46.080 71.68v240.64c-5.12 40.96 0 71.68 46.080 71.68zM496.64 834.56c40.96 0 76.8-35.84 76.8-81.92s-35.84-81.92-76.8-81.92c-46.080 0-76.8 35.84-76.8 81.92-5.12 46.080 30.72 81.92 76.8 81.92zM512 5.12c-281.6 0-506.88 230.4-506.88 506.88 0 281.6 230.4 506.88 506.88 506.88 281.6 0 506.88-230.4 506.88-506.88 5.12-281.6-225.28-506.88-506.88-506.88zM512 911.36c-220.16 0-399.36-179.2-399.36-399.36s179.2-399.36 399.36-399.36 399.36 179.2 399.36 399.36-179.2 399.36-399.36 399.36z"
        ],
        "attrs": [
          {}
        ],
        "isMulticolor": false,
        "isMulticolor2": false,
        "colorPermutations": {
          "2371181571881622171": [
            {}
          ]
        },
        "tags": [
          "exclumetory"
        ],
        "grid": 0
      },
      "attrs": [
        {}
      ],
      "properties": {
        "order": 33,
        "id": 16,
        "name": "jwt-exclumetory",
        "prevSize": 32,
        "code": 59679
      },
      "setIdx": 0,
      "setId": 2,
      "iconIdx": 17
    },
    {
      "icon": {
        "paths": [
          "M983.040 557.056h-421.888v425.984h-94.208v-425.984h-425.984v-94.208h425.984v-421.888h94.208v425.984h421.888v90.112z"
        ],
        "attrs": [
          {}
        ],
        "isMulticolor": false,
        "isMulticolor2": false,
        "colorPermutations": {
          "2371181571881622171": [
            {}
          ]
        },
        "tags": [
          "plus"
        ],
        "grid": 0
      },
      "attrs": [
        {}
      ],
      "properties": {
        "order": 32,
        "id": 17,
        "name": "jwt-plus",
        "prevSize": 32,
        "code": 59680
      },
      "setIdx": 0,
      "setId": 2,
      "iconIdx": 18
    },
    {
      "icon": {
        "paths": [
          "M558.080 491.52l-15.36-5.12v-312.32h10.24c107.52 10.24 168.96 66.56 174.080 66.56 10.24 10.24 30.72 5.12 35.84-5.12 5.12-5.12 5.12-10.24 5.12-20.48 0-5.12-5.12-15.36-10.24-20.48s-81.92-66.56-209.92-76.8h-10.24v-61.44c0-15.36-10.24-25.6-25.6-25.6s-25.6 10.24-25.6 25.6v66.56h-10.24c-128 15.36-204.8 92.16-204.8 204.8 0 107.52 117.76 163.84 209.92 194.56h5.12v302.080h-10.24c-71.68-15.36-148.48-56.32-189.44-87.040-5.12-5.12-10.24-5.12-15.36-5.12-10.24 0-15.36 5.12-20.48 10.24s-5.12 15.36-5.12 20.48c0 5.12 5.12 15.36 10.24 20.48 46.080 35.84 138.24 87.040 225.28 97.28h10.24v87.040c0 15.36 10.24 25.6 25.6 25.6s25.6-10.24 25.6-25.6v-81.92h10.24c112.64-10.24 230.4-71.68 230.4-189.44 0-133.12-138.24-179.2-225.28-204.8zM486.4 465.92l-10.24-5.12c-66.56-25.6-148.48-66.56-148.48-133.12 0-81.92 56.32-138.24 148.48-148.48h10.24v286.72zM552.96 829.44h-10.24v-286.72l10.24 5.12c92.16 30.72 174.080 61.44 174.080 148.48-0 81.92-92.16 128-174.080 133.12z"
        ],
        "attrs": [
          {}
        ],
        "isMulticolor": false,
        "isMulticolor2": false,
        "colorPermutations": {
          "2371181571881622171": [
            {}
          ]
        },
        "tags": [
          "disposable-Income"
        ],
        "grid": 0
      },
      "attrs": [
        {}
      ],
      "properties": {
        "order": 76,
        "id": 18,
        "name": "jwt-doller",
        "prevSize": 32,
        "code": 59670
      },
      "setIdx": 0,
      "setId": 2,
      "iconIdx": 19
    },
    {
      "icon": {
        "paths": [
          "M586.24 144.384c0 40.96-32.768 74.24-72.704 74.24-40.448 0-72.704-33.28-72.704-74.24s32.768-74.24 72.704-74.24c39.936-0.512 72.704 32.768 72.704 74.24v0zM586.24 144.384z",
          "M675.84 422.912c6.656-27.648-31.232-141.824-31.232-141.824-4.096-10.752-24.064-43.52-80.384-44.032l-110.080 0.512c-54.272-3.072-74.752 28.16-79.36 44.544 0 0-36.864 114.688-30.72 140.8 4.608 16.896 34.816 37.888 66.56 53.248l-67.072 204.288 97.792-0.512 0.512 247.808c1.536 18.944 15.36 26.112 31.232 26.112 16.384 0 29.696-6.144 31.232-25.6h10.24c2.048 18.944 14.848 26.112 31.232 26.112s29.696-7.168 31.744-26.112v-247.808h104.448l-63.488-208.384c28.672-15.36 53.76-33.792 57.344-49.152v0zM675.84 422.912z"
        ],
        "attrs": [
          {
            "fill": "rgb(237, 118, 157)"
          },
          {
            "fill": "rgb(237, 118, 157)"
          }
        ],
        "isMulticolor": false,
        "isMulticolor2": false,
        "colorPermutations": {
          "2371181571881622171": [
            {
              "f": 1
            },
            {
              "f": 1
            }
          ]
        },
        "tags": [
          "genderFemale"
        ],
        "grid": 0
      },
      "attrs": [
        {
          "fill": "rgb(237, 118, 157)"
        },
        {
          "fill": "rgb(237, 118, 157)"
        }
      ],
      "properties": {
        "order": 75,
        "id": 19,
        "name": "jwt-gender-female",
        "prevSize": 32,
        "code": 59671
      },
      "setIdx": 0,
      "setId": 2,
      "iconIdx": 20
    },
    {
      "icon": {
        "paths": [
          "M511.488 217.6c40.96 0 74.24-33.28 74.24-74.752 0-40.96-33.28-74.752-74.24-74.752s-74.752 33.28-74.752 74.752c-0 41.472 33.792 74.752 74.752 74.752v0zM511.488 217.6z",
          "M671.232 316.416c0 0 4.096-83.456-83.456-83.456h-152.576c-84.992 0-83.968 76.8-84.48 83.456v236.544c1.536 12.8 13.824 27.136 29.696 27.136 15.36 0 27.136-13.824 28.16-26.624l26.624 376.32c2.048 18.944 15.36 26.112 32.256 26.112 16.384 0 30.208-7.168 32.256-26.112h23.552c2.048 18.944 15.36 26.112 32.256 26.112s30.208-7.168 32.256-26.112l26.624-376.832c0 12.8 12.288 27.136 28.16 27.136 15.36 0 28.16-14.336 29.184-27.136l-0.512-236.544zM671.232 316.416z"
        ],
        "attrs": [
          {
            "fill": "rgb(88, 162, 217)"
          },
          {
            "fill": "rgb(88, 162, 217)"
          }
        ],
        "isMulticolor": false,
        "isMulticolor2": false,
        "colorPermutations": {
          "2371181571881622171": [
            {
              "f": 0
            },
            {
              "f": 0
            }
          ]
        },
        "tags": [
          "genderMale"
        ],
        "grid": 0
      },
      "attrs": [
        {
          "fill": "rgb(88, 162, 217)"
        },
        {
          "fill": "rgb(88, 162, 217)"
        }
      ],
      "properties": {
        "order": 74,
        "id": 20,
        "name": "jwt-gender-male",
        "prevSize": 32,
        "code": 59672
      },
      "setIdx": 0,
      "setId": 2,
      "iconIdx": 21
    },
    {
      "icon": {
        "paths": [
          "M1003.52 389.12l-486.4-240.64c-5.12 0-10.24 0-10.24 0l-486.4 240.64c-5.12 0-5.12 5.12-5.12 10.24s-0 10.24 5.12 10.24l163.84 81.92v163.84c0 97.28 143.36 168.96 327.68 168.96s327.68-76.8 327.68-168.96v-163.84l71.68-30.72v174.080h-5.12c-25.6 10.24-40.96 30.72-40.96 56.32 0 20.48 15.36 40.96 30.72 51.2l5.12 5.12-46.080 122.88c0 5.12 0 10.24 0 10.24 0 5.12 5.12 5.12 10.24 5.12h107.52c5.12 0 10.24 0 10.24-5.12s5.12-10.24 0-10.24l-46.080-122.88 5.12-5.12c20.48-10.24 30.72-30.72 30.72-51.2 0-25.6-15.36-46.080-40.96-56.32h-5.12v-189.44l76.8-35.84c5.12 0 5.12-5.12 5.12-10.24s-0-10.24-5.12-10.24zM814.080 660.48c0 35.84-30.72 71.68-81.92 97.28-56.32 30.72-133.12 46.080-215.040 46.080s-158.72-15.36-215.040-46.080c-51.2-25.6-81.92-61.44-81.92-97.28v-153.6l291.84 148.48c5.12 0 10.24 0 10.24 0l291.84-148.48v153.6zM957.44 860.16h-66.56l30.72-92.16 35.84 92.16zM952.32 686.080c0 15.36-15.36 30.72-30.72 30.72s-30.72-15.36-30.72-30.72c0-15.36 15.36-30.72 30.72-30.72v0c20.48 0 30.72 15.36 30.72 30.72zM921.6 424.96l-409.6-35.84c-10.24 0-15.36 5.12-15.36 10.24s0 5.12 5.12 10.24c0 0 5.12 5.12 10.24 5.12l363.52 30.72-363.52 179.2-455.68-225.28 455.68-225.28 455.68 225.28-46.080 25.6z"
        ],
        "attrs": [
          {}
        ],
        "isMulticolor": false,
        "isMulticolor2": false,
        "colorPermutations": {
          "2371181571881622171": [
            {}
          ]
        },
        "tags": [
          "heigher-Education"
        ],
        "grid": 0
      },
      "attrs": [
        {}
      ],
      "properties": {
        "order": 73,
        "id": 21,
        "name": "jwt-education",
        "prevSize": 32,
        "code": 59673
      },
      "setIdx": 0,
      "setId": 2,
      "iconIdx": 22
    },
    {
      "icon": {
        "paths": [
          "M1003.52 757.76h-983.040c-5.12 0-15.36-5.12-15.36-15.36v-563.2c0-5.12 5.12-15.36 15.36-15.36h983.040c5.12 0 15.36 5.12 15.36 15.36v563.2c0 10.24-5.12 15.36-15.36 15.36v0zM35.84 732.16h957.44v-537.6h-957.44v537.6zM35.84 732.16z",
          "M517.12 604.16c-35.84 0-87.040-25.6-107.52-40.96-5.12-5.12-5.12-15.36 0-20.48s15.36-5.12 20.48 0c15.36 15.36 56.32 35.84 87.040 35.84s71.68-15.36 71.68-46.080c0-30.72-30.72-40.96-66.56-51.2l-10.24-10.24c-30.72-5.12-92.16-30.72-92.16-76.8s35.84-81.92 92.16-81.92c56.32 0 92.16 30.72 92.16 30.72 10.24 5.12 10.24 10.24 5.12 15.36s-15.36 5.12-20.48 0c0 0-30.72-25.6-76.8-25.6-40.96 0-66.56 20.48-66.56 51.2 0 25.6 35.84 40.96 71.68 56.32l10.24 5.12c35.84 15.36 87.040 30.72 87.040 87.040 0 51.2-56.32 71.68-97.28 71.68v0zM517.12 604.16z",
          "M512 645.12c-10.24 0-15.36-5.12-15.36-15.36v-337.92c0-5.12 5.12-15.36 15.36-15.36 5.12 0 15.36 5.12 15.36 15.36v343.040c0 5.12-5.12 10.24-15.36 10.24v0zM512 645.12z"
        ],
        "attrs": [
          {},
          {},
          {}
        ],
        "isMulticolor": false,
        "isMulticolor2": false,
        "colorPermutations": {
          "2371181571881622171": [
            {},
            {},
            {}
          ]
        },
        "tags": [
          "household-Income"
        ],
        "grid": 0
      },
      "attrs": [
        {},
        {},
        {}
      ],
      "properties": {
        "order": 72,
        "id": 22,
        "name": "jwt-doller-border",
        "prevSize": 32,
        "code": 59674
      },
      "setIdx": 0,
      "setId": 2,
      "iconIdx": 23
    },
    {
      "icon": {
        "paths": [
          "M409.6 240.64c51.2 0 97.28-51.2 97.28-112.64 0-66.56-46.080-117.76-97.28-117.76s-97.28 51.2-97.28 112.64 40.96 117.76 97.28 117.76v0zM409.6 40.96c35.84 0 66.56 35.84 66.56 81.92s-30.72 81.92-66.56 81.92c-35.84 0-66.56-35.84-66.56-81.92s30.72-81.92 66.56-81.92v0zM409.6 40.96z",
          "M650.24 286.72c51.2 0 97.28-51.2 97.28-112.64s-40.96-112.64-97.28-112.64c-51.2 0-97.28 51.2-97.28 112.64 5.12 61.44 46.080 112.64 97.28 112.64v0zM650.24 87.040c35.84 0 66.56 35.84 66.56 81.92s-30.72 81.92-66.56 81.92-66.56-35.84-66.56-81.92c5.12-46.080 35.84-81.92 66.56-81.92v0zM650.24 87.040z",
          "M844.8 394.24c-5.12-46.080-35.84-56.32-66.56-61.44-25.6-10.24-61.44-15.36-112.64-20.48 0 0-5.12 0-5.12 0s0 0-5.12 0c0 0 0 0-5.12 0 0 0-5.12 0-5.12 0-15.36 0-35.84 0-51.2 5.12-15.36-20.48-35.84-25.6-61.44-35.84-30.72-10.24-81.92-15.36-122.88-15.36 0 0 0 0 0 0s0 0 0 0c-40.96 0-92.16 5.12-128 15.36s-66.56 20.48-71.68 66.56c-5.12 20.48-5.12 117.76 0 174.080v15.36c5.12 51.2 5.12 87.040 25.6 107.52 15.36 15.36 35.84 20.48 51.2 25.6 15.36 97.28 30.72 199.68 40.96 291.84 0 46.080 51.2 46.080 76.8 51.2v0c0 0 0 0 0 0s0 0 0 0v0c15.36 0 40.96-5.12 61.44-15.36 10.24 10.24 30.72 15.36 40.96 15.36 5.12 0 5.12 0 5.12 0s5.12 0 10.24 0c15.36 0 30.72 0 40.96-15.36 10.24 10.24 30.72 15.36 66.56 15.36 0 0 0 0 5.12 0v0c30.72 0 76.8 0 81.92-40.96 0 0 0 0 0 0 10.24-76.8 25.6-168.96 35.84-256 15.36-5.12 35.84-10.24 51.2-25.6 15.36-20.48 20.48-56.32 25.6-107.52v-15.36c15.36-56.32 15.36-153.6 15.36-174.080v0zM522.24 977.92c0 0 0 0 0 0s0 0 0 0c-15.36 0-25.6 0-25.6 0-10.24-35.84-15.36-87.040-20.48-128-5.12-15.36-5.12-35.84-10.24-46.080 0-10.24-10.24-15.36-20.48-15.36s-15.36 10.24-15.36 20.48l5.12 25.6c0 0-5.12 0-5.12-5.12-5.12-5.12-5.12-20.48-10.24-35.84v-5.12c-5.12-25.6-5.12-71.68 0-76.8 0-5.12 0-5.12 25.6-10.24 15.36-5.12 46.080-5.12 76.8-5.12 35.84 0 61.44 5.12 76.8 5.12 20.48 5.12 25.6 5.12 25.6 10.24 0 10.24 0 51.2-5.12 76.8v5.12c0 15.36-5.12 30.72-10.24 35.84 0 0-5.12 5.12-5.12 5.12l5.12-25.6c0-10.24-5.12-15.36-15.36-20.48-10.24 0-15.36 5.12-20.48 15.36-5.12 15.36-5.12 30.72-10.24 46.080-5.12 40.96-15.36 87.040-25.6 128 10.24 0 0 0-15.36 0v0zM808.96 563.2v15.36c-5.12 46.080-5.12 76.8-15.36 87.040-5.12 5.12-15.36 10.24-20.48 15.36l10.24-81.92c0-10.24-5.12-15.36-15.36-15.36s-15.36 5.12-15.36 15.36c-5.12 30.72-10.24 66.56-10.24 102.4-10.24 87.040-20.48 189.44-35.84 271.36-5.12 15.36-30.72 15.36-51.2 15.36v0c-46.080 0-51.2-5.12-61.44-20.48 0 0 0 0 0 0 5.12-30.72 10.24-61.44 15.36-92.16 10.24 0 20.48-5.12 30.72-15.36 15.36-10.24 15.36-30.72 20.48-56.32v-5.12c5.12-25.6 5.12-71.68 0-87.040-5.12-25.6-25.6-30.72-51.2-35.84-20.48-5.12-46.080-5.12-81.92-10.24 0 0 0 0 0 0s0 0 0 0c-35.84 0-66.56 5.12-81.92 10.24-20.48 5.12-46.080 10.24-51.2 35.84 0 15.36 0 61.44 0 87.040v5.12c5.12 25.6 5.12 46.080 20.48 56.32 10.24 10.24 20.48 10.24 30.72 15.36 5.12 30.72 10.24 61.44 15.36 92.16 0 15.36-20.48 15.36-51.2 20.48v0c-35.84 0-46.080-5.12-46.080-20.48 0 0 0 0 0 0-15.36-92.16-25.6-199.68-35.84-296.96-5.12-40.96-10.24-76.8-15.36-112.64 0-10.24-10.24-15.36-15.36-15.36-10.24 0-15.36 10.24-15.36 15.36l10.24 81.92c-10.24-5.12-20.48-5.12-25.6-15.36-10.24-10.24-15.36-40.96-15.36-87.040v-15.36c-10.24-61.44-15.36-153.6-10.24-174.080s10.24-25.6 46.080-35.84c25.6-5.12 71.68-10.24 122.88-15.36 51.2 0 97.28 5.12 122.88 15.36 10.24 5.12 20.48 5.12 25.6 10.24-10.24 0-20.48 5.12-25.6 5.12-35.84 10.24-66.56 20.48-71.68 66.56 0 10.24 0 30.72 0 51.2-20.48 20.48-35.84 51.2-35.84 87.040 0 61.44 40.96 112.64 97.28 112.64 51.2 0 97.28-51.2 97.28-112.64s-40.96-112.64-97.28-112.64c-10.24 0-20.48 0-30.72 5.12 0-10.24 0-20.48 0-25.6 0-20.48 10.24-25.6 46.080-35.84 25.6-5.12 66.56-10.24 117.76-15.36 46.080 0 87.040 5.12 107.52 15.36 30.72 10.24 40.96 15.36 40.96 35.84 10.24 15.36 10.24 107.52 5.12 163.84v0zM522.24 445.44c35.84 0 66.56 35.84 66.56 81.92s-30.72 81.92-66.56 81.92c-35.84 5.12-61.44-30.72-61.44-76.8s25.6-87.040 61.44-87.040v0zM522.24 445.44z"
        ],
        "attrs": [
          {},
          {},
          {}
        ],
        "isMulticolor": false,
        "isMulticolor2": false,
        "colorPermutations": {
          "2371181571881622171": [
            {},
            {},
            {}
          ]
        },
        "tags": [
          "household-Size"
        ],
        "grid": 0
      },
      "attrs": [
        {},
        {},
        {}
      ],
      "properties": {
        "order": 71,
        "id": 23,
        "name": "jwt-family",
        "prevSize": 32,
        "code": 59675
      },
      "setIdx": 0,
      "setId": 2,
      "iconIdx": 24
    },
    {
      "icon": {
        "paths": [
          "M494.933 157.013c-194.56 0-351.573 160.427-351.573 354.987s157.013 354.987 351.573 354.987 354.987-160.427 354.987-354.987c0-194.56-160.427-354.987-354.987-354.987zM344.747 563.2c-27.307 0-51.2-23.893-51.2-51.2 0-30.72 23.893-51.2 51.2-51.2s51.2 23.893 51.2 51.2c0 30.72-23.893 51.2-51.2 51.2zM494.933 563.2c-27.307 0-51.2-23.893-51.2-51.2 0-30.72 23.893-51.2 51.2-51.2s51.2 23.893 51.2 51.2c0 30.72-23.893 51.2-51.2 51.2zM645.12 563.2c-27.307 0-51.2-23.893-51.2-51.2 0-30.72 23.893-51.2 51.2-51.2s51.2 23.893 51.2 51.2c0 30.72-20.48 51.2-51.2 51.2z",
          "M969.387 952.32c0 0-102.4-54.613-95.573-160.427 58.027-81.92 92.16-177.493 92.16-279.893 0-262.827-211.627-474.453-471.040-474.453-262.827 0-474.453 211.627-474.453 474.453s211.627 474.453 471.040 474.453c85.333 0 170.667-23.893 242.347-68.267 61.44 58.027 126.293 71.68 174.080 71.68 30.72 0 54.613-6.827 54.613-6.827l37.547-10.24-30.72-20.48zM750.933 884.053l-10.24-10.24-10.24 6.827c-71.68 44.373-153.6 68.267-235.52 68.267-245.76 3.413-440.32-194.56-440.32-436.907 0-245.76 194.56-443.733 436.907-443.733s440.32 197.973 440.32 443.733c0 95.573-30.72 187.733-85.333 262.827l-3.413 3.413v3.413c-6.827 85.333 40.96 143.36 75.093 174.080-40.96 0-109.227-6.827-167.253-71.68z"
        ],
        "attrs": [
          {},
          {}
        ],
        "isMulticolor": false,
        "isMulticolor2": false,
        "colorPermutations": {
          "2371181571881622171": [
            {},
            {}
          ]
        },
        "tags": [
          "lang-English"
        ],
        "grid": 0
      },
      "attrs": [
        {},
        {}
      ],
      "properties": {
        "order": 70,
        "id": 24,
        "name": "jwt-lang-others",
        "prevSize": 32,
        "code": 59676
      },
      "setIdx": 0,
      "setId": 2,
      "iconIdx": 25
    },
    {
      "icon": {
        "paths": [
          "M424.96 527.36c-5.12-5.12-10.24-5.12-15.36-5.12s-10.24 0-15.36 5.12l-204.8 204.8-87.040-92.16c-10.24-10.24-15.36-10.24-25.6-10.24s-20.48 5.12-25.6 10.24c-10.24 10.24-10.24 15.36-10.24 25.6v276.48c0 10.24 5.12 20.48 10.24 25.6 10.24 10.24 15.36 10.24 25.6 10.24h276.48c10.24 0 20.48-5.12 25.6-10.24 10.24-10.24 10.24-15.36 10.24-25.6s-5.12-20.48-10.24-25.6l-87.040-87.040 204.8-204.8c5.12-5.12 5.12-10.24 5.12-15.36s0-10.24-5.12-15.36l-71.68-66.56zM977.92 46.080c-10.24-10.24-15.36-10.24-25.6-10.24h-276.48c-10.24 0-20.48 5.12-25.6 10.24-10.24 10.24-10.24 15.36-10.24 25.6s5.12 20.48 10.24 25.6l87.040 87.040-204.8 204.8c-5.12 5.12-5.12 10.24-5.12 15.36s0 10.24 5.12 15.36l71.68 71.68c5.12 5.12 10.24 5.12 15.36 5.12s10.24 0 15.36-5.12l204.8-204.8 81.92 92.16c10.24 10.24 15.36 10.24 25.6 10.24s20.48-5.12 25.6-10.24c10.24-10.24 10.24-15.36 10.24-25.6v-276.48c5.12-10.24 0-20.48-5.12-30.72z"
        ],
        "attrs": [
          {}
        ],
        "isMulticolor": false,
        "isMulticolor2": false,
        "colorPermutations": {
          "2371181571881622171": [
            {}
          ]
        },
        "tags": [
          "expand-01"
        ],
        "grid": 0
      },
      "attrs": [
        {}
      ],
      "properties": {
        "order": 31,
        "id": 25,
        "name": "jwt-resize",
        "prevSize": 32,
        "code": 59669
      },
      "setIdx": 0,
      "setId": 2,
      "iconIdx": 26
    },
    {
      "icon": {
        "paths": [
          "M117.76 363.52c0 15.36 5.12 25.6 15.36 35.84l358.4 358.4c20.48 20.48 51.2 20.48 71.68 0l358.4-358.4c20.48-20.48 20.48-51.2 0-71.68s-51.2-20.48-71.68 0l-322.56 322.56-322.56-322.56c-20.48-20.48-51.2-20.48-71.68 0-10.24 10.24-15.36 25.6-15.36 35.84z"
        ],
        "attrs": [
          {}
        ],
        "isMulticolor": false,
        "isMulticolor2": false,
        "colorPermutations": {
          "2371181571881622171": [
            {}
          ]
        },
        "tags": [
          "arrow-down"
        ],
        "grid": 0
      },
      "attrs": [
        {}
      ],
      "properties": {
        "order": 30,
        "id": 26,
        "name": "jwt-arrow-down",
        "prevSize": 32,
        "code": 59664
      },
      "setIdx": 0,
      "setId": 2,
      "iconIdx": 27
    },
    {
      "icon": {
        "paths": [
          "M496.64 450.56c-46.080 0-46.080 30.72-46.080 71.68v240.64c0 40.96 0 71.68 46.080 71.68s46.080-30.72 46.080-71.68v-240.64c5.12-40.96 0-71.68-46.080-71.68zM496.64 225.28c-40.96 0-76.8 35.84-76.8 81.92s35.84 81.92 76.8 81.92c46.080 0 76.8-35.84 76.8-81.92 5.12-46.080-30.72-81.92-76.8-81.92zM512 5.12c-281.6 0-506.88 230.4-506.88 506.88 0 281.6 230.4 506.88 506.88 506.88 281.6 0 506.88-230.4 506.88-506.88 5.12-281.6-225.28-506.88-506.88-506.88zM512 911.36c-220.16 0-399.36-179.2-399.36-399.36s179.2-399.36 399.36-399.36c220.16 0 399.36 179.2 399.36 399.36s-179.2 399.36-399.36 399.36z"
        ],
        "attrs": [
          {}
        ],
        "isMulticolor": false,
        "isMulticolor2": false,
        "colorPermutations": {
          "2371181571881622171": [
            {}
          ]
        },
        "tags": [
          "info"
        ],
        "grid": 0
      },
      "attrs": [
        {}
      ],
      "properties": {
        "order": 26,
        "id": 27,
        "name": "jwt-info",
        "prevSize": 32,
        "code": 59665
      },
      "setIdx": 0,
      "setId": 2,
      "iconIdx": 28
    },
    {
      "icon": {
        "paths": [
          "M983.040 921.6l-250.88-250.88c56.32-66.56 87.040-153.6 87.040-245.76 0-220.16-179.2-394.24-394.24-394.24-220.16-0-394.24 174.080-394.24 394.24s174.080 394.24 394.24 394.24c92.16 0 179.2-30.72 245.76-87.040l250.88 250.88c10.24 10.24 20.48 15.36 30.72 15.36s20.48-5.12 30.72-15.36 20.48-46.080-0-61.44zM424.96 732.16c-168.96 0-307.2-138.24-307.2-307.2s138.24-307.2 307.2-307.2c168.96 0 307.2 138.24 307.2 307.2s-138.24 307.2-307.2 307.2z"
        ],
        "attrs": [
          {}
        ],
        "isMulticolor": false,
        "isMulticolor2": false,
        "colorPermutations": {
          "2371181571881622171": [
            {}
          ]
        },
        "tags": [
          "search"
        ],
        "grid": 0
      },
      "attrs": [
        {}
      ],
      "properties": {
        "order": 27,
        "id": 28,
        "name": "jwt-search",
        "prevSize": 32,
        "code": 59666
      },
      "setIdx": 0,
      "setId": 2,
      "iconIdx": 29
    },
    {
      "icon": {
        "paths": [
          "M865.28 158.72c-194.56-194.56-512-194.56-706.56 0s-194.56 512 0 706.56c194.56 194.56 512 194.56 706.56 0s194.56-512 0-706.56zM808.96 808.96c-163.84 163.84-430.080 163.84-593.92 0s-163.84-430.080-0-593.92c163.84-163.84 430.080-163.84 593.92 0s163.84 430.080 0 593.92z",
          "M737.28 711.68c5.12 15.36 0 30.72-15.36 35.84s-30.72 0-35.84-15.36c-25.6-61.44-92.16-102.4-163.84-102.4s-138.24 40.96-163.84 102.4c-5.12 10.24-15.36 15.36-25.6 15.36-5.12 0-5.12 0-10.24 0-15.36-5.12-20.48-20.48-15.36-35.84 35.84-81.92 117.76-138.24 215.040-138.24s179.2 51.2 215.040 138.24v0z",
          "M327.68 378.88c0-30.72 25.6-56.32 56.32-56.32s56.32 25.6 56.32 56.32c0 30.72-25.6 56.32-56.32 56.32s-56.32-25.6-56.32-56.32v0z",
          "M588.8 378.88c0-30.72 25.6-56.32 56.32-56.32s56.32 25.6 56.32 56.32c0 30.72-25.6 56.32-56.32 56.32-25.6 0-56.32-25.6-56.32-56.32v0z"
        ],
        "attrs": [
          {},
          {},
          {},
          {}
        ],
        "isMulticolor": false,
        "isMulticolor2": false,
        "colorPermutations": {
          "2371181571881622171": [
            {},
            {},
            {},
            {}
          ]
        },
        "tags": [
          "Smiley-sad"
        ],
        "grid": 0
      },
      "attrs": [
        {},
        {},
        {},
        {}
      ],
      "properties": {
        "order": 28,
        "id": 29,
        "name": "jwt-Smiley-sad",
        "prevSize": 32,
        "code": 59667
      },
      "setIdx": 0,
      "setId": 2,
      "iconIdx": 30
    },
    {
      "icon": {
        "paths": [
          "M860.16 158.72c-194.56-194.56-512-194.56-701.44 0-194.56 194.56-194.56 512 0 701.44 194.56 194.56 512 194.56 701.44 0 194.56-189.44 194.56-506.88 0-701.44v0zM808.96 808.96c-163.84 163.84-430.080 163.84-593.92 0s-163.84-430.080 0-593.92c158.72-163.84 430.080-163.84 593.92-0s163.84 430.080 0 593.92v0zM322.56 378.88c0-30.72 25.6-56.32 56.32-56.32s56.32 25.6 56.32 56.32c0 30.72-25.6 56.32-56.32 56.32s-56.32-25.6-56.32-56.32v0zM588.8 378.88c0-30.72 25.6-56.32 56.32-56.32s56.32 25.6 56.32 56.32c0 30.72-25.6 56.32-56.32 56.32s-56.32-25.6-56.32-56.32v0zM727.040 614.4c-35.84 81.92-122.88 138.24-215.040 138.24-97.28 0-179.2-56.32-215.040-138.24-5.12-15.36 0-30.72 15.36-35.84 5.12 0 5.12 0 10.24 0 10.24 0 20.48 5.12 25.6 15.36 25.6 61.44 92.16 102.4 163.84 102.4s138.24-40.96 163.84-102.4c5.12-15.36 20.48-20.48 35.84-15.36s20.48 20.48 15.36 35.84v0zM727.040 614.4z"
        ],
        "attrs": [
          {}
        ],
        "isMulticolor": false,
        "isMulticolor2": false,
        "colorPermutations": {
          "2371181571881622171": [
            {}
          ]
        },
        "tags": [
          "Smiley"
        ],
        "grid": 0
      },
      "attrs": [
        {}
      ],
      "properties": {
        "order": 29,
        "id": 30,
        "name": "jwt-Smiley",
        "prevSize": 32,
        "code": 59668
      },
      "setIdx": 0,
      "setId": 2,
      "iconIdx": 31
    },
    {
      "icon": {
        "paths": [
          "M522.24 61.44l440.32 409.6c10.24 10.24 10.24 20.48 0 30.72 0 10.24-10.24 10.24-15.36 10.24v0h-112.64v404.48c0 10.24-10.24 20.48-20.48 20.48h-194.56c-10.24 0-20.48-10.24-20.48-20.48v-307.2h-179.2v307.2c0 10.24-10.24 20.48-20.48 20.48h-199.68c-10.24 0-20.48-10.24-20.48-20.48v-404.48h-112.64c-15.36 0-25.6-10.24-25.6-20.48 0-5.12 5.12-15.36 10.24-15.36l440.32-409.6c10.24-10.24 20.48-10.24 30.72-5.12v0zM711.68 302.080l-204.8-189.44-204.8 189.44-179.2 163.84h76.8c10.24 0 20.48 10.24 20.48 20.48v404.48h153.6v-307.2c0-10.24 10.24-20.48 20.48-20.48h220.16c10.24 0 20.48 10.24 20.48 20.48v307.2h148.48v-399.36c0-10.24 10.24-20.48 20.48-20.48h76.8l-168.96-168.96zM711.68 302.080z"
        ],
        "attrs": [
          {}
        ],
        "isMulticolor": false,
        "isMulticolor2": false,
        "colorPermutations": {
          "2371181571881622171": [
            {}
          ]
        },
        "tags": [
          "JWT_icons-01"
        ],
        "grid": 0
      },
      "attrs": [
        {}
      ],
      "properties": {
        "order": 10,
        "id": 31,
        "name": "jwt-home",
        "prevSize": 32,
        "code": 59648
      },
      "setIdx": 0,
      "setId": 2,
      "iconIdx": 32
    },
    {
      "icon": {
        "paths": [
          "M793.6 732.16l-158.72-76.8c-15.36-10.24-20.48-25.6-20.48-40.96v-56.32c5.12-5.12 10.24-10.24 10.24-15.36 20.48-30.72 35.84-61.44 51.2-97.28 25.6-10.24 40.96-35.84 40.96-61.44v-61.44c0-15.36-5.12-30.72-15.36-40.96v-92.16c0-10.24 5.12-61.44-35.84-107.52-35.84-40.96-87.040-56.32-163.84-56.32s-128 20.48-163.84 56.32c-46.080 46.080-40.96 97.28-40.96 107.52v87.040c-10.24 15.36-15.36 30.72-15.36 46.080v66.56c0 20.48 10.24 40.96 25.6 51.2 15.36 61.44 46.080 107.52 56.32 117.76v56.32c0 15.36-10.24 30.72-20.48 35.84l-148.48 81.92c-46.080 25.6-76.8 76.8-76.8 133.12v51.2c0 76.8 250.88 97.28 378.88 97.28 133.12 0 378.88-20.48 378.88-97.28v-51.2c0-56.32-30.72-107.52-81.92-133.12v0zM844.8 916.48c0 20.48-122.88 66.56-348.16 66.56s-348.16-46.080-348.16-66.56v-51.2c0-40.96 25.6-81.92 61.44-102.4l148.48-81.92c25.6-15.36 40.96-40.96 40.96-66.56v-66.56l-5.12-5.12c0 0-40.96-51.2-56.32-117.76v-5.12l-10.24-5.12c-5.12-5.12-15.36-15.36-15.36-25.6v-66.56c0-10.24 5.12-20.48 10.24-25.6l5.12-5.12v-102.4c0 0-5.12-46.080 25.6-81.92 25.6-30.72 71.68-46.080 138.24-46.080s112.64 15.36 138.24 46.080c30.72 35.84 25.6 81.92 25.6 81.92v107.52l10.24-0c5.12 5.12 10.24 15.36 10.24 25.6v66.56c0 15.36-10.24 25.6-25.6 30.72h-10.24l-5.12 10.24c-10.24 35.84-25.6 66.56-46.080 92.16-5.12 5.12-10.24 15.36-15.36 15.36l-5.12 5.12v71.68c0 30.72 15.36 56.32 40.96 66.56l158.72 76.8c40.96 20.48 66.56 61.44 66.56 102.4v56.32zM844.8 916.48z"
        ],
        "attrs": [
          {}
        ],
        "isMulticolor": false,
        "isMulticolor2": false,
        "colorPermutations": {
          "2371181571881622171": [
            {}
          ]
        },
        "tags": [
          "JWT_icons-02"
        ],
        "grid": 0
      },
      "attrs": [
        {}
      ],
      "properties": {
        "order": 11,
        "id": 32,
        "name": "jwt-user",
        "prevSize": 32,
        "code": 59649
      },
      "setIdx": 0,
      "setId": 2,
      "iconIdx": 33
    },
    {
      "icon": {
        "paths": [
          "M998.4 465.92c20.48-20.48 25.6-46.080 20.48-76.8-10.24-25.6-30.72-46.080-61.44-51.2l-245.76-30.72c-10.24 0-20.48-10.24-25.6-15.36l-112.64-225.28c-10.24-25.6-35.84-40.96-61.44-40.96s-51.2 15.36-66.56 40.96l-107.52 220.16c-5.12 10.24-15.36 15.36-25.6 20.48l-245.76 35.84c-25.6 5.12-51.2 20.48-61.44 51.2-5.12 25.6-0 51.2 20.48 71.68l179.2 174.080c5.12 5.12 10.24 20.48 10.24 30.72l-40.96 245.76c-5.12 25.6 5.12 56.32 30.72 71.68 20.48 15.36 51.2 20.48 76.8 5.12l220.16-117.76c10.24-5.12 20.48-5.12 30.72 0l220.16 117.76c10.24 5.12 20.48 10.24 35.84 10.24s30.72-5.12 40.96-15.36c20.48-15.36 35.84-46.080 30.72-71.68l-40.96-245.76c0-10.24 0-20.48 10.24-30.72l168.96-174.080zM773.12 675.84l40.96 245.76c0 10.24-5.12 25.6-15.36 30.72s-20.48 10.24-35.84 0l-220.16-117.76c-10.24-5.12-20.48-10.24-35.84-10.24-10.24 0-25.6 5.12-35.84 10.24l-215.040 122.88c-10.24 5.12-25.6 5.12-35.84 0s-15.36-20.48-15.36-30.72l40.96-245.76c5.12-25.6-5.12-46.080-20.48-66.56l-174.080-179.2c-5.12-5.12-10.24-20.48-5.12-30.72s10.24-20.48 25.6-20.48l245.76-35.84c25.6-5.12 46.080-20.48 56.32-40.96l112.64-225.28c0-10.24 15.36-15.36 25.6-15.36s25.6 5.12 30.72 20.48l107.52 220.16c10.24 20.48 30.72 35.84 56.32 40.96l245.76 35.84c10.24 0 20.48 10.24 25.6 20.48s0 25.6-10.24 30.72l-179.2 174.080c-15.36 20.48-20.48 40.96-15.36 66.56z"
        ],
        "attrs": [
          {}
        ],
        "isMulticolor": false,
        "isMulticolor2": false,
        "colorPermutations": {
          "2371181571881622171": [
            {}
          ]
        },
        "tags": [
          "JWT_icons-03"
        ],
        "grid": 0
      },
      "attrs": [
        {}
      ],
      "properties": {
        "order": 12,
        "id": 33,
        "name": "jwt-star",
        "prevSize": 32,
        "code": 59650
      },
      "setIdx": 0,
      "setId": 2,
      "iconIdx": 34
    },
    {
      "icon": {
        "paths": [
          "M496.64 5.12c-179.2 0-322.56 128-322.56 286.72 0 35.84 10.24 71.68 25.6 107.52 0 0 0 0 0 0s0 0 0 0l138.24 281.6c5.12 10.24 20.48 20.48 30.72 20.48h250.88c15.36 0 25.6-5.12 30.72-20.48l138.24-281.6c0 0 0 0 0 0s0 0 0 0c20.48-35.84 30.72-71.68 30.72-107.52 0-158.72-143.36-286.72-322.56-286.72zM727.040 373.76c0 0 0 0 0 0s0 0 0 0l-133.12 266.24h-66.56v-163.84c40.96-15.36 71.68-46.080 71.68-87.040 0-15.36-15.36-30.72-35.84-30.72s-35.84 15.36-35.84 30.72c0 15.36-15.36 30.72-35.84 30.72-15.36-0-30.72-15.36-30.72-35.84 0-15.36-15.36-30.72-35.84-30.72s-35.84 15.36-35.84 30.72c-0 40.96 30.72 76.8 71.68 92.16v163.84h-66.56l-133.12-266.24c0 0 0 0 0 0s0 0 0 0c-10.24-25.6-15.36-56.32-15.36-81.92 0-122.88 112.64-220.16 250.88-220.16s250.88 97.28 250.88 220.16c0 25.6-5.12 56.32-20.48 81.92zM640 732.16h-271.36c-20.48 0-35.84 15.36-35.84 30.72s15.36 30.72 35.84 30.72h271.36c20.48 0 35.84-15.36 35.84-30.72s-15.36-30.72-35.84-30.72zM629.76 829.44h-266.24c-20.48 0-35.84 15.36-35.84 30.72s15.36 30.72 35.84 30.72h25.6v30.72c0 51.2 46.080 97.28 107.52 97.28s107.52-40.96 107.52-97.28v-30.72h25.6c20.48 0 35.84-15.36 35.84-30.72s-15.36-30.72-35.84-30.72zM532.48 921.6c0 15.36-15.36 30.72-35.84 30.72-20.48 5.12-35.84-10.24-35.84-30.72v-30.72h71.68v30.72z"
        ],
        "attrs": [
          {}
        ],
        "isMulticolor": false,
        "isMulticolor2": false,
        "colorPermutations": {
          "2371181571881622171": [
            {}
          ]
        },
        "tags": [
          "JWT_icons-04"
        ],
        "grid": 0
      },
      "attrs": [
        {}
      ],
      "properties": {
        "order": 13,
        "id": 34,
        "name": "jwt-bulb",
        "prevSize": 32,
        "code": 59651
      },
      "setIdx": 0,
      "setId": 2,
      "iconIdx": 35
    },
    {
      "icon": {
        "paths": [
          "M880.64 189.44c10.24-10.24 10.24-30.72 0-46.080s-30.72-10.24-46.080 0l-46.080 46.080c-87.040-76.8-194.56-117.76-307.2-117.76-128 0-245.76 51.2-332.8 138.24s-138.24 204.8-138.24 332.8c0 128 51.2 245.76 138.24 332.8s204.8 138.24 332.8 138.24 245.76-51.2 332.8-138.24c174.080-174.080 184.32-455.68 20.48-640l46.080-46.080zM768 829.44c-76.8 76.8-179.2 117.76-286.72 117.76s-209.92-40.96-286.72-117.76c-76.8-76.8-117.76-179.2-117.76-286.72s40.96-209.92 117.76-286.72c76.8-76.8 179.2-117.76 286.72-117.76s209.92 40.96 286.72 117.76c158.72 158.72 158.72 414.72 0 573.44zM967.68 56.32c-30.72-30.72-66.56-46.080-107.52-46.080s-76.8 15.36-107.52 46.080c-10.24 10.24-10.24 30.72 0 46.080 10.24 10.24 30.72 10.24 46.080 0 35.84-35.84 92.16-35.84 122.88 0 35.84 35.84 35.84 92.16 0 122.88-10.24 10.24-10.24 30.72 0 46.080 5.12 5.12 15.36 10.24 20.48 10.24 10.24 0 15.36-5.12 20.48-10.24 66.56-61.44 66.56-158.72 5.12-215.040zM732.16 512h-220.16v-220.16c0-15.36-15.36-30.72-30.72-30.72s-30.72 15.36-30.72 30.72v250.88c0 15.36 15.36 30.72 30.72 30.72h250.88c15.36 0 30.72-15.36 30.72-30.72s-15.36-30.72-30.72-30.72z"
        ],
        "attrs": [
          {}
        ],
        "isMulticolor": false,
        "isMulticolor2": false,
        "colorPermutations": {
          "2371181571881622171": [
            {}
          ]
        },
        "tags": [
          "JWT_icons-05"
        ],
        "grid": 0
      },
      "attrs": [
        {}
      ],
      "properties": {
        "order": 14,
        "id": 35,
        "name": "jwt-timer",
        "prevSize": 32,
        "code": 59652
      },
      "setIdx": 0,
      "setId": 2,
      "iconIdx": 36
    },
    {
      "icon": {
        "paths": [
          "M609.28 680.96l25.6-25.6c35.84-35.84 56.32-87.040 56.32-138.24s-20.48-102.4-56.32-138.24c-76.8-71.68-199.68-71.68-276.48 5.12l-20.48 25.6-168.96-163.84c-5.12-10.24-15.36-15.36-25.6-10.24-10.24 0-20.48 10.24-25.6 20.48l-87.040 302.080c-5.12 10.24 0 20.48 10.24 30.72l15.36 15.36c-35.84 51.2-56.32 102.4-56.32 163.84 0 66.56 25.6 133.12 71.68 179.2s112.64 71.68 179.2 71.68c61.44 0 112.64-20.48 158.72-56.32l15.36 15.36c5.12 5.12 15.36 10.24 20.48 10.24s5.12 0 10.24 0l302.080-87.040c10.24-5.12 20.48-10.24 20.48-20.48s0-20.48-10.24-30.72l-158.72-168.96zM404.48 430.080c51.2-51.2 133.12-51.2 184.32 0s51.2 133.12 0 184.32l-25.6 25.6-184.32-189.44 25.6-20.48zM250.88 957.44c-51.2 0-97.28-20.48-133.12-56.32s-56.32-81.92-56.32-133.12c0-40.96 15.36-81.92 40.96-112.64l266.24 266.24c-35.84 20.48-71.68 35.84-117.76 35.84zM460.8 921.6l-363.52-363.52 66.56-235.52 527.36 527.36-230.4 71.68zM752.64 266.24c-112.64-112.64-286.72-128-414.72-30.72-15.36 10.24-15.36 25.6-5.12 40.96s30.72 15.36 46.080 5.12c102.4-76.8 245.76-66.56 332.8 25.6 92.16 92.16 102.4 235.52 25.6 337.92-10.24 15.36-5.12 35.84 5.12 46.080 5.12 5.12 10.24 5.12 20.48 5.12s20.48-5.12 25.6-10.24c92.16-128 76.8-307.2-35.84-419.84zM865.28 158.72c-179.2-179.2-460.8-194.56-655.36-35.84-10.24 10.24-15.36 30.72-5.12 46.080s30.72 15.36 46.080 5.12c168.96-138.24 414.72-128 568.32 25.6s168.96 399.36 25.6 568.32c-10.24 15.36-10.24 30.72 5.12 46.080 5.12 5.12 15.36 5.12 20.48 5.12 10.24 0 20.48-5.12 25.6-10.24 158.72-194.56 143.36-476.16-30.72-650.24z"
        ],
        "attrs": [
          {}
        ],
        "isMulticolor": false,
        "isMulticolor2": false,
        "colorPermutations": {
          "2371181571881622171": [
            {}
          ]
        },
        "tags": [
          "JWT_icons-06"
        ],
        "grid": 0
      },
      "attrs": [
        {}
      ],
      "properties": {
        "order": 15,
        "id": 36,
        "name": "jwt-value",
        "prevSize": 32,
        "code": 59653
      },
      "setIdx": 0,
      "setId": 2,
      "iconIdx": 37
    },
    {
      "icon": {
        "paths": [
          "M122.88 1008.64c-5.12 0-5.12 0-10.24 0-20.48-5.12-30.72-20.48-30.72-35.84h-5.12l5.12-15.36c15.36-61.44 40.96-163.84 40.96-168.96s0-10.24-5.12-20.48v0c0 0 0-5.12-5.12-5.12-51.2-76.8-76.8-168.96-76.8-261.12 0-266.24 215.040-481.28 476.16-481.28s476.16 215.040 476.16 481.28-215.040 471.040-476.16 471.040c-66.56 0-128-15.36-184.32-35.84h-5.12c-5.12 0-15.36-5.12-25.6 0v5.12h-15.36c0 0 0 0 0 0l-143.36 66.56c-5.12-0-10.24-0-15.36-0zM122.88 957.44v5.12c0 5.12 0 5.12 5.12 5.12l10.24 15.36-5.12-20.48 143.36-66.56c0 0 0 0 0 0h5.12c20.48-5.12 40.96-5.12 61.44 0l-5.12 20.48 10.24-15.36c51.2 20.48 112.64 35.84 168.96 35.84 240.64 0 435.2-199.68 435.2-440.32s-199.68-445.44-440.32-445.44-435.2 199.68-435.2 445.44c0 87.040 25.6 168.96 66.56 240.64h10.24v15.36c5.12 10.24 10.24 25.6 10.24 35.84 0 0 0 5.12-40.96 168.96zM701.44 588.8c-46.080 0-87.040-40.96-87.040-87.040s40.96-87.040 87.040-87.040 87.040 40.96 87.040 87.040c0 46.080-40.96 87.040-87.040 87.040zM701.44 455.68c-25.6 0-46.080 20.48-46.080 46.080s20.48 46.080 46.080 46.080 46.080-20.48 46.080-46.080c0-25.6-20.48-46.080-46.080-46.080zM512 588.8c-46.080 0-87.040-40.96-87.040-87.040s40.96-87.040 87.040-87.040 87.040 40.96 87.040 87.040c0 46.080-40.96 87.040-87.040 87.040zM512 455.68c-25.6 0-46.080 20.48-46.080 46.080s20.48 46.080 46.080 46.080 46.080-20.48 46.080-46.080c0-25.6-20.48-46.080-46.080-46.080zM322.56 588.8c-46.080 0-87.040-40.96-87.040-87.040s40.96-87.040 87.040-87.040 87.040 40.96 87.040 87.040c0 46.080-40.96 87.040-87.040 87.040zM322.56 455.68c-25.6 0-46.080 20.48-46.080 46.080s20.48 46.080 46.080 46.080 46.080-20.48 46.080-46.080c0-25.6-20.48-46.080-46.080-46.080z"
        ],
        "attrs": [
          {}
        ],
        "isMulticolor": false,
        "isMulticolor2": false,
        "colorPermutations": {
          "2371181571881622171": [
            {}
          ]
        },
        "tags": [
          "JWT_icons-07"
        ],
        "grid": 0
      },
      "attrs": [
        {}
      ],
      "properties": {
        "order": 16,
        "id": 37,
        "name": "jwt-message",
        "prevSize": 32,
        "code": 59654
      },
      "setIdx": 0,
      "setId": 2,
      "iconIdx": 38
    },
    {
      "icon": {
        "paths": [
          "M890.88 327.68c-5.12-5.12-20.48-10.24-25.6-5.12l-189.44 25.6v-122.88c0-10.24-5.12-20.48-10.24-25.6-10.24-5.12-20.48-10.24-25.6-5.12l-430.080 56.32v-61.44c40.96-15.36 71.68-46.080 71.68-92.16 0-51.2-46.080-97.28-102.4-97.28s-102.4 40.96-102.4 97.28c0 40.96 30.72 76.8 66.56 87.040v798.72c0 15.36 15.36 30.72 35.84 30.72s35.84-15.36 35.84-30.72v-419.84l163.84-25.6v133.12c0 10.24 5.12 15.36 10.24 25.6 5.12 5.12 15.36 10.24 20.48 10.24 0 0 5.12 0 5.12 0l460.8-51.2c15.36 0 30.72-15.36 30.72-30.72v-271.36c-0-10.24-5.12-20.48-15.36-25.6zM179.2 66.56c20.48 0 35.84 15.36 35.84 30.72s-15.36 30.72-35.84 30.72c-20.48 0-35.84-15.36-35.84-30.72s15.36-30.72 35.84-30.72zM834.56 588.8l-389.12 46.080v-133.12c0-10.24-5.12-20.48-10.24-25.6-10.24-5.12-15.36-5.12-25.6-5.12 0 0-5.12 0-5.12 0l-189.44 25.6v-179.2l389.12-56.32v122.88c0 10.24 5.12 20.48 10.24 25.6s15.36 10.24 25.6 5.12l189.44-25.6v199.68z"
        ],
        "attrs": [
          {}
        ],
        "isMulticolor": false,
        "isMulticolor2": false,
        "colorPermutations": {
          "2371181571881622171": [
            {}
          ]
        },
        "tags": [
          "JWT_icons-08"
        ],
        "grid": 0
      },
      "attrs": [
        {}
      ],
      "properties": {
        "order": 17,
        "id": 38,
        "name": "jwt-flag",
        "prevSize": 32,
        "code": 59655
      },
      "setIdx": 0,
      "setId": 2,
      "iconIdx": 39
    },
    {
      "icon": {
        "paths": [
          "M512 537.6v0c35.84 0 66.56-25.6 66.56-61.44v-399.36c0 0 0 0 0 0 0-30.72-30.72-61.44-66.56-61.44v0c-35.84 0-66.56 25.6-66.56 61.44 0 0 0 0 0 0v394.24c0 35.84 30.72 66.56 66.56 66.56zM788.48 148.48c0 0-5.12-5.12-5.12-5.12-10.24-5.12-20.48-10.24-30.72-10.24-35.84 0-66.56 25.6-66.56 61.44 0 20.48 10.24 35.84 25.6 46.080 5.12 0 5.12 5.12 10.24 5.12 97.28 61.44 158.72 168.96 158.72 286.72 0 189.44-163.84 348.16-368.64 348.16s-368.64-153.6-368.64-348.16c0-117.76 61.44-225.28 158.72-286.72 5.12 0 5.12-5.12 10.24-5.12 15.36-10.24 25.6-30.72 25.6-46.080 0-35.84-30.72-61.44-66.56-61.44-10.24 0-20.48 5.12-30.72 10.24 0 0-5.12 5.12-5.12 5.12-133.12 87.040-220.16 230.4-220.16 389.12 0 261.12 220.16 465.92 496.64 465.92s496.64-209.92 496.64-465.92c0-158.72-87.040-302.080-220.16-389.12z"
        ],
        "attrs": [
          {}
        ],
        "isMulticolor": false,
        "isMulticolor2": false,
        "colorPermutations": {
          "2371181571881622171": [
            {}
          ]
        },
        "tags": [
          "JWT_icons-09"
        ],
        "grid": 0
      },
      "attrs": [
        {}
      ],
      "properties": {
        "order": 18,
        "id": 39,
        "name": "jwt-logout",
        "prevSize": 32,
        "code": 59656
      },
      "setIdx": 0,
      "setId": 2,
      "iconIdx": 40
    },
    {
      "icon": {
        "paths": [
          "M855.040 117.76h-686.080c-87.040 0-153.6 66.56-153.6 143.36v522.24c0 81.92 71.68 143.36 153.6 143.36h686.080c87.040 0 153.6-66.56 153.6-143.36v-517.12c0-81.92-66.56-148.48-153.6-148.48zM947.2 788.48c0 46.080-40.96 87.040-92.16 87.040h-686.080c-51.2 0-92.16-40.96-92.16-87.040v-435.2h870.4v435.2zM947.2 291.84h-870.4v-25.6c0-46.080 40.96-87.040 92.16-87.040h686.080c51.2 0 92.16 40.96 92.16 87.040v25.6zM199.68 204.8c-15.36 0-30.72 15.36-30.72 30.72s15.36 30.72 30.72 30.72c15.36 0 30.72-15.36 30.72-30.72s-10.24-30.72-30.72-30.72zM296.96 204.8c-20.48 0-35.84 15.36-35.84 30.72s15.36 30.72 30.72 30.72c15.36 0 30.72-15.36 30.72-30.72 5.12-15.36-10.24-30.72-25.6-30.72zM389.12 204.8c-15.36 0-30.72 15.36-30.72 30.72s15.36 30.72 30.72 30.72c15.36 0 30.72-15.36 30.72-30.72s-15.36-30.72-30.72-30.72z"
        ],
        "attrs": [
          {}
        ],
        "isMulticolor": false,
        "isMulticolor2": false,
        "colorPermutations": {
          "2371181571881622171": [
            {}
          ]
        },
        "tags": [
          "JWT_icons-10"
        ],
        "grid": 0
      },
      "attrs": [
        {}
      ],
      "properties": {
        "order": 19,
        "id": 40,
        "name": "jwt-nav",
        "prevSize": 32,
        "code": 59657
      },
      "setIdx": 0,
      "setId": 2,
      "iconIdx": 41
    },
    {
      "icon": {
        "paths": [
          "M916.48 419.84c-15.36 0-30.72 15.36-30.72 30.72v404.48c0 51.2-40.96 92.16-92.16 92.16h-624.64c-51.2 0-92.16-40.96-92.16-92.16v-624.64c0-51.2 40.96-97.28 92.16-97.28h399.36c15.36 0 30.72-15.36 30.72-30.72s-15.36-30.72-30.72-30.72h-399.36c-87.040 0-158.72 71.68-158.72 158.72v624.64c0 87.040 71.68 158.72 158.72 158.72h624.64c87.040 0 153.6-71.68 153.6-158.72v-404.48c0-20.48-15.36-30.72-30.72-30.72zM1003.52 112.64l-97.28-97.28c-10.24-10.24-30.72-10.24-46.080 0l-378.88 389.12c0 0 0 0 0 0-20.48 20.48-30.72 46.080-30.72 71.68 0 15.36 5.12 30.72 10.24 46.080l-30.72 30.72c-10.24 10.24-10.24 30.72 0 46.080 5.12 5.12 15.36 10.24 20.48 10.24 10.24 0 15.36-5.12 20.48-10.24l35.84-35.84c15.36 5.12 25.6 10.24 40.96 10.24 25.6 0 51.2-10.24 71.68-30.72 0 0 0 0 0 0v0l384-384c5.12-5.12 10.24-15.36 10.24-20.48s-5.12-15.36-10.24-25.6zM573.44 501.76c0 0 0 0 0 0-15.36 15.36-35.84 15.36-51.2 0 0 0 0 0 0 0s0 0 0 0c-5.12-10.24-10.24-15.36-10.24-25.6s5.12-20.48 10.24-25.6c0 0 0 0 0 0s0 0 0 0l363.52-363.52 51.2 51.2-363.52 363.52z"
        ],
        "attrs": [
          {}
        ],
        "isMulticolor": false,
        "isMulticolor2": false,
        "colorPermutations": {
          "2371181571881622171": [
            {}
          ]
        },
        "tags": [
          "JWT_icons-11"
        ],
        "grid": 0
      },
      "attrs": [
        {}
      ],
      "properties": {
        "order": 20,
        "id": 41,
        "name": "jwt-edit",
        "prevSize": 32,
        "code": 59658
      },
      "setIdx": 0,
      "setId": 2,
      "iconIdx": 42
    },
    {
      "icon": {
        "paths": [
          "M696.32 588.8c-30.72-20.48-81.92-66.56-81.92-97.28s10.24-51.2 61.44-87.040c51.2-40.96 92.16-97.28 92.16-163.84 0-76.8-35.84-153.6-102.4-179.2h102.4l40.96-15.36c0 0-209.92-30.72-291.84-30.72-143.36 0-276.48 107.52-276.48 225.28 0 122.88 97.28 225.28 245.76 225.28 10.24 0 20.48 0 30.72 0-10.24 15.36-15.36 35.84-15.36 56.32 0 35.84 20.48 61.44 46.080 87.040-20.48 0-35.84 0-56.32 0-179.2 0-312.32 107.52-312.32 225.28 0 112.64 148.48 184.32 327.68 184.32 204.8 0 312.32-112.64 312.32-225.28-10.24-92.16-35.84-148.48-122.88-204.8v0zM527.36 430.080v0c-81.92 0-158.72-87.040-174.080-194.56-15.36-102.4 40.96-184.32 122.88-179.2 81.92 0 158.72 87.040 174.080 189.44 15.36 107.52-40.96 189.44-122.88 184.32zM496.64 962.56v0c-122.88 0-209.92-76.8-209.92-163.84s107.52-163.84 230.4-163.84c30.72 0 56.32 5.12 81.92 10.24 66.56 46.080 112.64 71.68 128 122.88 0 10.24 5.12 20.48 5.12 30.72-5.12 92.16-66.56 163.84-235.52 163.84z"
        ],
        "attrs": [
          {}
        ],
        "isMulticolor": false,
        "isMulticolor2": false,
        "colorPermutations": {
          "2371181571881622171": [
            {}
          ]
        },
        "tags": [
          "JWT_icons-12"
        ],
        "grid": 0
      },
      "attrs": [
        {}
      ],
      "properties": {
        "order": 21,
        "id": 42,
        "name": "jwt-google",
        "prevSize": 32,
        "code": 59659
      },
      "setIdx": 0,
      "setId": 2,
      "iconIdx": 43
    },
    {
      "icon": {
        "paths": [
          "M537.6 527.36l245.76-245.76c5.12-5.12 5.12-15.36 0-25.6-5.12-5.12-15.36-5.12-25.6 0l-245.76 245.76-245.76-245.76c-5.12-5.12-15.36-5.12-25.6 0-5.12 5.12-5.12 15.36 0 25.6l245.76 245.76-245.76 245.76c-5.12 5.12-5.12 20.48 0 25.6s15.36 5.12 25.6 0l245.76-245.76 245.76 245.76c5.12 5.12 15.36 5.12 25.6 0 5.12-5.12 5.12-15.36 0-25.6l-245.76-245.76zM512 10.24c-276.48 0-501.76 225.28-501.76 501.76s225.28 501.76 501.76 501.76c276.48 0 501.76-225.28 501.76-501.76s-225.28-501.76-501.76-501.76zM512 972.8c-250.88 0-455.68-204.8-455.68-455.68s204.8-455.68 455.68-455.68c250.88 0 455.68 204.8 455.68 455.68s-204.8 455.68-455.68 455.68z"
        ],
        "attrs": [
          {}
        ],
        "isMulticolor": false,
        "isMulticolor2": false,
        "colorPermutations": {
          "2371181571881622171": [
            {}
          ]
        },
        "tags": [
          "JWT_icons-13"
        ],
        "grid": 0
      },
      "attrs": [
        {}
      ],
      "properties": {
        "order": 22,
        "id": 43,
        "name": "jwt-close",
        "prevSize": 32,
        "code": 59660
      },
      "setIdx": 0,
      "setId": 2,
      "iconIdx": 44
    },
    {
      "icon": {
        "paths": [
          "M327.68 803.84l302.080-291.84-302.080-291.84 66.56-92.16 394.24 384-394.24 384-66.56-92.16z"
        ],
        "attrs": [
          {}
        ],
        "isMulticolor": false,
        "isMulticolor2": false,
        "colorPermutations": {
          "2371181571881622171": [
            {}
          ]
        },
        "tags": [
          "JWT_icons-14"
        ],
        "grid": 0
      },
      "attrs": [
        {}
      ],
      "properties": {
        "order": 23,
        "id": 44,
        "name": "jwt-arrow-rt",
        "prevSize": 32,
        "code": 59661
      },
      "setIdx": 0,
      "setId": 2,
      "iconIdx": 45
    },
    {
      "icon": {
        "paths": [
          "M512 302.080c-107.52 0-189.44 87.040-189.44 194.56s87.040 194.56 189.44 194.56 194.56-87.040 194.56-194.56-87.040-194.56-194.56-194.56zM512 112.64c-209.92 0-384 174.080-384 384s174.080 384 384 384c209.92 0 384-174.080 384-384 0-215.040-174.080-384-384-384zM512 829.44c-184.32 0-337.92-148.48-337.92-337.92s153.6-332.8 337.92-332.8 337.92 148.48 337.92 337.92-153.6 332.8-337.92 332.8z"
        ],
        "attrs": [
          {}
        ],
        "isMulticolor": false,
        "isMulticolor2": false,
        "colorPermutations": {
          "2371181571881622171": [
            {}
          ]
        },
        "tags": [
          "JWT_icons-15"
        ],
        "grid": 0
      },
      "attrs": [
        {}
      ],
      "properties": {
        "order": 24,
        "id": 45,
        "name": "jwt-circle-fill",
        "prevSize": 32,
        "code": 59662
      },
      "setIdx": 0,
      "setId": 2,
      "iconIdx": 46
    },
    {
      "icon": {
        "paths": [
          "M512 128c-209.92 0-384 174.080-384 384s174.080 384 384 384c209.92 0 384-174.080 384-384s-174.080-384-384-384zM512 849.92c-184.32 0-337.92-148.48-337.92-337.92s153.6-337.92 337.92-337.92 337.92 148.48 337.92 337.92-153.6 337.92-337.92 337.92z"
        ],
        "attrs": [
          {}
        ],
        "isMulticolor": false,
        "isMulticolor2": false,
        "colorPermutations": {
          "2371181571881622171": [
            {}
          ]
        },
        "tags": [
          "JWT_icons-16"
        ],
        "grid": 0
      },
      "attrs": [
        {}
      ],
      "properties": {
        "order": 25,
        "id": 46,
        "name": "jwt-circle",
        "prevSize": 32,
        "code": 59663
      },
      "setIdx": 0,
      "setId": 2,
      "iconIdx": 47
    }
  ],
  "height": 1024,
  "metadata": {
    "name": "icomoon"
  },
  "preferences": {
    "showGlyphs": true,
    "showQuickUse": true,
    "showQuickUse2": true,
    "showSVGs": true,
    "fontPref": {
      "prefix": "icon-",
      "metadata": {
        "fontFamily": "icomoon"
      },
      "metrics": {
        "emSize": 1024,
        "baseline": 6.25,
        "whitespace": 50
      },
      "embed": false
    },
    "imagePref": {
      "prefix": "icon-",
      "png": true,
      "useClassSelector": true,
      "color": 0,
      "bgColor": 16777215,
      "classSelector": ".icon"
    },
    "historySize": 100,
    "showCodes": true,
    "gridSize": 16
  }
}