{
    "status": "OK",
    "status_message": "OK",
    "query_meta": {
        "total_results": 7381,
        "linguistics_count": 0,
        "total_universe": 59565,
        "total_spammed": 15,
        "total_from_index": 7366,
        "sources_from_index": 3321,
        "total_sources_est": 3327,
        "sources_universe": 26855,
        "reach": 747368,
        "index_result_age": 24
    },
    "query_info": {
        "query": "immigration (awards NEAR/3 (oscar | academy)) | (oscars | \"oscar presenters\" | \"oscar performances\" | \"oscar nominations 2017\" | \"oscar night\" | \"oscar news\" | \"oscar live\" | \"oscar latest\" | \"oscar host\" | \"oscar coverage\" | \"oscar awards 2017\" | \"oscar 2017\") | (#oscars | \"annual academy awards\" | \"academy awards live\" | \"academy awards 2017\" | \"academy award\" | \"89th academy awards\" | \"2017 academy awards\")",
        "query_within": "",
        "source_query_exclude": false,
        "source_query": "",
        "start_date": "2016-12-20T00:00:00Z",
        "end_date": "2017-03-20T23:59:59Z",
        "influence": "",
        "watchlist_ids": "",
        "dictionary_ids": "",
        "source_ids": "",
        "languages": "",
        "linguistics_languages": "",
        "categories": "",
        "countries": "",
        "states": "",
        "gender": "",
        "age": "",
        "weekdays": "",
        "hours": "",
        "hour_min": 0,
        "hour_max": 24,
        "found_from": "1970-01-01T00:00:00Z",
        "found_to": "1970-01-01T00:00:00Z",
        "id_min": 0,
        "id_max": 0,
        "firehose_id": 0
    },
    "usage": {
        "monthly_reset": "2017-04-12T00:00:00Z",
        "monthly_used": 235,
        "monthly_limit": 1050,
        "hourly_used": 3
    },
    "output": [
        {
            "date": "2016-12-20T00:00:00Z",
            "male": {
                "count": 0,
                "universe": 0,
                "raw": 0
            },
            "female": {
                "count": 0,
                "universe": 0,
                "raw": 0
            }
        },
        {
            "date": "2016-12-21T00:00:00Z",
            "male": {
                "count": 1,
                "universe": 7,
                "raw": 1
            },
            "female": {
                "count": 1,
                "universe": 10,
                "raw": 1
            }
        },
        {
            "date": "2016-12-22T00:00:00Z",
            "male": {
                "count": 0,
                "universe": 0,
                "raw": 0
            },
            "female": {
                "count": 0,
                "universe": 0,
                "raw": 0
            }
        },
        {
            "date": "2016-12-23T00:00:00Z",
            "male": {
                "count": 6,
                "universe": 48,
                "raw": 7
            },
            "female": {
                "count": 0,
                "universe": 0,
                "raw": 0
            }
        },
        {
            "date": "2016-12-24T00:00:00Z",
            "male": {
                "count": 1,
                "universe": 7,
                "raw": 1
            },
            "female": {
                "count": 0,
                "universe": 0,
                "raw": 0
            }
        },
        {
            "date": "2016-12-25T00:00:00Z",
            "male": {
                "count": 0,
                "universe": 0,
                "raw": 0
            },
            "female": {
                "count": 0,
                "universe": 0,
                "raw": 0
            }
        },
        {
            "date": "2016-12-26T00:00:00Z",
            "male": {
                "count": 0,
                "universe": 0,
                "raw": 0
            },
            "female": {
                "count": 1,
                "universe": 10,
                "raw": 1
            }
        },
        {
            "date": "2016-12-27T00:00:00Z",
            "male": {
                "count": 1,
                "universe": 7,
                "raw": 1
            },
            "female": {
                "count": 1,
                "universe": 10,
                "raw": 1
            }
        },
        {
            "date": "2016-12-28T00:00:00Z",
            "male": {
                "count": 1,
                "universe": 7,
                "raw": 1
            },
            "female": {
                "count": 1,
                "universe": 10,
                "raw": 1
            }
        },
        {
            "date": "2016-12-29T00:00:00Z",
            "male": {
                "count": 0,
                "universe": 0,
                "raw": 0
            },
            "female": {
                "count": 2,
                "universe": 20,
                "raw": 2
            }
        },
        {
            "date": "2016-12-30T00:00:00Z",
            "male": {
                "count": 3,
                "universe": 27,
                "raw": 4
            },
            "female": {
                "count": 6,
                "universe": 49,
                "raw": 5
            }
        },
        {
            "date": "2016-12-31T00:00:00Z",
            "male": {
                "count": 3,
                "universe": 27,
                "raw": 4
            },
            "female": {
                "count": 2,
                "universe": 20,
                "raw": 2
            }
        },
        {
            "date": "2017-01-01T00:00:00Z",
            "male": {
                "count": 3,
                "universe": 21,
                "raw": 3
            },
            "female": {
                "count": 1,
                "universe": 10,
                "raw": 1
            }
        },
        {
            "date": "2017-01-02T00:00:00Z",
            "male": {
                "count": 1,
                "universe": 7,
                "raw": 1
            },
            "female": {
                "count": 1,
                "universe": 10,
                "raw": 1
            }
        },
        {
            "date": "2017-01-03T00:00:00Z",
            "male": {
                "count": 1,
                "universe": 7,
                "raw": 1
            },
            "female": {
                "count": 1,
                "universe": 10,
                "raw": 1
            }
        },
        {
            "date": "2017-01-04T00:00:00Z",
            "male": {
                "count": 0,
                "universe": 0,
                "raw": 0
            },
            "female": {
                "count": 1,
                "universe": 10,
                "raw": 1
            }
        },
        {
            "date": "2017-01-05T00:00:00Z",
            "male": {
                "count": 1,
                "universe": 7,
                "raw": 1
            },
            "female": {
                "count": 1,
                "universe": 10,
                "raw": 1
            }
        },
        {
            "date": "2017-01-06T00:00:00Z",
            "male": {
                "count": 0,
                "universe": 0,
                "raw": 0
            },
            "female": {
                "count": 0,
                "universe": 0,
                "raw": 0
            }
        },
        {
            "date": "2017-01-07T00:00:00Z",
            "male": {
                "count": 0,
                "universe": 0,
                "raw": 0
            },
            "female": {
                "count": 0,
                "universe": 0,
                "raw": 0
            }
        },
        {
            "date": "2017-01-08T00:00:00Z",
            "male": {
                "count": 1,
                "universe": 7,
                "raw": 1
            },
            "female": {
                "count": 0,
                "universe": 0,
                "raw": 0
            }
        },
        {
            "date": "2017-01-09T00:00:00Z",
            "male": {
                "count": 10,
                "universe": 82,
                "raw": 12
            },
            "female": {
                "count": 6,
                "universe": 49,
                "raw": 5
            }
        },
        {
            "date": "2017-01-10T00:00:00Z",
            "male": {
                "count": 2,
                "universe": 14,
                "raw": 2
            },
            "female": {
                "count": 1,
                "universe": 10,
                "raw": 1
            }
        },
        {
            "date": "2017-01-11T00:00:00Z",
            "male": {
                "count": 3,
                "universe": 21,
                "raw": 3
            },
            "female": {
                "count": 1,
                "universe": 10,
                "raw": 1
            }
        },
        {
            "date": "2017-01-12T00:00:00Z",
            "male": {
                "count": 4,
                "universe": 34,
                "raw": 5
            },
            "female": {
                "count": 2,
                "universe": 20,
                "raw": 2
            }
        },
        {
            "date": "2017-01-13T00:00:00Z",
            "male": {
                "count": 1,
                "universe": 7,
                "raw": 1
            },
            "female": {
                "count": 5,
                "universe": 39,
                "raw": 4
            }
        },
        {
            "date": "2017-01-14T00:00:00Z",
            "male": {
                "count": 3,
                "universe": 21,
                "raw": 3
            },
            "female": {
                "count": 0,
                "universe": 0,
                "raw": 0
            }
        },
        {
            "date": "2017-01-15T00:00:00Z",
            "male": {
                "count": 2,
                "universe": 14,
                "raw": 2
            },
            "female": {
                "count": 1,
                "universe": 10,
                "raw": 1
            }
        },
        {
            "date": "2017-01-16T00:00:00Z",
            "male": {
                "count": 3,
                "universe": 21,
                "raw": 3
            },
            "female": {
                "count": 0,
                "universe": 0,
                "raw": 0
            }
        },
        {
            "date": "2017-01-17T00:00:00Z",
            "male": {
                "count": 3,
                "universe": 21,
                "raw": 3
            },
            "female": {
                "count": 1,
                "universe": 10,
                "raw": 1
            }
        },
        {
            "date": "2017-01-18T00:00:00Z",
            "male": {
                "count": 3,
                "universe": 21,
                "raw": 3
            },
            "female": {
                "count": 0,
                "universe": 0,
                "raw": 0
            }
        },
        {
            "date": "2017-01-19T00:00:00Z",
            "male": {
                "count": 2,
                "universe": 14,
                "raw": 2
            },
            "female": {
                "count": 2,
                "universe": 20,
                "raw": 2
            }
        },
        {
            "date": "2017-01-20T00:00:00Z",
            "male": {
                "count": 2,
                "universe": 14,
                "raw": 2
            },
            "female": {
                "count": 1,
                "universe": 10,
                "raw": 1
            }
        },
        {
            "date": "2017-01-21T00:00:00Z",
            "male": {
                "count": 2,
                "universe": 14,
                "raw": 2
            },
            "female": {
                "count": 0,
                "universe": 0,
                "raw": 0
            }
        },
        {
            "date": "2017-01-22T00:00:00Z",
            "male": {
                "count": 0,
                "universe": 0,
                "raw": 0
            },
            "female": {
                "count": 1,
                "universe": 10,
                "raw": 1
            }
        },
        {
            "date": "2017-01-23T00:00:00Z",
            "male": {
                "count": 1,
                "universe": 7,
                "raw": 1
            },
            "female": {
                "count": 1,
                "universe": 10,
                "raw": 1
            }
        },
        {
            "date": "2017-01-24T00:00:00Z",
            "male": {
                "count": 18,
                "universe": 144,
                "raw": 21
            },
            "female": {
                "count": 16,
                "universe": 127,
                "raw": 13
            }
        },
        {
            "date": "2017-01-25T00:00:00Z",
            "male": {
                "count": 7,
                "universe": 55,
                "raw": 8
            },
            "female": {
                "count": 19,
                "universe": 156,
                "raw": 16
            }
        },
        {
            "date": "2017-01-26T00:00:00Z",
            "male": {
                "count": 44,
                "universe": 357,
                "raw": 52
            },
            "female": {
                "count": 45,
                "universe": 361,
                "raw": 37
            }
        },
        {
            "date": "2017-01-27T00:00:00Z",
            "male": {
                "count": 90,
                "universe": 729,
                "raw": 106
            },
            "female": {
                "count": 13,
                "universe": 107,
                "raw": 11
            }
        },
        {
            "date": "2017-01-28T00:00:00Z",
            "male": {
                "count": 95,
                "universe": 763,
                "raw": 111
            },
            "female": {
                "count": 138,
                "universe": 1112,
                "raw": 114
            }
        },
        {
            "date": "2017-01-29T00:00:00Z",
            "male": {
                "count": 213,
                "universe": 1718,
                "raw": 250
            },
            "female": {
                "count": 332,
                "universe": 2683,
                "raw": 275
            }
        },
        {
            "date": "2017-01-30T00:00:00Z",
            "male": {
                "count": 234,
                "universe": 1890,
                "raw": 275
            },
            "female": {
                "count": 208,
                "universe": 1678,
                "raw": 172
            }
        },
        {
            "date": "2017-01-31T00:00:00Z",
            "male": {
                "count": 53,
                "universe": 426,
                "raw": 62
            },
            "female": {
                "count": 99,
                "universe": 800,
                "raw": 82
            }
        },
        {
            "date": "2017-02-01T00:00:00Z",
            "male": {
                "count": 54,
                "universe": 433,
                "raw": 63
            },
            "female": {
                "count": 71,
                "universe": 576,
                "raw": 59
            }
        },
        {
            "date": "2017-02-02T00:00:00Z",
            "male": {
                "count": 33,
                "universe": 268,
                "raw": 39
            },
            "female": {
                "count": 58,
                "universe": 468,
                "raw": 48
            }
        },
        {
            "date": "2017-02-03T00:00:00Z",
            "male": {
                "count": 20,
                "universe": 158,
                "raw": 23
            },
            "female": {
                "count": 18,
                "universe": 146,
                "raw": 15
            }
        },
        {
            "date": "2017-02-04T00:00:00Z",
            "male": {
                "count": 12,
                "universe": 96,
                "raw": 14
            },
            "female": {
                "count": 31,
                "universe": 254,
                "raw": 26
            }
        },
        {
            "date": "2017-02-05T00:00:00Z",
            "male": {
                "count": 43,
                "universe": 344,
                "raw": 50
            },
            "female": {
                "count": 18,
                "universe": 146,
                "raw": 15
            }
        },
        {
            "date": "2017-02-06T00:00:00Z",
            "male": {
                "count": 18,
                "universe": 144,
                "raw": 21
            },
            "female": {
                "count": 13,
                "universe": 107,
                "raw": 11
            }
        },
        {
            "date": "2017-02-07T00:00:00Z",
            "male": {
                "count": 13,
                "universe": 103,
                "raw": 15
            },
            "female": {
                "count": 34,
                "universe": 273,
                "raw": 28
            }
        },
        {
            "date": "2017-02-08T00:00:00Z",
            "male": {
                "count": 22,
                "universe": 179,
                "raw": 26
            },
            "female": {
                "count": 74,
                "universe": 595,
                "raw": 61
            }
        },
        {
            "date": "2017-02-09T00:00:00Z",
            "male": {
                "count": 17,
                "universe": 137,
                "raw": 20
            },
            "female": {
                "count": 18,
                "universe": 146,
                "raw": 15
            }
        },
        {
            "date": "2017-02-10T00:00:00Z",
            "male": {
                "count": 70,
                "universe": 564,
                "raw": 82
            },
            "female": {
                "count": 297,
                "universe": 2400,
                "raw": 246
            }
        },
        {
            "date": "2017-02-11T00:00:00Z",
            "male": {
                "count": 9,
                "universe": 76,
                "raw": 11
            },
            "female": {
                "count": 5,
                "universe": 39,
                "raw": 4
            }
        },
        {
            "date": "2017-02-12T00:00:00Z",
            "male": {
                "count": 3,
                "universe": 21,
                "raw": 3
            },
            "female": {
                "count": 2,
                "universe": 20,
                "raw": 2
            }
        },
        {
            "date": "2017-02-13T00:00:00Z",
            "male": {
                "count": 15,
                "universe": 124,
                "raw": 18
            },
            "female": {
                "count": 21,
                "universe": 166,
                "raw": 17
            }
        },
        {
            "date": "2017-02-14T00:00:00Z",
            "male": {
                "count": 14,
                "universe": 110,
                "raw": 16
            },
            "female": {
                "count": 58,
                "universe": 468,
                "raw": 48
            }
        },
        {
            "date": "2017-02-15T00:00:00Z",
            "male": {
                "count": 23,
                "universe": 186,
                "raw": 27
            },
            "female": {
                "count": 40,
                "universe": 322,
                "raw": 33
            }
        },
        {
            "date": "2017-02-16T00:00:00Z",
            "male": {
                "count": 24,
                "universe": 192,
                "raw": 28
            },
            "female": {
                "count": 19,
                "universe": 156,
                "raw": 16
            }
        },
        {
            "date": "2017-02-17T00:00:00Z",
            "male": {
                "count": 27,
                "universe": 220,
                "raw": 32
            },
            "female": {
                "count": 41,
                "universe": 332,
                "raw": 34
            }
        },
        {
            "date": "2017-02-18T00:00:00Z",
            "male": {
                "count": 3,
                "universe": 27,
                "raw": 4
            },
            "female": {
                "count": 7,
                "universe": 59,
                "raw": 6
            }
        },
        {
            "date": "2017-02-19T00:00:00Z",
            "male": {
                "count": 6,
                "universe": 48,
                "raw": 7
            },
            "female": {
                "count": 8,
                "universe": 68,
                "raw": 7
            }
        },
        {
            "date": "2017-02-20T00:00:00Z",
            "male": {
                "count": 78,
                "universe": 625,
                "raw": 91
            },
            "female": {
                "count": 71,
                "universe": 576,
                "raw": 59
            }
        },
        {
            "date": "2017-02-21T00:00:00Z",
            "male": {
                "count": 43,
                "universe": 351,
                "raw": 51
            },
            "female": {
                "count": 42,
                "universe": 341,
                "raw": 35
            }
        },
        {
            "date": "2017-02-22T00:00:00Z",
            "male": {
                "count": 16,
                "universe": 131,
                "raw": 19
            },
            "female": {
                "count": 16,
                "universe": 127,
                "raw": 13
            }
        },
        {
            "date": "2017-02-23T00:00:00Z",
            "male": {
                "count": 37,
                "universe": 302,
                "raw": 44
            },
            "female": {
                "count": 27,
                "universe": 215,
                "raw": 22
            }
        },
        {
            "date": "2017-02-24T00:00:00Z",
            "male": {
                "count": 47,
                "universe": 378,
                "raw": 55
            },
            "female": {
                "count": 65,
                "universe": 527,
                "raw": 54
            }
        },
        {
            "date": "2017-02-25T00:00:00Z",
            "male": {
                "count": 340,
                "universe": 2742,
                "raw": 399
            },
            "female": {
                "count": 424,
                "universe": 3424,
                "raw": 351
            }
        },
        {
            "date": "2017-02-26T00:00:00Z",
            "male": {
                "count": 118,
                "universe": 955,
                "raw": 139
            },
            "female": {
                "count": 82,
                "universe": 663,
                "raw": 68
            }
        },
        {
            "date": "2017-02-27T00:00:00Z",
            "male": {
                "count": 496,
                "universe": 4000,
                "raw": 582
            },
            "female": {
                "count": 351,
                "universe": 2829,
                "raw": 290
            }
        },
        {
            "date": "2017-02-28T00:00:00Z",
            "male": {
                "count": 151,
                "universe": 1217,
                "raw": 177
            },
            "female": {
                "count": 109,
                "universe": 878,
                "raw": 90
            }
        },
        {
            "date": "2017-03-01T00:00:00Z",
            "male": {
                "count": 67,
                "universe": 543,
                "raw": 79
            },
            "female": {
                "count": 60,
                "universe": 488,
                "raw": 50
            }
        },
        {
            "date": "2017-03-02T00:00:00Z",
            "male": {
                "count": 30,
                "universe": 241,
                "raw": 35
            },
            "female": {
                "count": 34,
                "universe": 273,
                "raw": 28
            }
        },
        {
            "date": "2017-03-03T00:00:00Z",
            "male": {
                "count": 35,
                "universe": 282,
                "raw": 41
            },
            "female": {
                "count": 120,
                "universe": 966,
                "raw": 99
            }
        },
        {
            "date": "2017-03-04T00:00:00Z",
            "male": {
                "count": 16,
                "universe": 131,
                "raw": 19
            },
            "female": {
                "count": 12,
                "universe": 98,
                "raw": 10
            }
        },
        {
            "date": "2017-03-05T00:00:00Z",
            "male": {
                "count": 20,
                "universe": 165,
                "raw": 24
            },
            "female": {
                "count": 12,
                "universe": 98,
                "raw": 10
            }
        },
        {
            "date": "2017-03-06T00:00:00Z",
            "male": {
                "count": 14,
                "universe": 110,
                "raw": 16
            },
            "female": {
                "count": 18,
                "universe": 146,
                "raw": 15
            }
        },
        {
            "date": "2017-03-07T00:00:00Z",
            "male": {
                "count": 8,
                "universe": 62,
                "raw": 9
            },
            "female": {
                "count": 11,
                "universe": 88,
                "raw": 9
            }
        },
        {
            "date": "2017-03-08T00:00:00Z",
            "male": {
                "count": 14,
                "universe": 110,
                "raw": 16
            },
            "female": {
                "count": 18,
                "universe": 146,
                "raw": 15
            }
        },
        {
            "date": "2017-03-09T00:00:00Z",
            "male": {
                "count": 8,
                "universe": 62,
                "raw": 9
            },
            "female": {
                "count": 16,
                "universe": 127,
                "raw": 13
            }
        },
        {
            "date": "2017-03-10T00:00:00Z",
            "male": {
                "count": 7,
                "universe": 55,
                "raw": 8
            },
            "female": {
                "count": 29,
                "universe": 234,
                "raw": 24
            }
        },
        {
            "date": "2017-03-11T00:00:00Z",
            "male": {
                "count": 4,
                "universe": 34,
                "raw": 5
            },
            "female": {
                "count": 4,
                "universe": 29,
                "raw": 3
            }
        },
        {
            "date": "2017-03-12T00:00:00Z",
            "male": {
                "count": 3,
                "universe": 21,
                "raw": 3
            },
            "female": {
                "count": 5,
                "universe": 39,
                "raw": 4
            }
        },
        {
            "date": "2017-03-13T00:00:00Z",
            "male": {
                "count": 9,
                "universe": 76,
                "raw": 11
            },
            "female": {
                "count": 7,
                "universe": 59,
                "raw": 6
            }
        },
        {
            "date": "2017-03-14T00:00:00Z",
            "male": {
                "count": 7,
                "universe": 55,
                "raw": 8
            },
            "female": {
                "count": 6,
                "universe": 49,
                "raw": 5
            }
        },
        {
            "date": "2017-03-15T00:00:00Z",
            "male": {
                "count": 4,
                "universe": 34,
                "raw": 5
            },
            "female": {
                "count": 2,
                "universe": 20,
                "raw": 2
            }
        },
        {
            "date": "2017-03-16T00:00:00Z",
            "male": {
                "count": 1,
                "universe": 7,
                "raw": 1
            },
            "female": {
                "count": 4,
                "universe": 29,
                "raw": 3
            }
        },
        {
            "date": "2017-03-17T00:00:00Z",
            "male": {
                "count": 1,
                "universe": 7,
                "raw": 1
            },
            "female": {
                "count": 5,
                "universe": 39,
                "raw": 4
            }
        },
        {
            "date": "2017-03-18T00:00:00Z",
            "male": {
                "count": 4,
                "universe": 34,
                "raw": 5
            },
            "female": {
                "count": 2,
                "universe": 20,
                "raw": 2
            }
        },
        {
            "date": "2017-03-19T00:00:00Z",
            "male": {
                "count": 9,
                "universe": 76,
                "raw": 11
            },
            "female": {
                "count": 11,
                "universe": 88,
                "raw": 9
            }
        },
        {
            "date": "2017-03-20T00:00:00Z",
            "male": {
                "count": 0,
                "universe": 0,
                "raw": 0
            },
            "female": {
                "count": 1,
                "universe": 10,
                "raw": 1
            }
        }
    ]
}