{
   "taste_bar":47.0,
   "taste":16.0,
   "confidence_bar":40.0,
   "cost":20.0,
   "creativity_bar":65.0,
   "quality":23.0,
   "confidence":23.0,
   "humor":5.0,
   "health_bar":54.0,
   "acquisition_bar":40.0,
   "creativity":28.0,
   "attraction":24.0,
   "health":27.0,
   "attraction_bar":57.0,
   "expectation":75.0,
   "purchase_intent":28.0,
   "quality_bar":49.0,
   "purchase_intent_bar":39.0,
   "cost_bar":49.0,
   "services":34.0,
   "humor_bar":60.0,
   "expectation_bar":45.0,
   "services_bar":55.0,
   "acquisition":51.0
}
