[
    {
        "Size": 1,
        "color": 5,
        "negative_documents": 325.0,
        "option": "feel",
        "positive_documents": 2792.0,
        "score": 5693.2001953125,
        "topic": "better"
    },
    {
        "Size": 1,
        "color": 5,
        "negative_documents": 302.0,
        "option": "feel",
        "positive_documents": 2987.0,
        "score": 5694.54296875,
        "topic": "three"
    },
    {
        "Size": 1,
        "color": 4,
        "negative_documents": 1089.0,
        "option": "feel",
        "positive_documents": 2995.0,
        "score": 5708.43994140625,
        "topic": "down"
    },
    {
        "Size": 1,
        "color": 5,
        "negative_documents": 255.0,
        "option": "feel",
        "positive_documents": 2246.0,
        "score": 5855.11328125,
        "topic": "scene"
    },
    {
        "Size": 1,
        "color": 5,
        "negative_documents": 310.0,
        "option": "feel",
        "positive_documents": 2999.0,
        "score": 5935.9521484375,
        "topic": "start"
    },
    {
        "Size": 1,
        "color": 5,
        "negative_documents": 289.0,
        "option": "feel",
        "positive_documents": 2295.0,
        "score": 6019.40625,
        "topic": "moment"
    },
    {
        "Size": 1,
        "color": 5,
        "negative_documents": 287.0,
        "option": "feel",
        "positive_documents": 2495.0,
        "score": 6088.00390625,
        "topic": "mean"
    },
    {
        "Size": 1,
        "color": 5,
        "negative_documents": 267.0,
        "option": "feel",
        "positive_documents": 2966.0,
        "score": 6238.505859375,
        "topic": "different"
    },
    {
        "Size": 1,
        "color": 5,
        "negative_documents": 380.0,
        "option": "feel",
        "positive_documents": 2675.0,
        "score": 6242.56640625,
        "topic": "person"
    },
    {
        "Size": 1,
        "color": 5,
        "negative_documents": 370.0,
        "option": "feel",
        "positive_documents": 3003.0,
        "score": 6363.3388671875,
        "topic": "same"
    },
    {
        "Size": 1,
        "color": 5,
        "negative_documents": 541.0,
        "option": "feel",
        "positive_documents": 4225.0,
        "score": 6385.8515625,
        "topic": "Star"
    },
    {
        "Size": 1,
        "color": 5,
        "negative_documents": 369.0,
        "option": "feel",
        "positive_documents": 2668.0,
        "score": 6391.4140625,
        "topic": "talk"
    },
    {
        "Size": 1,
        "color": 5,
        "negative_documents": 174.0,
        "option": "feel",
        "positive_documents": 2277.0,
        "score": 6560.4599609375,
        "topic": "song"
    },
    {
        "Size": 1,
        "color": 4,
        "negative_documents": 995.0,
        "option": "feel",
        "positive_documents": 2785.0,
        "score": 6569.36474609375,
        "topic": "acting"
    },
    {
        "Size": 1,
        "color": 4,
        "negative_documents": 1139.0,
        "option": "feel",
        "positive_documents": 3061.0,
        "score": 6618.95458984375,
        "topic": "never"
    },
    {
        "Size": 1,
        "color": 5,
        "negative_documents": 365.0,
        "option": "feel",
        "positive_documents": 3087.0,
        "score": 6722.81884765625,
        "topic": "end"
    },
    {
        "Size": 1,
        "color": 5,
        "negative_documents": 336.0,
        "option": "feel",
        "positive_documents": 3162.0,
        "score": 6808.37744140625,
        "topic": "Hollywood"
    },
    {
        "Size": 1,
        "color": 5,
        "negative_documents": 435.0,
        "option": "feel",
        "positive_documents": 4390.0,
        "score": 6902.3681640625,
        "topic": "Actor"
    },
    {
        "Size": 1,
        "color": 5,
        "negative_documents": 420.0,
        "option": "feel",
        "positive_documents": 3417.0,
        "score": 7502.50341796875,
        "topic": "right"
    },
    {
        "Size": 2,
        "color": 5,
        "negative_documents": 266.0,
        "option": "feel",
        "positive_documents": 2648.0,
        "score": 7700.3359375,
        "topic": "audience"
    },
    {
        "Size": 2,
        "color": 5,
        "negative_documents": 287.0,
        "option": "feel",
        "positive_documents": 3075.0,
        "score": 7946.060546875,
        "topic": "role"
    },
    {
        "Size": 2,
        "color": 5,
        "negative_documents": 374.0,
        "option": "feel",
        "positive_documents": 4029.0,
        "score": 8262.4208984375,
        "topic": "good"
    },
    {
        "Size": 2,
        "color": 5,
        "negative_documents": 271.0,
        "option": "feel",
        "positive_documents": 4072.0,
        "score": 8460.8359375,
        "topic": "great"
    },
    {
        "Size": 2,
        "color": 4,
        "negative_documents": 830.0,
        "option": "feel",
        "positive_documents": 1695.0,
        "score": 8768.478515625,
        "topic": "Moonlight"
    },
    {
        "Size": 2,
        "color": 5,
        "negative_documents": 534.0,
        "option": "feel",
        "positive_documents": 4006.0,
        "score": 8866.513671875,
        "topic": "being"
    },
    {
        "Size": 2,
        "color": 5,
        "negative_documents": 259.0,
        "option": "feel",
        "positive_documents": 3358.0,
        "score": 9284.5087890625,
        "topic": "performance"
    },
    {
        "Size": 2,
        "color": 5,
        "negative_documents": 369.0,
        "option": "feel",
        "positive_documents": 3016.0,
        "score": 9314.7607421875,
        "topic": "character"
    },
    {
        "Size": 2,
        "color": 5,
        "negative_documents": 451.0,
        "option": "feel",
        "positive_documents": 3765.0,
        "score": 9356.150390625,
        "topic": "making"
    },
    {
        "Size": 3,
        "color": 5,
        "negative_documents": 430.0,
        "option": "feel",
        "positive_documents": 3991.0,
        "score": 10529.75,
        "topic": "world"
    },
    {
        "Size": 3,
        "color": 5,
        "negative_documents": 389.0,
        "option": "feel",
        "positive_documents": 3965.0,
        "score": 10748.9736328125,
        "topic": "play"
    },
    {
        "Size": 3,
        "color": 5,
        "negative_documents": 403.0,
        "option": "feel",
        "positive_documents": 4378.0,
        "score": 10960.8759765625,
        "topic": "director"
    },
    {
        "Size": 3,
        "color": 5,
        "negative_documents": 1173.0,
        "option": "feel",
        "positive_documents": 4084.0,
        "score": 11088.146484375,
        "topic": "show"
    },
    {
        "Size": 3,
        "color": 5,
        "negative_documents": 431.0,
        "option": "feel",
        "positive_documents": 3570.0,
        "score": 11309.7373046875,
        "topic": "life"
    },
    {
        "Size": 4,
        "color": 5,
        "negative_documents": 1145.0,
        "option": "feel",
        "positive_documents": 4406.0,
        "score": 12484.080078125,
        "topic": "story"
    },
    {
        "Size": 4,
        "color": 5,
        "negative_documents": 345.0,
        "option": "feel",
        "positive_documents": 4819.0,
        "score": 12809.96875,
        "topic": "love"
    },
    {
        "Size": 5,
        "color": 4,
        "negative_documents": 941.0,
        "option": "feel",
        "positive_documents": 2802.0,
        "score": 13561.61328125,
        "topic": "Land"
    },
    {
        "Size": 5,
        "color": 5,
        "negative_documents": 1088.0,
        "option": "feel",
        "positive_documents": 3913.0,
        "score": 13679.115234375,
        "topic": "win"
    },
    {
        "Size": 5,
        "color": 5,
        "negative_documents": 467.0,
        "option": "feel",
        "positive_documents": 4739.0,
        "score": 14580.962890625,
        "topic": "work"
    },
    {
        "Size": 5,
        "color": 5,
        "negative_documents": 597.0,
        "option": "feel",
        "positive_documents": 4652.0,
        "score": 15068.3623046875,
        "topic": "people"
    },
    {
        "Size": 10,
        "color": 5,
        "negative_documents": 674.0,
        "option": "feel",
        "positive_documents": 6284.0,
        "score": 24652.85546875,
        "topic": "year"
    }
]
