<?xml version="1.0" encoding="utf-8"?>
<!-- Generator: Adobe Illustrator 16.0.0, SVG Export Plug-In . SVG Version: 6.00 Build 0)  -->
<!DOCTYPE svg PUBLIC "-//W3C//DTD SVG 1.1//EN" "http://www.w3.org/Graphics/SVG/1.1/DTD/svg11.dtd">
<svg version="1.1" id="Capa_1" xmlns="http://www.w3.org/2000/svg" xmlns:xlink="http://www.w3.org/1999/xlink" x="0px" y="0px"
	 width="4251.971px" height="4251.971px" viewBox="0 0 4251.971 4251.971" enable-background="new 0 0 4251.971 4251.971"
	 xml:space="preserve">
<g>
	<defs>
		<circle id="SVGID_1_" cx="2125.985" cy="2125.985" r="1851.178"/>
	</defs>
	<clipPath id="SVGID_2_">
		<use xlink:href="#SVGID_1_"  overflow="visible"/>
	</clipPath>
	<g clip-path="url(#SVGID_2_)">
		<rect x="-141.736" y="225.298" fill="#002395" width="1511.814" height="3756.845"/>
		<rect x="1370.078" y="225.298" fill="#FFFFFF" width="1511.811" height="3756.845"/>
		<rect x="2881.902" y="225.298" fill="#ED2939" width="1511.805" height="3756.845"/>
	</g>
</g>
<path fill="#5E829F" d="M4125.681,3947.396c-140.318-68.712-263.47-209.938-366.036-419.776l-14.463-29.608l20.928-25.454
	c696.664-846.759,636.221-2071.111-140.597-2847.943C3224.01,223.111,2690.806,1.986,2124.134,1.986
	c-566.647,0-1099.851,221.125-1501.364,622.627C221.834,1025.547,1.034,1559.073,1.034,2126.922
	c0,567.204,220.8,1100.394,621.738,1501.376c400.901,400.9,934.103,621.687,1501.362,621.687
	c350.729,0,698.603-87.346,1005.994-252.579l27.564-14.81l25.764,17.759c228.607,157.477,495.854,244.205,752.513,244.205
	c47.457,0,96.631-3.793,146.107-11.273c65.494-10.123,116.357-61.225,126.545-127.074
	C4218.201,4040.451,4184.865,3976.622,4125.681,3947.396z M3919.343,4099.24c-144.254-3.181-428.579-41.294-711.937-260.761
	c-12.863-9.66-29.201-15.208-44.819-15.208c-11.655,0-24.452,3.653-35.949,10.235
	c-302.665,178.014-649.327,272.107-1002.502,272.107c-528.854,0-1025.985-205.893-1399.811-579.717
	c-373.594-373.149-579.347-870.383-579.347-1400.111c0-529.719,205.744-1027.429,579.337-1401.458
	c373.871-373.88,871.001-579.779,1399.819-579.779c528.868,0,1026.021,205.899,1399.892,579.779
	c738.721,738.738,775.339,1929.847,83.396,2711.636c-18.726,21.377-23.663,51.554-12.582,76.892
	c99.459,227.905,215.998,389.515,356.262,494.089l128.572,95.848L3919.343,4099.24z"/>
</svg>
