{
   "status":"OK",
   "positive_documents":45,
   "negative_documents":46,
   "query_info":{
      "found_from":"1970-01-01T00:00:00Z",
      "influence":"",
      "states":"",
      "linguistics_languages":"",
      "hour_min":0,
      "query":"immigration (awards NEAR/3 (oscar | academy)) | (oscars | \"oscar presenters\" | \"oscar performances\" | \"oscar nominations 2017\" | \"oscar night\" | \"oscar news\" | \"oscar live\" | \"oscar latest\" | \"oscar host\" | \"oscar coverage\" | \"oscar awards 2017\" | \"oscar 2017\") | (#oscars | \"annual academy awards\" | \"academy awards live\" | \"academy awards 2017\" | \"academy award\" | \"89th academy awards\" | \"2017 academy awards\")",
      "source_query":"",
      "id_max":0,
      "end_date":"2017-03-06T23:59:59Z",
      "hour_max":24,
      "weekdays":"",
      "languages":"",
      "watchlist_ids":"",
      "found_to":"1970-01-01T00:00:00Z",
      "start_date":"2016-12-06T00:00:00Z",
      "query_within":"",
      "hours":"",
      "categories":"",
      "id_min":0,
      "countries":"",
      "gender":"",
      "source_ids":"",
      "source_query_exclude":false,
      "dictionary_ids":"",
      "age":"",
      "firehose_id":0
   },
   "query_meta":{
      "total_from_index":6826,
      "index_result_age":391,
      "total_universe":53937,
      "total_results":6834,
      "reach":675784,
      "total_sources_est":3083,
      "sources_universe":24337,
      "linguistics_count":4830,
      "sources_from_index":3080,
      "total_spammed":8
   },
   "mix":6,
   "usage":{
      "monthly_used":568,
      "monthly_limit":1050,
      "monthly_reset":"2017-03-12T00:00:00Z",
      "hourly_used":3
   },
   "output":[
      {
         "positive_documents":0,
         "mixed_subject_sentences":0,
         "mixed_subject_documents":0,
         "positive_subject_documents":0,
         "negative_subject_sentences":0,
         "mixed_documents":0,
         "positive_sentences":0,
         "negative_documents":0,
         "positive_subject_sentences":0,
         "date":"2016-12-06T00:00:00Z",
         "mixed_sentences":0,
         "negative_sentences":0,
         "negative_subject_documents":0
      },
      {
         "positive_documents":1,
         "mixed_subject_sentences":1,
         "mixed_subject_documents":0,
         "positive_subject_documents":2,
         "negative_subject_sentences":4,
         "mixed_documents":1,
         "positive_sentences":77,
         "negative_documents":0,
         "positive_subject_sentences":11,
         "date":"2016-12-07T00:00:00Z",
         "mixed_sentences":19,
         "negative_sentences":89,
         "negative_subject_documents":0
      },
      {
         "positive_documents":2,
         "mixed_subject_sentences":3,
         "mixed_subject_documents":2,
         "positive_subject_documents":3,
         "negative_subject_sentences":7,
         "mixed_documents":0,
         "positive_sentences":169,
         "negative_documents":4,
         "positive_subject_sentences":8,
         "date":"2016-12-08T00:00:00Z",
         "mixed_sentences":14,
         "negative_sentences":122,
         "negative_subject_documents":1
      },
      {
         "positive_documents":1,
         "mixed_subject_sentences":1,
         "mixed_subject_documents":0,
         "positive_subject_documents":2,
         "negative_subject_sentences":0,
         "mixed_documents":0,
         "positive_sentences":15,
         "negative_documents":1,
         "positive_subject_sentences":7,
         "date":"2016-12-09T00:00:00Z",
         "mixed_sentences":3,
         "negative_sentences":16,
         "negative_subject_documents":0
      },
      {
         "positive_documents":0,
         "mixed_subject_sentences":0,
         "mixed_subject_documents":0,
         "positive_subject_documents":0,
         "negative_subject_sentences":0,
         "mixed_documents":0,
         "positive_sentences":0,
         "negative_documents":0,
         "positive_subject_sentences":0,
         "date":"2016-12-10T00:00:00Z",
         "mixed_sentences":0,
         "negative_sentences":0,
         "negative_subject_documents":0
      },
      {
         "positive_documents":2,
         "mixed_subject_sentences":0,
         "mixed_subject_documents":0,
         "positive_subject_documents":1,
         "negative_subject_sentences":2,
         "mixed_documents":0,
         "positive_sentences":12,
         "negative_documents":0,
         "positive_subject_sentences":2,
         "date":"2016-12-11T00:00:00Z",
         "mixed_sentences":0,
         "negative_sentences":6,
         "negative_subject_documents":0
      },
      {
         "positive_documents":1,
         "mixed_subject_sentences":2,
         "mixed_subject_documents":2,
         "positive_subject_documents":2,
         "negative_subject_sentences":3,
         "mixed_documents":2,
         "positive_sentences":33,
         "negative_documents":1,
         "positive_subject_sentences":6,
         "date":"2016-12-12T00:00:00Z",
         "mixed_sentences":4,
         "negative_sentences":33,
         "negative_subject_documents":0
      },
      {
         "positive_documents":0,
         "mixed_subject_sentences":0,
         "mixed_subject_documents":0,
         "positive_subject_documents":0,
         "negative_subject_sentences":0,
         "mixed_documents":0,
         "positive_sentences":0,
         "negative_documents":0,
         "positive_subject_sentences":0,
         "date":"2016-12-13T00:00:00Z",
         "mixed_sentences":0,
         "negative_sentences":0,
         "negative_subject_documents":0
      },
      {
         "positive_documents":0,
         "mixed_subject_sentences":0,
         "mixed_subject_documents":0,
         "positive_subject_documents":0,
         "negative_subject_sentences":0,
         "mixed_documents":0,
         "positive_sentences":0,
         "negative_documents":0,
         "positive_subject_sentences":0,
         "date":"2016-12-14T00:00:00Z",
         "mixed_sentences":0,
         "negative_sentences":0,
         "negative_subject_documents":0
      },
      {
         "positive_documents":0,
         "mixed_subject_sentences":9,
         "mixed_subject_documents":0,
         "positive_subject_documents":0,
         "negative_subject_sentences":75,
         "mixed_documents":0,
         "positive_sentences":48,
         "negative_documents":3,
         "positive_subject_sentences":48,
         "date":"2016-12-15T00:00:00Z",
         "mixed_sentences":9,
         "negative_sentences":75,
         "negative_subject_documents":3
      },
      {
         "positive_documents":3,
         "mixed_subject_sentences":0,
         "mixed_subject_documents":0,
         "positive_subject_documents":3,
         "negative_subject_sentences":5,
         "mixed_documents":0,
         "positive_sentences":270,
         "negative_documents":0,
         "positive_subject_sentences":14,
         "date":"2016-12-16T00:00:00Z",
         "mixed_sentences":16,
         "negative_sentences":137,
         "negative_subject_documents":0
      },
      {
         "positive_documents":0,
         "mixed_subject_sentences":0,
         "mixed_subject_documents":0,
         "positive_subject_documents":0,
         "negative_subject_sentences":0,
         "mixed_documents":0,
         "positive_sentences":0,
         "negative_documents":0,
         "positive_subject_sentences":0,
         "date":"2016-12-17T00:00:00Z",
         "mixed_sentences":0,
         "negative_sentences":0,
         "negative_subject_documents":0
      },
      {
         "positive_documents":4,
         "mixed_subject_sentences":2,
         "mixed_subject_documents":0,
         "positive_subject_documents":4,
         "negative_subject_sentences":4,
         "mixed_documents":0,
         "positive_sentences":93,
         "negative_documents":1,
         "positive_subject_sentences":8,
         "date":"2016-12-18T00:00:00Z",
         "mixed_sentences":10,
         "negative_sentences":44,
         "negative_subject_documents":0
      },
      {
         "positive_documents":1,
         "mixed_subject_sentences":4,
         "mixed_subject_documents":1,
         "positive_subject_documents":0,
         "negative_subject_sentences":44,
         "mixed_documents":0,
         "positive_sentences":128,
         "negative_documents":7,
         "positive_subject_sentences":21,
         "date":"2016-12-19T00:00:00Z",
         "mixed_sentences":9,
         "negative_sentences":178,
         "negative_subject_documents":7
      },
      {
         "positive_documents":0,
         "mixed_subject_sentences":0,
         "mixed_subject_documents":0,
         "positive_subject_documents":0,
         "negative_subject_sentences":0,
         "mixed_documents":0,
         "positive_sentences":0,
         "negative_documents":0,
         "positive_subject_sentences":0,
         "date":"2016-12-20T00:00:00Z",
         "mixed_sentences":0,
         "negative_sentences":0,
         "negative_subject_documents":0
      },
      {
         "positive_documents":2,
         "mixed_subject_sentences":0,
         "mixed_subject_documents":1,
         "positive_subject_documents":1,
         "negative_subject_sentences":1,
         "mixed_documents":0,
         "positive_sentences":12,
         "negative_documents":0,
         "positive_subject_sentences":6,
         "date":"2016-12-21T00:00:00Z",
         "mixed_sentences":0,
         "negative_sentences":2,
         "negative_subject_documents":0
      },
      {
         "positive_documents":1,
         "mixed_subject_sentences":0,
         "mixed_subject_documents":0,
         "positive_subject_documents":1,
         "negative_subject_sentences":0,
         "mixed_documents":0,
         "positive_sentences":15,
         "negative_documents":0,
         "positive_subject_sentences":3,
         "date":"2016-12-22T00:00:00Z",
         "mixed_sentences":1,
         "negative_sentences":8,
         "negative_subject_documents":0
      },
      {
         "positive_documents":3,
         "mixed_subject_sentences":10,
         "mixed_subject_documents":0,
         "positive_subject_documents":3,
         "negative_subject_sentences":37,
         "mixed_documents":0,
         "positive_sentences":805,
         "negative_documents":3,
         "positive_subject_sentences":19,
         "date":"2016-12-23T00:00:00Z",
         "mixed_sentences":197,
         "negative_sentences":1915,
         "negative_subject_documents":3
      },
      {
         "positive_documents":1,
         "mixed_subject_sentences":0,
         "mixed_subject_documents":0,
         "positive_subject_documents":0,
         "negative_subject_sentences":3,
         "mixed_documents":0,
         "positive_sentences":7,
         "negative_documents":0,
         "positive_subject_sentences":1,
         "date":"2016-12-24T00:00:00Z",
         "mixed_sentences":1,
         "negative_sentences":8,
         "negative_subject_documents":1
      },
      {
         "positive_documents":0,
         "mixed_subject_sentences":0,
         "mixed_subject_documents":0,
         "positive_subject_documents":0,
         "negative_subject_sentences":0,
         "mixed_documents":0,
         "positive_sentences":0,
         "negative_documents":0,
         "positive_subject_sentences":0,
         "date":"2016-12-25T00:00:00Z",
         "mixed_sentences":0,
         "negative_sentences":0,
         "negative_subject_documents":0
      },
      {
         "positive_documents":0,
         "mixed_subject_sentences":0,
         "mixed_subject_documents":0,
         "positive_subject_documents":0,
         "negative_subject_sentences":0,
         "mixed_documents":0,
         "positive_sentences":0,
         "negative_documents":0,
         "positive_subject_sentences":0,
         "date":"2016-12-26T00:00:00Z",
         "mixed_sentences":0,
         "negative_sentences":0,
         "negative_subject_documents":0
      },
      {
         "positive_documents":2,
         "mixed_subject_sentences":0,
         "mixed_subject_documents":1,
         "positive_subject_documents":0,
         "negative_subject_sentences":2,
         "mixed_documents":0,
         "positive_sentences":17,
         "negative_documents":0,
         "positive_subject_sentences":2,
         "date":"2016-12-27T00:00:00Z",
         "mixed_sentences":1,
         "negative_sentences":11,
         "negative_subject_documents":0
      },
      {
         "positive_documents":2,
         "mixed_subject_sentences":2,
         "mixed_subject_documents":0,
         "positive_subject_documents":2,
         "negative_subject_sentences":1,
         "mixed_documents":0,
         "positive_sentences":38,
         "negative_documents":0,
         "positive_subject_sentences":13,
         "date":"2016-12-28T00:00:00Z",
         "mixed_sentences":6,
         "negative_sentences":15,
         "negative_subject_documents":0
      },
      {
         "positive_documents":1,
         "mixed_subject_sentences":3,
         "mixed_subject_documents":1,
         "positive_subject_documents":1,
         "negative_subject_sentences":3,
         "mixed_documents":0,
         "positive_sentences":47,
         "negative_documents":1,
         "positive_subject_sentences":4,
         "date":"2016-12-29T00:00:00Z",
         "mixed_sentences":7,
         "negative_sentences":28,
         "negative_subject_documents":0
      },
      {
         "positive_documents":2,
         "mixed_subject_sentences":20,
         "mixed_subject_documents":3,
         "positive_subject_documents":2,
         "negative_subject_sentences":69,
         "mixed_documents":1,
         "positive_sentences":292,
         "negative_documents":8,
         "positive_subject_sentences":46,
         "date":"2016-12-30T00:00:00Z",
         "mixed_sentences":81,
         "negative_sentences":902,
         "negative_subject_documents":6
      },
      {
         "positive_documents":2,
         "mixed_subject_sentences":41,
         "mixed_subject_documents":3,
         "positive_subject_documents":0,
         "negative_subject_sentences":243,
         "mixed_documents":0,
         "positive_sentences":238,
         "negative_documents":5,
         "positive_subject_sentences":197,
         "date":"2016-12-31T00:00:00Z",
         "mixed_sentences":43,
         "negative_sentences":275,
         "negative_subject_documents":4
      },
      {
         "positive_documents":2,
         "mixed_subject_sentences":6,
         "mixed_subject_documents":0,
         "positive_subject_documents":2,
         "negative_subject_sentences":55,
         "mixed_documents":0,
         "positive_sentences":81,
         "negative_documents":2,
         "positive_subject_sentences":81,
         "date":"2017-01-01T00:00:00Z",
         "mixed_sentences":6,
         "negative_sentences":55,
         "negative_subject_documents":2
      },
      {
         "positive_documents":2,
         "mixed_subject_sentences":3,
         "mixed_subject_documents":1,
         "positive_subject_documents":1,
         "negative_subject_sentences":15,
         "mixed_documents":0,
         "positive_sentences":81,
         "negative_documents":0,
         "positive_subject_sentences":36,
         "date":"2017-01-02T00:00:00Z",
         "mixed_sentences":9,
         "negative_sentences":27,
         "negative_subject_documents":0
      },
      {
         "positive_documents":2,
         "mixed_subject_sentences":0,
         "mixed_subject_documents":0,
         "positive_subject_documents":2,
         "negative_subject_sentences":10,
         "mixed_documents":0,
         "positive_sentences":260,
         "negative_documents":1,
         "positive_subject_sentences":18,
         "date":"2017-01-03T00:00:00Z",
         "mixed_sentences":38,
         "negative_sentences":137,
         "negative_subject_documents":1
      },
      {
         "positive_documents":0,
         "mixed_subject_sentences":0,
         "mixed_subject_documents":0,
         "positive_subject_documents":0,
         "negative_subject_sentences":6,
         "mixed_documents":0,
         "positive_sentences":23,
         "negative_documents":1,
         "positive_subject_sentences":3,
         "date":"2017-01-04T00:00:00Z",
         "mixed_sentences":1,
         "negative_sentences":27,
         "negative_subject_documents":1
      },
      {
         "positive_documents":2,
         "mixed_subject_sentences":1,
         "mixed_subject_documents":1,
         "positive_subject_documents":2,
         "negative_subject_sentences":2,
         "mixed_documents":0,
         "positive_sentences":21,
         "negative_documents":1,
         "positive_subject_sentences":5,
         "date":"2017-01-05T00:00:00Z",
         "mixed_sentences":2,
         "negative_sentences":18,
         "negative_subject_documents":0
      },
      {
         "positive_documents":0,
         "mixed_subject_sentences":0,
         "mixed_subject_documents":0,
         "positive_subject_documents":0,
         "negative_subject_sentences":3,
         "mixed_documents":1,
         "positive_sentences":1,
         "negative_documents":0,
         "positive_subject_sentences":0,
         "date":"2017-01-06T00:00:00Z",
         "mixed_sentences":0,
         "negative_sentences":3,
         "negative_subject_documents":1
      },
      {
         "positive_documents":0,
         "mixed_subject_sentences":0,
         "mixed_subject_documents":0,
         "positive_subject_documents":0,
         "negative_subject_sentences":0,
         "mixed_documents":0,
         "positive_sentences":0,
         "negative_documents":0,
         "positive_subject_sentences":0,
         "date":"2017-01-07T00:00:00Z",
         "mixed_sentences":0,
         "negative_sentences":0,
         "negative_subject_documents":0
      },
      {
         "positive_documents":1,
         "mixed_subject_sentences":2,
         "mixed_subject_documents":1,
         "positive_subject_documents":1,
         "negative_subject_sentences":6,
         "mixed_documents":0,
         "positive_sentences":51,
         "negative_documents":2,
         "positive_subject_sentences":8,
         "date":"2017-01-08T00:00:00Z",
         "mixed_sentences":13,
         "negative_sentences":48,
         "negative_subject_documents":1
      },
      {
         "positive_documents":15,
         "mixed_subject_sentences":14,
         "mixed_subject_documents":1,
         "positive_subject_documents":15,
         "negative_subject_sentences":31,
         "mixed_documents":1,
         "positive_sentences":103,
         "negative_documents":2,
         "positive_subject_sentences":58,
         "date":"2017-01-09T00:00:00Z",
         "mixed_sentences":28,
         "negative_sentences":97,
         "negative_subject_documents":2
      },
      {
         "positive_documents":1,
         "mixed_subject_sentences":4,
         "mixed_subject_documents":0,
         "positive_subject_documents":2,
         "negative_subject_sentences":14,
         "mixed_documents":0,
         "positive_sentences":24,
         "negative_documents":3,
         "positive_subject_sentences":16,
         "date":"2017-01-10T00:00:00Z",
         "mixed_sentences":10,
         "negative_sentences":33,
         "negative_subject_documents":2
      },
      {
         "positive_documents":0,
         "mixed_subject_sentences":0,
         "mixed_subject_documents":0,
         "positive_subject_documents":0,
         "negative_subject_sentences":9,
         "mixed_documents":1,
         "positive_sentences":23,
         "negative_documents":2,
         "positive_subject_sentences":3,
         "date":"2017-01-11T00:00:00Z",
         "mixed_sentences":3,
         "negative_sentences":66,
         "negative_subject_documents":3
      },
      {
         "positive_documents":8,
         "mixed_subject_sentences":0,
         "mixed_subject_documents":0,
         "positive_subject_documents":7,
         "negative_subject_sentences":20,
         "mixed_documents":1,
         "positive_sentences":86,
         "negative_documents":1,
         "positive_subject_sentences":63,
         "date":"2017-01-12T00:00:00Z",
         "mixed_sentences":10,
         "negative_sentences":43,
         "negative_subject_documents":3
      },
      {
         "positive_documents":3,
         "mixed_subject_sentences":3,
         "mixed_subject_documents":1,
         "positive_subject_documents":3,
         "negative_subject_sentences":7,
         "mixed_documents":0,
         "positive_sentences":58,
         "negative_documents":2,
         "positive_subject_sentences":12,
         "date":"2017-01-13T00:00:00Z",
         "mixed_sentences":7,
         "negative_sentences":71,
         "negative_subject_documents":1
      },
      {
         "positive_documents":1,
         "mixed_subject_sentences":2,
         "mixed_subject_documents":0,
         "positive_subject_documents":1,
         "negative_subject_sentences":16,
         "mixed_documents":0,
         "positive_sentences":41,
         "negative_documents":0,
         "positive_subject_sentences":41,
         "date":"2017-01-14T00:00:00Z",
         "mixed_sentences":2,
         "negative_sentences":16,
         "negative_subject_documents":0
      },
      {
         "positive_documents":3,
         "mixed_subject_sentences":9,
         "mixed_subject_documents":0,
         "positive_subject_documents":4,
         "negative_subject_sentences":14,
         "mixed_documents":0,
         "positive_sentences":129,
         "negative_documents":1,
         "positive_subject_sentences":109,
         "date":"2017-01-15T00:00:00Z",
         "mixed_sentences":11,
         "negative_sentences":35,
         "negative_subject_documents":0
      },
      {
         "positive_documents":3,
         "mixed_subject_sentences":2,
         "mixed_subject_documents":2,
         "positive_subject_documents":1,
         "negative_subject_sentences":0,
         "mixed_documents":0,
         "positive_sentences":150,
         "negative_documents":0,
         "positive_subject_sentences":4,
         "date":"2017-01-16T00:00:00Z",
         "mixed_sentences":7,
         "negative_sentences":33,
         "negative_subject_documents":0
      },
      {
         "positive_documents":1,
         "mixed_subject_sentences":0,
         "mixed_subject_documents":1,
         "positive_subject_documents":2,
         "negative_subject_sentences":6,
         "mixed_documents":1,
         "positive_sentences":25,
         "negative_documents":1,
         "positive_subject_sentences":9,
         "date":"2017-01-17T00:00:00Z",
         "mixed_sentences":2,
         "negative_sentences":26,
         "negative_subject_documents":0
      },
      {
         "positive_documents":1,
         "mixed_subject_sentences":2,
         "mixed_subject_documents":0,
         "positive_subject_documents":2,
         "negative_subject_sentences":9,
         "mixed_documents":0,
         "positive_sentences":49,
         "negative_documents":2,
         "positive_subject_sentences":23,
         "date":"2017-01-18T00:00:00Z",
         "mixed_sentences":13,
         "negative_sentences":44,
         "negative_subject_documents":1
      },
      {
         "positive_documents":3,
         "mixed_subject_sentences":3,
         "mixed_subject_documents":3,
         "positive_subject_documents":1,
         "negative_subject_sentences":18,
         "mixed_documents":0,
         "positive_sentences":174,
         "negative_documents":3,
         "positive_subject_sentences":20,
         "date":"2017-01-19T00:00:00Z",
         "mixed_sentences":11,
         "negative_sentences":69,
         "negative_subject_documents":2
      },
      {
         "positive_documents":2,
         "mixed_subject_sentences":1,
         "mixed_subject_documents":2,
         "positive_subject_documents":1,
         "negative_subject_sentences":5,
         "mixed_documents":0,
         "positive_sentences":17,
         "negative_documents":1,
         "positive_subject_sentences":7,
         "date":"2017-01-20T00:00:00Z",
         "mixed_sentences":3,
         "negative_sentences":15,
         "negative_subject_documents":0
      },
      {
         "positive_documents":2,
         "mixed_subject_sentences":1,
         "mixed_subject_documents":2,
         "positive_subject_documents":1,
         "negative_subject_sentences":1,
         "mixed_documents":0,
         "positive_sentences":57,
         "negative_documents":1,
         "positive_subject_sentences":4,
         "date":"2017-01-21T00:00:00Z",
         "mixed_sentences":7,
         "negative_sentences":43,
         "negative_subject_documents":0
      },
      {
         "positive_documents":1,
         "mixed_subject_sentences":7,
         "mixed_subject_documents":0,
         "positive_subject_documents":2,
         "negative_subject_sentences":10,
         "mixed_documents":0,
         "positive_sentences":107,
         "negative_documents":2,
         "positive_subject_sentences":85,
         "date":"2017-01-22T00:00:00Z",
         "mixed_sentences":21,
         "negative_sentences":49,
         "negative_subject_documents":1
      },
      {
         "positive_documents":1,
         "mixed_subject_sentences":1,
         "mixed_subject_documents":1,
         "positive_subject_documents":1,
         "negative_subject_sentences":11,
         "mixed_documents":0,
         "positive_sentences":46,
         "negative_documents":2,
         "positive_subject_sentences":15,
         "date":"2017-01-23T00:00:00Z",
         "mixed_sentences":5,
         "negative_sentences":71,
         "negative_subject_documents":1
      },
      {
         "positive_documents":26,
         "mixed_subject_sentences":4,
         "mixed_subject_documents":3,
         "positive_subject_documents":26,
         "negative_subject_sentences":33,
         "mixed_documents":0,
         "positive_sentences":134,
         "negative_documents":3,
         "positive_subject_sentences":46,
         "date":"2017-01-24T00:00:00Z",
         "mixed_sentences":19,
         "negative_sentences":136,
         "negative_subject_documents":0
      },
      {
         "positive_documents":10,
         "mixed_subject_sentences":11,
         "mixed_subject_documents":10,
         "positive_subject_documents":7,
         "negative_subject_sentences":54,
         "mixed_documents":3,
         "positive_sentences":252,
         "negative_documents":14,
         "positive_subject_sentences":45,
         "date":"2017-01-25T00:00:00Z",
         "mixed_sentences":38,
         "negative_sentences":316,
         "negative_subject_documents":9
      },
      {
         "positive_documents":15,
         "mixed_subject_sentences":13,
         "mixed_subject_documents":40,
         "positive_subject_documents":15,
         "negative_subject_sentences":139,
         "mixed_documents":11,
         "positive_sentences":226,
         "negative_documents":32,
         "positive_subject_sentences":195,
         "date":"2017-01-26T00:00:00Z",
         "mixed_sentences":18,
         "negative_sentences":176,
         "negative_subject_documents":29
      },
      {
         "positive_documents":31,
         "mixed_subject_sentences":19,
         "mixed_subject_documents":15,
         "positive_subject_documents":32,
         "negative_subject_sentences":73,
         "mixed_documents":5,
         "positive_sentences":248,
         "negative_documents":10,
         "positive_subject_sentences":160,
         "date":"2017-01-27T00:00:00Z",
         "mixed_sentences":29,
         "negative_sentences":130,
         "negative_subject_documents":9
      },
      {
         "positive_documents":14,
         "mixed_subject_sentences":107,
         "mixed_subject_documents":42,
         "positive_subject_documents":17,
         "negative_subject_sentences":880,
         "mixed_documents":17,
         "positive_sentences":540,
         "negative_documents":152,
         "positive_subject_sentences":332,
         "date":"2017-01-28T00:00:00Z",
         "mixed_sentences":169,
         "negative_sentences":1484,
         "negative_subject_documents":137
      },
      {
         "positive_documents":71,
         "mixed_subject_sentences":337,
         "mixed_subject_documents":93,
         "positive_subject_documents":73,
         "negative_subject_sentences":2523,
         "mixed_documents":26,
         "positive_sentences":2143,
         "negative_documents":283,
         "positive_subject_sentences":1478,
         "date":"2017-01-29T00:00:00Z",
         "mixed_sentences":501,
         "negative_sentences":3739,
         "negative_subject_documents":254
      },
      {
         "positive_documents":136,
         "mixed_subject_sentences":286,
         "mixed_subject_documents":58,
         "positive_subject_documents":117,
         "negative_subject_sentences":1907,
         "mixed_documents":19,
         "positive_sentences":2601,
         "negative_documents":119,
         "positive_subject_sentences":2072,
         "date":"2017-01-30T00:00:00Z",
         "mixed_sentences":378,
         "negative_sentences":2664,
         "negative_subject_documents":116
      },
      {
         "positive_documents":24,
         "mixed_subject_sentences":58,
         "mixed_subject_documents":19,
         "positive_subject_documents":26,
         "negative_subject_sentences":350,
         "mixed_documents":3,
         "positive_sentences":404,
         "negative_documents":49,
         "positive_subject_sentences":258,
         "date":"2017-01-31T00:00:00Z",
         "mixed_sentences":98,
         "negative_sentences":630,
         "negative_subject_documents":33
      },
      {
         "positive_documents":20,
         "mixed_subject_sentences":54,
         "mixed_subject_documents":28,
         "positive_subject_documents":20,
         "negative_subject_sentences":356,
         "mixed_documents":7,
         "positive_sentences":395,
         "negative_documents":55,
         "positive_subject_sentences":214,
         "date":"2017-02-01T00:00:00Z",
         "mixed_sentences":88,
         "negative_sentences":573,
         "negative_subject_documents":43
      },
      {
         "positive_documents":27,
         "mixed_subject_sentences":50,
         "mixed_subject_documents":30,
         "positive_subject_documents":9,
         "negative_subject_sentences":304,
         "mixed_documents":4,
         "positive_sentences":454,
         "negative_documents":40,
         "positive_subject_sentences":163,
         "date":"2017-02-02T00:00:00Z",
         "mixed_sentences":97,
         "negative_sentences":612,
         "negative_subject_documents":36
      },
      {
         "positive_documents":12,
         "mixed_subject_sentences":20,
         "mixed_subject_documents":21,
         "positive_subject_documents":9,
         "negative_subject_sentences":112,
         "mixed_documents":7,
         "positive_sentences":322,
         "negative_documents":11,
         "positive_subject_sentences":85,
         "date":"2017-02-03T00:00:00Z",
         "mixed_sentences":60,
         "negative_sentences":389,
         "negative_subject_documents":11
      },
      {
         "positive_documents":10,
         "mixed_subject_sentences":11,
         "mixed_subject_documents":5,
         "positive_subject_documents":9,
         "negative_subject_sentences":51,
         "mixed_documents":0,
         "positive_sentences":159,
         "negative_documents":6,
         "positive_subject_sentences":95,
         "date":"2017-02-04T00:00:00Z",
         "mixed_sentences":25,
         "negative_sentences":165,
         "negative_subject_documents":2
      },
      {
         "positive_documents":33,
         "mixed_subject_sentences":51,
         "mixed_subject_documents":30,
         "positive_subject_documents":31,
         "negative_subject_sentences":223,
         "mixed_documents":25,
         "positive_sentences":397,
         "negative_documents":13,
         "positive_subject_sentences":379,
         "date":"2017-02-05T00:00:00Z",
         "mixed_sentences":56,
         "negative_sentences":241,
         "negative_subject_documents":13
      },
      {
         "positive_documents":16,
         "mixed_subject_sentences":51,
         "mixed_subject_documents":15,
         "positive_subject_documents":11,
         "negative_subject_sentences":166,
         "mixed_documents":4,
         "positive_sentences":331,
         "negative_documents":13,
         "positive_subject_sentences":151,
         "date":"2017-02-06T00:00:00Z",
         "mixed_sentences":75,
         "negative_sentences":272,
         "negative_subject_documents":11
      },
      {
         "positive_documents":12,
         "mixed_subject_sentences":15,
         "mixed_subject_documents":5,
         "positive_subject_documents":9,
         "negative_subject_sentences":76,
         "mixed_documents":3,
         "positive_sentences":247,
         "negative_documents":7,
         "positive_subject_sentences":124,
         "date":"2017-02-07T00:00:00Z",
         "mixed_sentences":43,
         "negative_sentences":219,
         "negative_subject_documents":10
      },
      {
         "positive_documents":11,
         "mixed_subject_sentences":40,
         "mixed_subject_documents":6,
         "positive_subject_documents":10,
         "negative_subject_sentences":176,
         "mixed_documents":2,
         "positive_sentences":253,
         "negative_documents":29,
         "positive_subject_sentences":120,
         "date":"2017-02-08T00:00:00Z",
         "mixed_sentences":80,
         "negative_sentences":312,
         "negative_subject_documents":26
      },
      {
         "positive_documents":12,
         "mixed_subject_sentences":23,
         "mixed_subject_documents":5,
         "positive_subject_documents":11,
         "negative_subject_sentences":94,
         "mixed_documents":3,
         "positive_sentences":175,
         "negative_documents":18,
         "positive_subject_sentences":98,
         "date":"2017-02-09T00:00:00Z",
         "mixed_sentences":39,
         "negative_sentences":169,
         "negative_subject_documents":15
      },
      {
         "positive_documents":16,
         "mixed_subject_sentences":34,
         "mixed_subject_documents":103,
         "positive_subject_documents":11,
         "negative_subject_sentences":110,
         "mixed_documents":2,
         "positive_sentences":255,
         "negative_documents":14,
         "positive_subject_sentences":112,
         "date":"2017-02-10T00:00:00Z",
         "mixed_sentences":56,
         "negative_sentences":285,
         "negative_subject_documents":15
      },
      {
         "positive_documents":11,
         "mixed_subject_sentences":14,
         "mixed_subject_documents":4,
         "positive_subject_documents":6,
         "negative_subject_sentences":47,
         "mixed_documents":0,
         "positive_sentences":185,
         "negative_documents":3,
         "positive_subject_sentences":69,
         "date":"2017-02-11T00:00:00Z",
         "mixed_sentences":36,
         "negative_sentences":103,
         "negative_subject_documents":4
      },
      {
         "positive_documents":4,
         "mixed_subject_sentences":14,
         "mixed_subject_documents":1,
         "positive_subject_documents":4,
         "negative_subject_sentences":34,
         "mixed_documents":0,
         "positive_sentences":263,
         "negative_documents":3,
         "positive_subject_sentences":58,
         "date":"2017-02-12T00:00:00Z",
         "mixed_sentences":75,
         "negative_sentences":170,
         "negative_subject_documents":2
      },
      {
         "positive_documents":22,
         "mixed_subject_sentences":24,
         "mixed_subject_documents":12,
         "positive_subject_documents":19,
         "negative_subject_sentences":94,
         "mixed_documents":6,
         "positive_sentences":362,
         "negative_documents":8,
         "positive_subject_sentences":121,
         "date":"2017-02-13T00:00:00Z",
         "mixed_sentences":73,
         "negative_sentences":264,
         "negative_subject_documents":5
      },
      {
         "positive_documents":14,
         "mixed_subject_sentences":20,
         "mixed_subject_documents":12,
         "positive_subject_documents":10,
         "negative_subject_sentences":93,
         "mixed_documents":3,
         "positive_sentences":238,
         "negative_documents":12,
         "positive_subject_sentences":139,
         "date":"2017-02-14T00:00:00Z",
         "mixed_sentences":38,
         "negative_sentences":202,
         "negative_subject_documents":9
      },
      {
         "positive_documents":14,
         "mixed_subject_sentences":29,
         "mixed_subject_documents":17,
         "positive_subject_documents":9,
         "negative_subject_sentences":78,
         "mixed_documents":4,
         "positive_sentences":147,
         "negative_documents":21,
         "positive_subject_sentences":89,
         "date":"2017-02-15T00:00:00Z",
         "mixed_sentences":35,
         "negative_sentences":154,
         "negative_subject_documents":16
      },
      {
         "positive_documents":17,
         "mixed_subject_sentences":39,
         "mixed_subject_documents":12,
         "positive_subject_documents":20,
         "negative_subject_sentences":169,
         "mixed_documents":9,
         "positive_sentences":267,
         "negative_documents":19,
         "positive_subject_sentences":181,
         "date":"2017-02-16T00:00:00Z",
         "mixed_sentences":48,
         "negative_sentences":290,
         "negative_subject_documents":13
      },
      {
         "positive_documents":25,
         "mixed_subject_sentences":44,
         "mixed_subject_documents":8,
         "positive_subject_documents":23,
         "negative_subject_sentences":130,
         "mixed_documents":12,
         "positive_sentences":333,
         "negative_documents":7,
         "positive_subject_sentences":212,
         "date":"2017-02-17T00:00:00Z",
         "mixed_sentences":75,
         "negative_sentences":279,
         "negative_subject_documents":14
      },
      {
         "positive_documents":3,
         "mixed_subject_sentences":3,
         "mixed_subject_documents":5,
         "positive_subject_documents":3,
         "negative_subject_sentences":19,
         "mixed_documents":1,
         "positive_sentences":96,
         "negative_documents":7,
         "positive_subject_sentences":18,
         "date":"2017-02-18T00:00:00Z",
         "mixed_sentences":15,
         "negative_sentences":125,
         "negative_subject_documents":3
      },
      {
         "positive_documents":10,
         "mixed_subject_sentences":21,
         "mixed_subject_documents":4,
         "positive_subject_documents":8,
         "negative_subject_sentences":63,
         "mixed_documents":1,
         "positive_sentences":223,
         "negative_documents":4,
         "positive_subject_sentences":170,
         "date":"2017-02-19T00:00:00Z",
         "mixed_sentences":27,
         "negative_sentences":114,
         "negative_subject_documents":3
      },
      {
         "positive_documents":141,
         "mixed_subject_sentences":147,
         "mixed_subject_documents":134,
         "positive_subject_documents":16,
         "negative_subject_sentences":105,
         "mixed_documents":2,
         "positive_sentences":1301,
         "negative_documents":14,
         "positive_subject_sentences":178,
         "date":"2017-02-20T00:00:00Z",
         "mixed_sentences":289,
         "negative_sentences":841,
         "negative_subject_documents":9
      },
      {
         "positive_documents":75,
         "mixed_subject_sentences":79,
         "mixed_subject_documents":74,
         "positive_subject_documents":7,
         "negative_subject_sentences":79,
         "mixed_documents":2,
         "positive_sentences":686,
         "negative_documents":17,
         "positive_subject_sentences":66,
         "date":"2017-02-21T00:00:00Z",
         "mixed_sentences":171,
         "negative_sentences":543,
         "negative_subject_documents":13
      },
      {
         "positive_documents":19,
         "mixed_subject_sentences":25,
         "mixed_subject_documents":10,
         "positive_subject_documents":12,
         "negative_subject_sentences":132,
         "mixed_documents":0,
         "positive_sentences":392,
         "negative_documents":15,
         "positive_subject_sentences":217,
         "date":"2017-02-22T00:00:00Z",
         "mixed_sentences":51,
         "negative_sentences":290,
         "negative_subject_documents":12
      },
      {
         "positive_documents":35,
         "mixed_subject_sentences":52,
         "mixed_subject_documents":24,
         "positive_subject_documents":23,
         "negative_subject_sentences":223,
         "mixed_documents":2,
         "positive_sentences":882,
         "negative_documents":29,
         "positive_subject_sentences":314,
         "date":"2017-02-23T00:00:00Z",
         "mixed_sentences":162,
         "negative_sentences":713,
         "negative_subject_documents":24
      },
      {
         "positive_documents":46,
         "mixed_subject_sentences":59,
         "mixed_subject_documents":38,
         "positive_subject_documents":34,
         "negative_subject_sentences":263,
         "mixed_documents":3,
         "positive_sentences":666,
         "negative_documents":24,
         "positive_subject_sentences":409,
         "date":"2017-02-24T00:00:00Z",
         "mixed_sentences":97,
         "negative_sentences":512,
         "negative_subject_documents":20
      },
      {
         "positive_documents":167,
         "mixed_subject_sentences":155,
         "mixed_subject_documents":288,
         "positive_subject_documents":103,
         "negative_subject_sentences":765,
         "mixed_documents":38,
         "positive_sentences":1481,
         "negative_documents":155,
         "positive_subject_sentences":1051,
         "date":"2017-02-25T00:00:00Z",
         "mixed_sentences":234,
         "negative_sentences":1343,
         "negative_subject_documents":121
      },
      {
         "positive_documents":107,
         "mixed_subject_sentences":162,
         "mixed_subject_documents":48,
         "positive_subject_documents":109,
         "negative_subject_sentences":779,
         "mixed_documents":17,
         "positive_sentences":1270,
         "negative_documents":71,
         "positive_subject_sentences":929,
         "date":"2017-02-26T00:00:00Z",
         "mixed_sentences":225,
         "negative_sentences":1196,
         "negative_subject_documents":61
      },
      {
         "positive_documents":352,
         "mixed_subject_sentences":565,
         "mixed_subject_documents":125,
         "positive_subject_documents":330,
         "negative_subject_sentences":3022,
         "mixed_documents":76,
         "positive_sentences":4921,
         "negative_documents":364,
         "positive_subject_sentences":3972,
         "date":"2017-02-27T00:00:00Z",
         "mixed_sentences":741,
         "negative_sentences":4025,
         "negative_subject_documents":350
      },
      {
         "positive_documents":97,
         "mixed_subject_sentences":163,
         "mixed_subject_documents":69,
         "positive_subject_documents":80,
         "negative_subject_sentences":1025,
         "mixed_documents":28,
         "positive_sentences":3399,
         "negative_documents":117,
         "positive_subject_sentences":1045,
         "date":"2017-02-28T00:00:00Z",
         "mixed_sentences":428,
         "negative_sentences":2441,
         "negative_subject_documents":96
      },
      {
         "positive_documents":45,
         "mixed_subject_sentences":56,
         "mixed_subject_documents":19,
         "positive_subject_documents":42,
         "negative_subject_sentences":294,
         "mixed_documents":8,
         "positive_sentences":1133,
         "negative_documents":43,
         "positive_subject_sentences":326,
         "date":"2017-03-01T00:00:00Z",
         "mixed_sentences":144,
         "negative_sentences":911,
         "negative_subject_documents":34
      },
      {
         "positive_documents":34,
         "mixed_subject_sentences":66,
         "mixed_subject_documents":22,
         "positive_subject_documents":25,
         "negative_subject_sentences":296,
         "mixed_documents":7,
         "positive_sentences":1498,
         "negative_documents":21,
         "positive_subject_sentences":561,
         "date":"2017-03-02T00:00:00Z",
         "mixed_sentences":137,
         "negative_sentences":649,
         "negative_subject_documents":19
      },
      {
         "positive_documents":22,
         "mixed_subject_sentences":11,
         "mixed_subject_documents":11,
         "positive_subject_documents":16,
         "negative_subject_sentences":63,
         "mixed_documents":4,
         "positive_sentences":1035,
         "negative_documents":12,
         "positive_subject_sentences":63,
         "date":"2017-03-03T00:00:00Z",
         "mixed_sentences":82,
         "negative_sentences":536,
         "negative_subject_documents":10
      },
      {
         "positive_documents":20,
         "mixed_subject_sentences":10,
         "mixed_subject_documents":10,
         "positive_subject_documents":14,
         "negative_subject_sentences":66,
         "mixed_documents":2,
         "positive_sentences":1152,
         "negative_documents":15,
         "positive_subject_sentences":54,
         "date":"2017-03-04T00:00:00Z",
         "mixed_sentences":74,
         "negative_sentences":463,
         "negative_subject_documents":13
      },
      {
         "positive_documents":13,
         "positive_subject_sentences":72,
         "mixed_subject_sentences":8,
         "negative_subject_sentences":82,
         "positive_sentences":767,
         "negative_documents":11,
         "date":"2017-03-05T00:00:00Z",
         "mixed_sentences":54,
         "negative_sentences":362,
         "mixed_documents":3
      },
      {
         "positive_documents":4,
         "positive_subject_sentences":13,
         "mixed_subject_sentences":1,
         "negative_subject_sentences":32,
         "positive_sentences":609,
         "negative_documents":9,
         "date":"2017-03-06T00:00:00Z",
         "mixed_sentences":31,
         "negative_sentences":214,
         "mixed_documents":2
      }
   ],
   "Documents_Positivity":45,
   "Documents_Negativity":46,
   "Mix": 6 ,
   "Sumatory_documents_positive":1894,
   "status_message":"OK",
   "Mixed_documents":380,
   "Sumatory_documents_negative":1954
}
