{
   "status":"OK",
   "query_info":{
      "found_from":"1970-01-01T00:00:00Z",
      "influence":"",
      "states":"",
      "linguistics_languages":"",
      "hour_min":0,
      "query":"immigration (awards NEAR/3 (oscar | academy)) | (oscars | \"oscar presenters\" | \"oscar performances\" | \"oscar nominations 2017\" | \"oscar night\" | \"oscar news\" | \"oscar live\" | \"oscar latest\" | \"oscar host\" | \"oscar coverage\" | \"oscar awards 2017\" | \"oscar 2017\") | (#oscars | \"annual academy awards\" | \"academy awards live\" | \"academy awards 2017\" | \"academy award\" | \"89th academy awards\" | \"2017 academy awards\")",
      "source_query":"",
      "id_max":0,
      "end_date":"2017-03-06T23:59:59Z",
      "hour_max":24,
      "weekdays":"",
      "languages":"",
      "watchlist_ids":"",
      "found_to":"1970-01-01T00:00:00Z",
      "start_date":"2016-12-06T00:00:00Z",
      "query_within":"",
      "hours":"",
      "categories":"",
      "id_min":0,
      "countries":"",
      "gender":"",
      "source_ids":"",
      "source_query_exclude":false,
      "dictionary_ids":"",
      "age":"",
      "firehose_id":0
   },
   "query_meta":{
      "total_from_index":6826,
      "index_result_age":391,
      "total_universe":53937,
      "total_results":6834,
      "reach":675784,
      "total_sources_est":3083,
      "sources_universe":24337,
      "linguistics_count":4830,
      "sources_from_index":3080,
      "total_spammed":8
   },
   "mix":6,
   "usage":{
      "monthly_used":568,
      "monthly_limit":1050,
      "monthly_reset":"2017-03-12T00:00:00Z",
      "hourly_used":3
   },
   "output":[
      {
         "mixed_subject_sentences":0,
         "date":"2016-12-06T00:00:00Z",
         "negative_subject_sentences":0,
         "positive_subject_sentences":0
      },
      {
         "mixed_subject_sentences":1,
         "date":"2016-12-07T00:00:00Z",
         "negative_subject_sentences":4,
         "positive_subject_sentences":11
      },
      {
         "mixed_subject_sentences":3,
         "date":"2016-12-08T00:00:00Z",
         "negative_subject_sentences":7,
         "positive_subject_sentences":8
      },
      {
         "mixed_subject_sentences":1,
         "date":"2016-12-09T00:00:00Z",
         "negative_subject_sentences":0,
         "positive_subject_sentences":7
      },
      {
         "mixed_subject_sentences":0,
         "date":"2016-12-10T00:00:00Z",
         "negative_subject_sentences":0,
         "positive_subject_sentences":0
      },
      {
         "mixed_subject_sentences":0,
         "date":"2016-12-11T00:00:00Z",
         "negative_subject_sentences":2,
         "positive_subject_sentences":2
      },
      {
         "mixed_subject_sentences":2,
         "date":"2016-12-12T00:00:00Z",
         "negative_subject_sentences":3,
         "positive_subject_sentences":6
      },
      {
         "mixed_subject_sentences":0,
         "date":"2016-12-13T00:00:00Z",
         "negative_subject_sentences":0,
         "positive_subject_sentences":0
      },
      {
         "mixed_subject_sentences":0,
         "date":"2016-12-14T00:00:00Z",
         "negative_subject_sentences":0,
         "positive_subject_sentences":0
      },
      {
         "mixed_subject_sentences":9,
         "date":"2016-12-15T00:00:00Z",
         "negative_subject_sentences":75,
         "positive_subject_sentences":48
      },
      {
         "mixed_subject_sentences":0,
         "date":"2016-12-16T00:00:00Z",
         "negative_subject_sentences":5,
         "positive_subject_sentences":14
      },
      {
         "mixed_subject_sentences":0,
         "date":"2016-12-17T00:00:00Z",
         "negative_subject_sentences":0,
         "positive_subject_sentences":0
      },
      {
         "mixed_subject_sentences":2,
         "date":"2016-12-18T00:00:00Z",
         "negative_subject_sentences":4,
         "positive_subject_sentences":8
      },
      {
         "mixed_subject_sentences":4,
         "date":"2016-12-19T00:00:00Z",
         "negative_subject_sentences":44,
         "positive_subject_sentences":21
      },
      {
         "mixed_subject_sentences":0,
         "date":"2016-12-20T00:00:00Z",
         "negative_subject_sentences":0,
         "positive_subject_sentences":0
      },
      {
         "mixed_subject_sentences":0,
         "date":"2016-12-21T00:00:00Z",
         "negative_subject_sentences":1,
         "positive_subject_sentences":6
      },
      {
         "mixed_subject_sentences":0,
         "date":"2016-12-22T00:00:00Z",
         "negative_subject_sentences":0,
         "positive_subject_sentences":3
      },
      {
         "mixed_subject_sentences":10,
         "date":"2016-12-23T00:00:00Z",
         "negative_subject_sentences":37,
         "positive_subject_sentences":19
      },
      {
         "mixed_subject_sentences":0,
         "date":"2016-12-24T00:00:00Z",
         "negative_subject_sentences":3,
         "positive_subject_sentences":1
      },
      {
         "mixed_subject_sentences":0,
         "date":"2016-12-25T00:00:00Z",
         "negative_subject_sentences":0,
         "positive_subject_sentences":0
      },
      {
         "mixed_subject_sentences":0,
         "date":"2016-12-26T00:00:00Z",
         "negative_subject_sentences":0,
         "positive_subject_sentences":0
      },
      {
         "mixed_subject_sentences":0,
         "date":"2016-12-27T00:00:00Z",
         "negative_subject_sentences":2,
         "positive_subject_sentences":2
      },
      {
         "mixed_subject_sentences":2,
         "date":"2016-12-28T00:00:00Z",
         "negative_subject_sentences":1,
         "positive_subject_sentences":13
      },
      {
         "mixed_subject_sentences":3,
         "date":"2016-12-29T00:00:00Z",
         "negative_subject_sentences":3,
         "positive_subject_sentences":4
      },
      {
         "mixed_subject_sentences":20,
         "date":"2016-12-30T00:00:00Z",
         "negative_subject_sentences":69,
         "positive_subject_sentences":46
      },
      {
         "mixed_subject_sentences":41,
         "date":"2016-12-31T00:00:00Z",
         "negative_subject_sentences":243,
         "positive_subject_sentences":197
      },
      {
         "mixed_subject_sentences":6,
         "date":"2017-01-01T00:00:00Z",
         "negative_subject_sentences":55,
         "positive_subject_sentences":81
      },
      {
         "mixed_subject_sentences":3,
         "date":"2017-01-02T00:00:00Z",
         "negative_subject_sentences":15,
         "positive_subject_sentences":36
      },
      {
         "mixed_subject_sentences":0,
         "date":"2017-01-03T00:00:00Z",
         "negative_subject_sentences":10,
         "positive_subject_sentences":18
      },
      {
         "mixed_subject_sentences":0,
         "date":"2017-01-04T00:00:00Z",
         "negative_subject_sentences":6,
         "positive_subject_sentences":3
      },
      {
         "mixed_subject_sentences":1,
         "date":"2017-01-05T00:00:00Z",
         "negative_subject_sentences":2,
         "positive_subject_sentences":5
      },
      {
         "mixed_subject_sentences":0,
         "date":"2017-01-06T00:00:00Z",
         "negative_subject_sentences":3,
         "positive_subject_sentences":0
      },
      {
         "mixed_subject_sentences":0,
         "date":"2017-01-07T00:00:00Z",
         "negative_subject_sentences":0,
         "positive_subject_sentences":0
      },
      {
         "mixed_subject_sentences":2,
         "date":"2017-01-08T00:00:00Z",
         "negative_subject_sentences":6,
         "positive_subject_sentences":8
      },
      {
         "mixed_subject_sentences":14,
         "date":"2017-01-09T00:00:00Z",
         "negative_subject_sentences":31,
         "positive_subject_sentences":58
      },
      {
         "mixed_subject_sentences":4,
         "date":"2017-01-10T00:00:00Z",
         "negative_subject_sentences":14,
         "positive_subject_sentences":16
      },
      {
         "mixed_subject_sentences":0,
         "date":"2017-01-11T00:00:00Z",
         "negative_subject_sentences":9,
         "positive_subject_sentences":3
      },
      {
         "mixed_subject_sentences":0,
         "date":"2017-01-12T00:00:00Z",
         "negative_subject_sentences":20,
         "positive_subject_sentences":63
      },
      {
         "mixed_subject_sentences":3,
         "date":"2017-01-13T00:00:00Z",
         "negative_subject_sentences":7,
         "positive_subject_sentences":12
      },
      {
         "mixed_subject_sentences":2,
         "date":"2017-01-14T00:00:00Z",
         "negative_subject_sentences":16,
         "positive_subject_sentences":41
      },
      {
         "mixed_subject_sentences":9,
         "date":"2017-01-15T00:00:00Z",
         "negative_subject_sentences":14,
         "positive_subject_sentences":109
      },
      {
         "mixed_subject_sentences":2,
         "date":"2017-01-16T00:00:00Z",
         "negative_subject_sentences":0,
         "positive_subject_sentences":4
      },
      {
         "mixed_subject_sentences":0,
         "date":"2017-01-17T00:00:00Z",
         "negative_subject_sentences":6,
         "positive_subject_sentences":9
      },
      {
         "mixed_subject_sentences":2,
         "date":"2017-01-18T00:00:00Z",
         "negative_subject_sentences":9,
         "positive_subject_sentences":23
      },
      {
         "mixed_subject_sentences":3,
         "date":"2017-01-19T00:00:00Z",
         "negative_subject_sentences":18,
         "positive_subject_sentences":20
      },
      {
         "mixed_subject_sentences":1,
         "date":"2017-01-20T00:00:00Z",
         "negative_subject_sentences":5,
         "positive_subject_sentences":7
      },
      {
         "mixed_subject_sentences":1,
         "date":"2017-01-21T00:00:00Z",
         "negative_subject_sentences":1,
         "positive_subject_sentences":4
      },
      {
         "mixed_subject_sentences":7,
         "date":"2017-01-22T00:00:00Z",
         "negative_subject_sentences":10,
         "positive_subject_sentences":85
      },
      {
         "mixed_subject_sentences":1,
         "date":"2017-01-23T00:00:00Z",
         "negative_subject_sentences":11,
         "positive_subject_sentences":15
      },
      {
         "mixed_subject_sentences":4,
         "date":"2017-01-24T00:00:00Z",
         "negative_subject_sentences":33,
         "positive_subject_sentences":46
      },
      {
         "mixed_subject_sentences":11,
         "date":"2017-01-25T00:00:00Z",
         "negative_subject_sentences":54,
         "positive_subject_sentences":45
      },
      {
         "mixed_subject_sentences":13,
         "date":"2017-01-26T00:00:00Z",
         "negative_subject_sentences":139,
         "positive_subject_sentences":195
      },
      {
         "mixed_subject_sentences":19,
         "date":"2017-01-27T00:00:00Z",
         "negative_subject_sentences":73,
         "positive_subject_sentences":160
      },
      {
         "mixed_subject_sentences":107,
         "date":"2017-01-28T00:00:00Z",
         "negative_subject_sentences":880,
         "positive_subject_sentences":332
      },
      {
         "mixed_subject_sentences":337,
         "date":"2017-01-29T00:00:00Z",
         "negative_subject_sentences":2523,
         "positive_subject_sentences":1478
      },
      {
         "mixed_subject_sentences":286,
         "date":"2017-01-30T00:00:00Z",
         "negative_subject_sentences":1907,
         "positive_subject_sentences":2072
      },
      {
         "mixed_subject_sentences":58,
         "date":"2017-01-31T00:00:00Z",
         "negative_subject_sentences":350,
         "positive_subject_sentences":258
      },
      {
         "mixed_subject_sentences":54,
         "date":"2017-02-01T00:00:00Z",
         "negative_subject_sentences":356,
         "positive_subject_sentences":214
      },
      {
         "mixed_subject_sentences":50,
         "date":"2017-02-02T00:00:00Z",
         "negative_subject_sentences":304,
         "positive_subject_sentences":163
      },
      {
         "mixed_subject_sentences":20,
         "date":"2017-02-03T00:00:00Z",
         "negative_subject_sentences":112,
         "positive_subject_sentences":85
      },
      {
         "mixed_subject_sentences":11,
         "date":"2017-02-04T00:00:00Z",
         "negative_subject_sentences":51,
         "positive_subject_sentences":95
      },
      {
         "mixed_subject_sentences":51,
         "date":"2017-02-05T00:00:00Z",
         "negative_subject_sentences":223,
         "positive_subject_sentences":379
      },
      {
         "mixed_subject_sentences":51,
         "date":"2017-02-06T00:00:00Z",
         "negative_subject_sentences":166,
         "positive_subject_sentences":151
      },
      {
         "mixed_subject_sentences":15,
         "date":"2017-02-07T00:00:00Z",
         "negative_subject_sentences":76,
         "positive_subject_sentences":124
      },
      {
         "mixed_subject_sentences":40,
         "date":"2017-02-08T00:00:00Z",
         "negative_subject_sentences":176,
         "positive_subject_sentences":120
      },
      {
         "mixed_subject_sentences":23,
         "date":"2017-02-09T00:00:00Z",
         "negative_subject_sentences":94,
         "positive_subject_sentences":98
      },
      {
         "mixed_subject_sentences":34,
         "date":"2017-02-10T00:00:00Z",
         "negative_subject_sentences":110,
         "positive_subject_sentences":112
      },
      {
         "mixed_subject_sentences":14,
         "date":"2017-02-11T00:00:00Z",
         "negative_subject_sentences":47,
         "positive_subject_sentences":69
      },
      {
         "mixed_subject_sentences":14,
         "date":"2017-02-12T00:00:00Z",
         "negative_subject_sentences":34,
         "positive_subject_sentences":58
      },
      {
         "mixed_subject_sentences":24,
         "date":"2017-02-13T00:00:00Z",
         "negative_subject_sentences":94,
         "positive_subject_sentences":121
      },
      {
         "mixed_subject_sentences":20,
         "date":"2017-02-14T00:00:00Z",
         "negative_subject_sentences":93,
         "positive_subject_sentences":139
      },
      {
         "mixed_subject_sentences":29,
         "date":"2017-02-15T00:00:00Z",
         "negative_subject_sentences":78,
         "positive_subject_sentences":89
      },
      {
         "mixed_subject_sentences":39,
         "date":"2017-02-16T00:00:00Z",
         "negative_subject_sentences":169,
         "positive_subject_sentences":181
      },
      {
         "mixed_subject_sentences":44,
         "date":"2017-02-17T00:00:00Z",
         "negative_subject_sentences":130,
         "positive_subject_sentences":212
      },
      {
         "mixed_subject_sentences":3,
         "date":"2017-02-18T00:00:00Z",
         "negative_subject_sentences":19,
         "positive_subject_sentences":18
      },
      {
         "mixed_subject_sentences":21,
         "date":"2017-02-19T00:00:00Z",
         "negative_subject_sentences":63,
         "positive_subject_sentences":170
      },
      {
         "mixed_subject_sentences":147,
         "date":"2017-02-20T00:00:00Z",
         "negative_subject_sentences":105,
         "positive_subject_sentences":178
      },
      {
         "mixed_subject_sentences":79,
         "date":"2017-02-21T00:00:00Z",
         "negative_subject_sentences":79,
         "positive_subject_sentences":66
      },
      {
         "mixed_subject_sentences":25,
         "date":"2017-02-22T00:00:00Z",
         "negative_subject_sentences":132,
         "positive_subject_sentences":217
      },
      {
         "mixed_subject_sentences":52,
         "date":"2017-02-23T00:00:00Z",
         "negative_subject_sentences":223,
         "positive_subject_sentences":314
      },
      {
         "mixed_subject_sentences":59,
         "date":"2017-02-24T00:00:00Z",
         "negative_subject_sentences":263,
         "positive_subject_sentences":409
      },
      {
         "mixed_subject_sentences":155,
         "date":"2017-02-25T00:00:00Z",
         "negative_subject_sentences":765,
         "positive_subject_sentences":1051
      },
      {
         "mixed_subject_sentences":162,
         "date":"2017-02-26T00:00:00Z",
         "negative_subject_sentences":779,
         "positive_subject_sentences":929
      },
      {
         "mixed_subject_sentences":565,
         "date":"2017-02-27T00:00:00Z",
         "negative_subject_sentences":3022,
         "positive_subject_sentences":3972
      },
      {
         "mixed_subject_sentences":163,
         "date":"2017-02-28T00:00:00Z",
         "negative_subject_sentences":1025,
         "positive_subject_sentences":1045
      },
      {
         "mixed_subject_sentences":56,
         "date":"2017-03-01T00:00:00Z",
         "negative_subject_sentences":294,
         "positive_subject_sentences":326
      },
      {
         "mixed_subject_sentences":66,
         "date":"2017-03-02T00:00:00Z",
         "negative_subject_sentences":296,
         "positive_subject_sentences":561
      },
      {
         "mixed_subject_sentences":11,
         "date":"2017-03-03T00:00:00Z",
         "negative_subject_sentences":63,
         "positive_subject_sentences":63
      },
      {
         "mixed_subject_sentences":10,
         "date":"2017-03-04T00:00:00Z",
         "negative_subject_sentences":66,
         "positive_subject_sentences":54
      },
      {
         "mixed_subject_sentences":8,
         "positive_subject_sentences":72,
         "date":"2017-03-05T00:00:00Z",
         "negative_subject_sentences":82
      },
      {
         "mixed_subject_sentences":1,
         "positive_subject_sentences":13,
         "date":"2017-03-06T00:00:00Z",
         "negative_subject_sentences":32
      }
   ],
   "Documents_Positivity":45,
   "Documents_Negativity":46,
   "Mix": 6 ,
   "Sumatory_documents_positive":1894,
   "status_message":"OK",
   "Mixed_documents":380,
   "Sumatory_documents_negative":1954
}
