[{
        "userId": 3,
        "userNameId": "sammuel.thompson",
        "roleId": 1,
        "role": "ROLE_ANALYST",
        "clientId": 3,
        "clientName": "Mars",
        "brandId": 1,
        "brandName": "M&M",
        "projectId": 8,
        "projectName": "New Postman Project"
    },
    {
        "userId": 4,
        "userNameId": "sammuel.thompson",
        "roleId": 1,
        "role": "ROLE_ANALYST",
        "clientId": 3,
        "clientName": "Mars",
        "brandId": 1,
        "brandName": "M&M",
        "projectId": 8,
        "projectName": "New Postman Project"
    },
    {
        "userId": 5,
        "userNameId": "sammuel.thompson",
        "roleId": 1,
        "role": "ROLE_ANALYST",
        "clientId": 3,
        "clientName": "Mars",
        "brandId": 1,
        "brandName": "M&M",
        "projectId": 8,
        "projectName": "New Postman Project"
    },
    {
        "userId": 6,
        "userNameId": "sammuel.thompson",
        "roleId": 1,
        "role": "ROLE_ANALYST",
        "clientId": 3,
        "clientName": "Mars",
        "brandId": 1,
        "brandName": "M&M",
        "projectId": 8,
        "projectName": "New Postman Project"
    },
    {
        "userId": 7,
        "userNameId": "sammuel.thompson",
        "roleId": 1,
        "role": "ROLE_ANALYST",
        "clientId": 3,
        "clientName": "Mars",
        "brandId": 1,
        "brandName": "M&M",
        "projectId": 8,
        "projectName": "New Postman Project"
    },
    {
        "userId": 8,
        "userNameId": "sammuel.thompson",
        "roleId": 1,
        "role": "ROLE_ANALYST",
        "clientId": 3,
        "clientName": "Mars",
        "brandId": 1,
        "brandName": "M&M",
        "projectId": 8,
        "projectName": "New Postman Project"
    },
    {
        "userId": 10,
        "userNameId": "sammuel.thompson",
        "roleId": 1,
        "role": "ROLE_ANALYST",
        "clientId": 3,
        "clientName": "Mars",
        "brandId": 1,
        "brandName": "M&M",
        "projectId": 8,
        "projectName": "New Postman Project"
    },
    {
        "userId": 11,
        "userNameId": "sammuel.thompson",
        "roleId": 1,
        "role": "ROLE_ANALYST",
        "clientId": 3,
        "clientName": "Mars",
        "brandId": 1,
        "brandName": "M&M",
        "projectId": 8,
        "projectName": "New Postman Project"
    }

]