{
  "candleStickChart": {
    "line": [
      {
        "low": 0.0006862344559604424,
        "high": 0.0006862344559604424,
        "trend": "up",
        "dateValue": 1488758400,
        "value": 0.0006862344559604424
      },
      {
        "low": 0.000017735286566805352,
        "high": 0.000023455358293373328,
        "trend": "down",
        "dateValue": 1481500800,
        "value": 0.00002059532243008934
      },
      {
        "low": 0.000019725841910898156,
        "high": 0.00003290494640241647,
        "trend": "up",
        "dateValue": 1482105600,
        "value": 0.000026315394156657316
      },
      {
        "low": 0.000001925361986570304,
        "high": 0.00002434721734370769,
        "trend": "down",
        "dateValue": 1482710400,
        "value": 0.000013136289665138998
      },
      {
        "low": 0.00003339462952442194,
        "high": 0.00003772166052013083,
        "trend": "up",
        "dateValue": 1483315200,
        "value": 0.00003555814502227639
      },
      {
        "low": 0.000030065864474335124,
        "high": 0.00003239636357879987,
        "trend": "down",
        "dateValue": 1483920000,
        "value": 0.0000312311140265675
      },
      {
        "low": 0.000029847454015154937,
        "high": 0.00003727577224690955,
        "trend": "up",
        "dateValue": 1484524800,
        "value": 0.000033561613131032246
      },
      {
        "low": -0.0008434740867162345,
        "high": 0.0008957406765147898,
        "trend": "down",
        "dateValue": 1485129600,
        "value": 0.000026133294899277627
      },
      {
        "low": 0.0011790556261534692,
        "high": 0.002351640490107135,
        "trend": "up",
        "dateValue": 1485734400,
        "value": 0.001765348058130302
      },
      {
        "low": 0.0005642913055935556,
        "high": 0.0006212350827597174,
        "trend": "up",
        "dateValue": 1486339200,
        "value": 0.0005927631941766365
      },
      {
        "low": 0.000484455322265089,
        "high": 0.0005871835117558605,
        "trend": "up",
        "dateValue": 1486944000,
        "value": 0.0005358194170104747
      },
      {
        "low": -0.0007535790776062124,
        "high": 0.0016197615326456187,
        "trend": "down",
        "dateValue": 1487548800,
        "value": 0.00043309122751970325
      },
      {
        "low": 0.0017463331468659884,
        "high": 0.0038665305286770804,
        "trend": "up",
        "dateValue": 1488153600,
        "value": 0.0028064318377715343
      }
    ]
  }
}